Erro ao acessar o site em: 1:1:27 | 
Erro ao acessar o site em: 11:2:55 | 
Erro ao acessar o site em: 19:24:23 | 
Erro ao acessar o site em: 19:55:18 | 
Erro ao acessar o site em: 20:26:5 | 
Erro ao acessar o site em: 20:36:36 | 
Erro ao acessar o site em: 21:2:21 | 
Erro ao acessar o site em: 21:28:7 | 
Erro ao acessar o site em: 21:53:53 | 
Erro ao acessar o site em: 22:19:38 | 
Erro ao acessar o site em: 22:45:24 | 
Erro ao acessar o site em: 23:11:10 | 
Erro ao acessar o site em: 23:36:55 | 
