Erro ao acessar o site em: 3:31:0 | 
Erro ao acessar o site em: 3:41:28 | 
Erro ao acessar o site em: 4:42:12 | 
Erro ao acessar o site em: 4:42:36 | 
Erro ao acessar o site em: 4:43:4 | 
Erro ao acessar o site em: 4:43:35 | 
Erro ao acessar o site em: 4:44:51 / tentou mais de 5 vezes, reiniciou o web server IIS e Banco de dados. | 
Erro ao acessar o site em: 13:42:24 | 
Erro ao acessar o site em: 17:43:23 | 
