Erro ao acessar o site em: 4:6:50 | 
Erro ao acessar o site em: 5:32:17 | 
Erro ao acessar o site em: 6:4:41 | 
Erro ao acessar o site em: 6:4:56 | 
Erro ao acessar o site em: 6:5:18 | 
Erro ao acessar o site em: 6:5:33 | 
Erro ao acessar o site em: 6:10:2 / tentou mais de 5 vezes, reiniciou o web server IIS e Banco de dados. | 
Erro ao acessar o site em: 8:0:45 | 
