Erro ao acessar o site em: 3:48:32 | 
Erro ao acessar o site em: 3:49:21 | 
Erro ao acessar o site em: 3:55:1 | 
Erro ao acessar o site em: 4:5:44 | 
Erro ao acessar o site em: 4:6:11 | 
Erro ao acessar o site em: 4:16:0 | 
Erro ao acessar o site em: 4:22:55 | 
Erro ao acessar o site em: 4:28:44 | 
Erro ao acessar o site em: 4:29:39 | 
