Erro ao acessar o site em: 19:55:30 | 
Erro ao acessar o site em: 19:55:55 | 
Erro ao acessar o site em: 19:56:10 | 
Erro ao acessar o site em: 19:56:25 | 
Erro ao acessar o site em: 19:56:40 | 
Erro ao acessar o site em: 19:56:56 | 
Erro ao acessar o site em: 19:57:11 | 
Erro ao acessar o site em: 19:57:26 | 
Erro ao acessar o site em: 19:57:41 | 
Erro ao acessar o site em: 19:57:56 | 
Erro ao acessar o site em: 19:58:11 | 
Erro ao acessar o site em: 19:58:26 | 
Erro ao acessar o site em: 19:58:41 | 
Erro ao acessar o site em: 19:58:56 | 
Erro ao acessar o site em: 19:59:11 | 
Erro ao acessar o site em: 19:59:26 | 
Erro ao acessar o site em: 19:59:41 | 
Erro ao acessar o site em: 19:59:57 | 
Erro ao acessar o site em: 20:0:12 | 
Erro ao acessar o site em: 20:0:27 | 
Erro ao acessar o site em: 20:0:42 | 
Erro ao acessar o site em: 20:0:57 | 
Erro ao acessar o site em: 20:1:12 | 
Erro ao acessar o site em: 20:1:27 | 
Erro ao acessar o site em: 20:1:42 | 
Erro ao acessar o site em: 20:1:57 | 
Erro ao acessar o site em: 20:2:12 | 
Erro ao acessar o site em: 20:2:27 | 
Erro ao acessar o site em: 20:2:42 | 
Erro ao acessar o site em: 20:2:57 | 
Erro ao acessar o site em: 20:3:12 | 
Erro ao acessar o site em: 20:3:27 | 
Erro ao acessar o site em: 20:3:42 | 
Erro ao acessar o site em: 20:3:57 | 
Erro ao acessar o site em: 20:4:12 | 
Erro ao acessar o site em: 20:4:27 | 
Erro ao acessar o site em: 20:4:42 | 
Erro ao acessar o site em: 20:4:58 | 
Erro ao acessar o site em: 20:5:13 | 
Erro ao acessar o site em: 20:5:28 | 
Erro ao acessar o site em: 20:5:43 | 
Erro ao acessar o site em: 20:5:58 | 
Erro ao acessar o site em: 20:6:13 | 
Erro ao acessar o site em: 20:6:28 | 
Erro ao acessar o site em: 20:6:43 | 
Erro ao acessar o site em: 20:6:58 | 
Erro ao acessar o site em: 20:7:13 | 
Erro ao acessar o site em: 20:7:28 | 
Erro ao acessar o site em: 20:7:43 | 
Erro ao acessar o site em: 20:7:58 | 
Erro ao acessar o site em: 20:8:13 | 
Erro ao acessar o site em: 20:8:28 | 
Erro ao acessar o site em: 20:8:43 | 
Erro ao acessar o site em: 20:8:58 | 
Erro ao acessar o site em: 20:9:13 | 
Erro ao acessar o site em: 20:9:28 | 
Erro ao acessar o site em: 20:9:44 | 
Erro ao acessar o site em: 20:9:59 | 
Erro ao acessar o site em: 20:10:14 | 
Erro ao acessar o site em: 20:10:29 | 
Erro ao acessar o site em: 20:10:44 | 
Erro ao acessar o site em: 20:10:59 | 
Erro ao acessar o site em: 20:11:14 | 
Erro ao acessar o site em: 20:11:29 | 
Erro ao acessar o site em: 20:11:44 | 
Erro ao acessar o site em: 20:11:59 | 
Erro ao acessar o site em: 20:12:14 | 
Erro ao acessar o site em: 20:12:29 | 
Erro ao acessar o site em: 20:12:44 | 
Erro ao acessar o site em: 20:12:59 | 
Erro ao acessar o site em: 20:13:14 | 
Erro ao acessar o site em: 20:13:29 | 
Erro ao acessar o site em: 20:13:44 | 
Erro ao acessar o site em: 20:13:59 | 
Erro ao acessar o site em: 20:14:14 | 
Erro ao acessar o site em: 20:14:29 | 
Erro ao acessar o site em: 20:14:45 | 
Erro ao acessar o site em: 20:15:0 | 
Erro ao acessar o site em: 20:15:15 | 
Erro ao acessar o site em: 20:15:30 | 
Erro ao acessar o site em: 20:15:45 | 
Erro ao acessar o site em: 20:16:0 | 
Erro ao acessar o site em: 20:16:15 | 
Erro ao acessar o site em: 20:16:30 | 
Erro ao acessar o site em: 20:16:45 | 
Erro ao acessar o site em: 20:17:0 | 
Erro ao acessar o site em: 20:17:15 | 
Erro ao acessar o site em: 20:17:30 | 
Erro ao acessar o site em: 20:17:45 | 
Erro ao acessar o site em: 20:18:0 | 
Erro ao acessar o site em: 20:18:15 | 
Erro ao acessar o site em: 20:18:30 | 
Erro ao acessar o site em: 20:18:45 | 
Erro ao acessar o site em: 20:19:0 | 
Erro ao acessar o site em: 20:19:16 | 
Erro ao acessar o site em: 20:19:31 | 
Erro ao acessar o site em: 20:19:46 | 
Erro ao acessar o site em: 20:20:1 | 
Erro ao acessar o site em: 20:20:16 | 
Erro ao acessar o site em: 20:20:31 | 
Erro ao acessar o site em: 20:20:46 | 
Erro ao acessar o site em: 20:21:1 | 
Erro ao acessar o site em: 20:21:16 | 
Erro ao acessar o site em: 20:21:31 | 
Erro ao acessar o site em: 20:21:46 | 
Erro ao acessar o site em: 20:22:1 | 
Erro ao acessar o site em: 20:22:16 | 
Erro ao acessar o site em: 20:22:31 | 
Erro ao acessar o site em: 20:22:46 | 
Erro ao acessar o site em: 20:23:1 | 
Erro ao acessar o site em: 20:23:16 | 
Erro ao acessar o site em: 20:23:32 | 
Erro ao acessar o site em: 20:23:47 | 
Erro ao acessar o site em: 20:24:2 | 
Erro ao acessar o site em: 20:24:17 | 
Erro ao acessar o site em: 20:24:32 | 
Erro ao acessar o site em: 20:24:47 | 
Erro ao acessar o site em: 20:25:2 | 
Erro ao acessar o site em: 20:25:17 | 
Erro ao acessar o site em: 20:25:32 | 
Erro ao acessar o site em: 20:25:47 | 
Erro ao acessar o site em: 20:26:2 | 
Erro ao acessar o site em: 20:26:17 | 
Erro ao acessar o site em: 20:26:32 | 
Erro ao acessar o site em: 20:26:47 | 
Erro ao acessar o site em: 20:27:2 | 
Erro ao acessar o site em: 20:27:17 | 
Erro ao acessar o site em: 20:27:32 | 
Erro ao acessar o site em: 20:27:47 | 
Erro ao acessar o site em: 20:28:3 | 
Erro ao acessar o site em: 20:28:18 | 
Erro ao acessar o site em: 20:28:33 | 
Erro ao acessar o site em: 20:28:48 | 
Erro ao acessar o site em: 20:29:3 | 
Erro ao acessar o site em: 20:29:18 | 
Erro ao acessar o site em: 20:29:33 | 
Erro ao acessar o site em: 20:29:48 | 
Erro ao acessar o site em: 20:30:3 | 
Erro ao acessar o site em: 20:30:18 | 
Erro ao acessar o site em: 20:30:33 | 
Erro ao acessar o site em: 20:30:48 | 
Erro ao acessar o site em: 20:31:3 | 
Erro ao acessar o site em: 20:31:18 | 
Erro ao acessar o site em: 20:31:33 | 
Erro ao acessar o site em: 20:31:48 | 
Erro ao acessar o site em: 20:32:4 | 
Erro ao acessar o site em: 20:32:19 | 
Erro ao acessar o site em: 20:32:34 | 
Erro ao acessar o site em: 20:32:49 | 
Erro ao acessar o site em: 20:33:4 | 
Erro ao acessar o site em: 20:33:19 | 
Erro ao acessar o site em: 20:33:34 | 
Erro ao acessar o site em: 20:33:49 | 
Erro ao acessar o site em: 20:34:4 | 
Erro ao acessar o site em: 20:34:19 | 
Erro ao acessar o site em: 20:34:34 | 
Erro ao acessar o site em: 20:34:49 | 
Erro ao acessar o site em: 20:35:4 | 
Erro ao acessar o site em: 20:35:19 | 
Erro ao acessar o site em: 20:35:34 | 
Erro ao acessar o site em: 20:35:50 | 
Erro ao acessar o site em: 20:36:5 | 
Erro ao acessar o site em: 20:36:20 | 
Erro ao acessar o site em: 20:36:35 | 
Erro ao acessar o site em: 20:36:50 | 
Erro ao acessar o site em: 20:37:5 | 
Erro ao acessar o site em: 20:37:20 | 
Erro ao acessar o site em: 20:37:35 | 
Erro ao acessar o site em: 20:37:50 | 
Erro ao acessar o site em: 20:38:5 | 
Erro ao acessar o site em: 20:38:20 | 
Erro ao acessar o site em: 20:38:35 | 
Erro ao acessar o site em: 20:38:50 | 
Erro ao acessar o site em: 20:39:5 | 
Erro ao acessar o site em: 20:39:20 | 
Erro ao acessar o site em: 20:39:36 | 
Erro ao acessar o site em: 20:39:51 | 
Erro ao acessar o site em: 20:40:6 | 
Erro ao acessar o site em: 20:40:21 | 
Erro ao acessar o site em: 20:40:36 | 
Erro ao acessar o site em: 20:40:51 | 
Erro ao acessar o site em: 20:41:6 | 
Erro ao acessar o site em: 20:41:21 | 
Erro ao acessar o site em: 20:41:36 | 
Erro ao acessar o site em: 20:41:51 | 
Erro ao acessar o site em: 20:42:6 | 
Erro ao acessar o site em: 20:42:21 | 
Erro ao acessar o site em: 20:42:36 | 
Erro ao acessar o site em: 20:42:51 | 
Erro ao acessar o site em: 20:43:7 | 
Erro ao acessar o site em: 20:43:22 | 
Erro ao acessar o site em: 20:43:37 | 
Erro ao acessar o site em: 20:43:52 | 
Erro ao acessar o site em: 20:44:7 | 
Erro ao acessar o site em: 20:44:22 | 
Erro ao acessar o site em: 20:44:37 | 
Erro ao acessar o site em: 20:44:52 | 
Erro ao acessar o site em: 20:45:7 | 
Erro ao acessar o site em: 20:45:22 | 
Erro ao acessar o site em: 20:45:37 | 
Erro ao acessar o site em: 20:45:52 | 
Erro ao acessar o site em: 20:46:7 | 
Erro ao acessar o site em: 20:46:22 | 
Erro ao acessar o site em: 20:46:38 | 
Erro ao acessar o site em: 20:46:53 | 
Erro ao acessar o site em: 20:47:8 | 
Erro ao acessar o site em: 20:47:23 | 
Erro ao acessar o site em: 20:47:38 | 
Erro ao acessar o site em: 20:47:53 | 
Erro ao acessar o site em: 20:48:8 | 
Erro ao acessar o site em: 20:48:23 | 
Erro ao acessar o site em: 20:48:38 | 
Erro ao acessar o site em: 20:48:53 | 
Erro ao acessar o site em: 20:49:8 | 
Erro ao acessar o site em: 20:49:23 | 
Erro ao acessar o site em: 20:49:38 | 
Erro ao acessar o site em: 20:49:53 | 
Erro ao acessar o site em: 20:50:8 | 
Erro ao acessar o site em: 20:50:24 | 
Erro ao acessar o site em: 20:50:39 | 
Erro ao acessar o site em: 20:50:54 | 
Erro ao acessar o site em: 20:51:9 | 
Erro ao acessar o site em: 20:51:24 | 
Erro ao acessar o site em: 20:51:39 | 
Erro ao acessar o site em: 20:51:54 | 
Erro ao acessar o site em: 20:52:9 | 
Erro ao acessar o site em: 20:52:24 | 
Erro ao acessar o site em: 20:52:39 | 
Erro ao acessar o site em: 20:52:54 | 
Erro ao acessar o site em: 20:53:9 | 
Erro ao acessar o site em: 20:53:24 | 
Erro ao acessar o site em: 20:53:39 | 
Erro ao acessar o site em: 20:53:55 | 
Erro ao acessar o site em: 20:54:10 | 
Erro ao acessar o site em: 20:54:25 | 
Erro ao acessar o site em: 20:54:40 | 
Erro ao acessar o site em: 20:54:55 | 
Erro ao acessar o site em: 20:55:10 | 
Erro ao acessar o site em: 20:55:25 | 
Erro ao acessar o site em: 20:55:40 | 
Erro ao acessar o site em: 20:55:55 | 
Erro ao acessar o site em: 20:56:10 | 
Erro ao acessar o site em: 20:56:25 | 
Erro ao acessar o site em: 20:56:40 | 
Erro ao acessar o site em: 20:56:55 | 
Erro ao acessar o site em: 20:57:11 | 
Erro ao acessar o site em: 20:57:26 | 
Erro ao acessar o site em: 20:57:41 | 
Erro ao acessar o site em: 20:57:56 | 
Erro ao acessar o site em: 20:58:11 | 
Erro ao acessar o site em: 20:58:26 | 
Erro ao acessar o site em: 20:58:41 | 
Erro ao acessar o site em: 20:58:56 | 
Erro ao acessar o site em: 20:59:11 | 
Erro ao acessar o site em: 20:59:26 | 
Erro ao acessar o site em: 20:59:41 | 
Erro ao acessar o site em: 20:59:56 | 
Erro ao acessar o site em: 21:0:12 | 
Erro ao acessar o site em: 21:0:27 | 
Erro ao acessar o site em: 21:0:42 | 
Erro ao acessar o site em: 21:0:57 | 
Erro ao acessar o site em: 21:1:12 | 
Erro ao acessar o site em: 21:1:27 | 
Erro ao acessar o site em: 21:1:42 | 
Erro ao acessar o site em: 21:1:57 | 
Erro ao acessar o site em: 21:2:12 | 
Erro ao acessar o site em: 21:2:27 | 
Erro ao acessar o site em: 21:2:42 | 
Erro ao acessar o site em: 21:2:57 | 
Erro ao acessar o site em: 21:3:12 | 
Erro ao acessar o site em: 21:3:27 | 
Erro ao acessar o site em: 21:3:43 | 
Erro ao acessar o site em: 21:3:58 | 
Erro ao acessar o site em: 21:4:13 | 
Erro ao acessar o site em: 21:4:28 | 
Erro ao acessar o site em: 21:4:43 | 
Erro ao acessar o site em: 21:4:58 | 
Erro ao acessar o site em: 21:5:13 | 
Erro ao acessar o site em: 21:5:28 | 
Erro ao acessar o site em: 21:5:43 | 
Erro ao acessar o site em: 21:5:58 | 
Erro ao acessar o site em: 21:6:13 | 
Erro ao acessar o site em: 21:6:28 | 
Erro ao acessar o site em: 21:6:43 | 
Erro ao acessar o site em: 21:6:59 | 
Erro ao acessar o site em: 21:7:14 | 
Erro ao acessar o site em: 21:7:29 | 
Erro ao acessar o site em: 21:7:44 | 
Erro ao acessar o site em: 21:7:59 | 
Erro ao acessar o site em: 21:8:14 | 
Erro ao acessar o site em: 21:8:29 | 
Erro ao acessar o site em: 21:8:44 | 
Erro ao acessar o site em: 21:8:59 | 
Erro ao acessar o site em: 21:9:14 | 
Erro ao acessar o site em: 21:9:29 | 
Erro ao acessar o site em: 21:9:44 | 
Erro ao acessar o site em: 21:9:59 | 
Erro ao acessar o site em: 21:10:15 | 
Erro ao acessar o site em: 21:10:30 | 
Erro ao acessar o site em: 21:10:45 | 
Erro ao acessar o site em: 21:11:0 | 
Erro ao acessar o site em: 21:11:15 | 
Erro ao acessar o site em: 21:11:30 | 
Erro ao acessar o site em: 21:11:45 | 
Erro ao acessar o site em: 21:12:0 | 
Erro ao acessar o site em: 21:12:15 | 
Erro ao acessar o site em: 21:12:30 | 
Erro ao acessar o site em: 21:12:45 | 
Erro ao acessar o site em: 21:13:0 | 
Erro ao acessar o site em: 21:13:16 | 
Erro ao acessar o site em: 21:13:31 | 
Erro ao acessar o site em: 21:13:46 | 
Erro ao acessar o site em: 21:14:1 | 
Erro ao acessar o site em: 21:14:16 | 
Erro ao acessar o site em: 21:14:31 | 
Erro ao acessar o site em: 21:14:46 | 
Erro ao acessar o site em: 21:15:1 | 
Erro ao acessar o site em: 21:15:16 | 
Erro ao acessar o site em: 21:15:31 | 
Erro ao acessar o site em: 21:15:46 | 
Erro ao acessar o site em: 21:16:2 | 
Erro ao acessar o site em: 21:16:17 | 
Erro ao acessar o site em: 21:16:32 | 
Erro ao acessar o site em: 21:16:47 | 
Erro ao acessar o site em: 21:17:2 | 
Erro ao acessar o site em: 21:17:17 | 
Erro ao acessar o site em: 21:17:32 | 
Erro ao acessar o site em: 21:17:47 | 
Erro ao acessar o site em: 21:18:2 | 
Erro ao acessar o site em: 21:18:17 | 
Erro ao acessar o site em: 21:18:32 | 
Erro ao acessar o site em: 21:18:48 | 
Erro ao acessar o site em: 21:19:3 | 
Erro ao acessar o site em: 21:19:18 | 
Erro ao acessar o site em: 21:19:33 | 
Erro ao acessar o site em: 21:19:48 | 
Erro ao acessar o site em: 21:20:3 | 
Erro ao acessar o site em: 21:20:18 | 
Erro ao acessar o site em: 21:20:33 | 
Erro ao acessar o site em: 21:20:48 | 
Erro ao acessar o site em: 21:21:3 | 
Erro ao acessar o site em: 21:21:18 | 
Erro ao acessar o site em: 21:21:34 | 
Erro ao acessar o site em: 21:21:49 | 
Erro ao acessar o site em: 21:22:4 | 
Erro ao acessar o site em: 21:22:19 | 
Erro ao acessar o site em: 21:22:34 | 
Erro ao acessar o site em: 21:22:49 | 
Erro ao acessar o site em: 21:23:4 | 
Erro ao acessar o site em: 21:23:19 | 
Erro ao acessar o site em: 21:23:34 | 
Erro ao acessar o site em: 21:23:49 | 
Erro ao acessar o site em: 21:24:4 | 
Erro ao acessar o site em: 21:24:19 | 
Erro ao acessar o site em: 21:24:35 | 
Erro ao acessar o site em: 21:24:50 | 
Erro ao acessar o site em: 21:25:5 | 
Erro ao acessar o site em: 21:25:20 | 
Erro ao acessar o site em: 21:25:35 | 
Erro ao acessar o site em: 21:25:50 | 
Erro ao acessar o site em: 21:26:5 | 
Erro ao acessar o site em: 21:26:20 | 
Erro ao acessar o site em: 21:26:35 | 
Erro ao acessar o site em: 21:26:50 | 
Erro ao acessar o site em: 21:27:5 | 
Erro ao acessar o site em: 21:27:21 | 
Erro ao acessar o site em: 21:27:36 | 
Erro ao acessar o site em: 21:27:51 | 
Erro ao acessar o site em: 21:28:6 | 
Erro ao acessar o site em: 21:28:21 | 
Erro ao acessar o site em: 21:28:36 | 
Erro ao acessar o site em: 21:28:51 | 
Erro ao acessar o site em: 21:29:6 | 
Erro ao acessar o site em: 21:29:21 | 
Erro ao acessar o site em: 21:29:36 | 
Erro ao acessar o site em: 21:29:51 | 
Erro ao acessar o site em: 21:30:7 | 
Erro ao acessar o site em: 21:30:22 | 
Erro ao acessar o site em: 21:30:37 | 
Erro ao acessar o site em: 21:30:52 | 
Erro ao acessar o site em: 21:31:7 | 
Erro ao acessar o site em: 21:31:22 | 
Erro ao acessar o site em: 21:31:37 | 
Erro ao acessar o site em: 21:31:52 | 
Erro ao acessar o site em: 21:32:7 | 
Erro ao acessar o site em: 21:32:22 | 
Erro ao acessar o site em: 21:32:37 | 
Erro ao acessar o site em: 21:32:53 | 
Erro ao acessar o site em: 21:33:8 | 
Erro ao acessar o site em: 21:33:23 | 
Erro ao acessar o site em: 21:33:38 | 
Erro ao acessar o site em: 21:33:53 | 
Erro ao acessar o site em: 21:34:8 | 
Erro ao acessar o site em: 21:34:23 | 
Erro ao acessar o site em: 21:34:38 | 
Erro ao acessar o site em: 21:34:53 | 
Erro ao acessar o site em: 21:35:8 | 
Erro ao acessar o site em: 21:35:23 | 
Erro ao acessar o site em: 21:35:39 | 
Erro ao acessar o site em: 21:35:54 | 
Erro ao acessar o site em: 21:36:9 | 
Erro ao acessar o site em: 21:36:24 | 
Erro ao acessar o site em: 21:36:39 | 
Erro ao acessar o site em: 21:36:54 | 
Erro ao acessar o site em: 21:37:9 | 
Erro ao acessar o site em: 21:37:24 | 
Erro ao acessar o site em: 21:37:39 | 
Erro ao acessar o site em: 21:37:54 | 
Erro ao acessar o site em: 21:38:9 | 
Erro ao acessar o site em: 21:38:25 | 
Erro ao acessar o site em: 21:38:40 | 
Erro ao acessar o site em: 21:38:55 | 
Erro ao acessar o site em: 21:39:10 | 
Erro ao acessar o site em: 21:39:25 | 
Erro ao acessar o site em: 21:39:40 | 
Erro ao acessar o site em: 21:39:55 | 
Erro ao acessar o site em: 21:40:10 | 
Erro ao acessar o site em: 21:40:25 | 
Erro ao acessar o site em: 21:40:40 | 
Erro ao acessar o site em: 21:40:55 | 
Erro ao acessar o site em: 21:41:10 | 
Erro ao acessar o site em: 21:41:26 | 
Erro ao acessar o site em: 21:41:41 | 
Erro ao acessar o site em: 21:41:56 | 
Erro ao acessar o site em: 21:42:11 | 
Erro ao acessar o site em: 21:42:26 | 
Erro ao acessar o site em: 21:42:41 | 
Erro ao acessar o site em: 21:42:56 | 
Erro ao acessar o site em: 21:43:11 | 
Erro ao acessar o site em: 21:43:26 | 
Erro ao acessar o site em: 21:43:41 | 
Erro ao acessar o site em: 21:43:56 | 
Erro ao acessar o site em: 21:44:12 | 
Erro ao acessar o site em: 21:44:27 | 
Erro ao acessar o site em: 21:44:42 | 
Erro ao acessar o site em: 21:44:57 | 
Erro ao acessar o site em: 21:45:12 | 
Erro ao acessar o site em: 21:45:27 | 
Erro ao acessar o site em: 21:45:42 | 
Erro ao acessar o site em: 21:45:57 | 
Erro ao acessar o site em: 21:46:12 | 
Erro ao acessar o site em: 21:46:27 | 
Erro ao acessar o site em: 21:46:42 | 
Erro ao acessar o site em: 21:46:58 | 
Erro ao acessar o site em: 21:47:13 | 
Erro ao acessar o site em: 21:47:28 | 
Erro ao acessar o site em: 21:47:43 | 
Erro ao acessar o site em: 21:47:58 | 
Erro ao acessar o site em: 21:48:13 | 
Erro ao acessar o site em: 21:48:28 | 
Erro ao acessar o site em: 21:48:43 | 
Erro ao acessar o site em: 21:48:58 | 
Erro ao acessar o site em: 21:49:13 | 
Erro ao acessar o site em: 21:49:28 | 
Erro ao acessar o site em: 21:49:43 | 
Erro ao acessar o site em: 21:49:59 | 
Erro ao acessar o site em: 21:50:14 | 
Erro ao acessar o site em: 21:50:29 | 
Erro ao acessar o site em: 21:50:44 | 
Erro ao acessar o site em: 21:50:59 | 
Erro ao acessar o site em: 21:51:14 | 
Erro ao acessar o site em: 21:51:29 | 
Erro ao acessar o site em: 21:51:44 | 
Erro ao acessar o site em: 21:51:59 | 
Erro ao acessar o site em: 21:52:14 | 
Erro ao acessar o site em: 21:52:30 | 
Erro ao acessar o site em: 21:52:45 | 
Erro ao acessar o site em: 21:53:0 | 
Erro ao acessar o site em: 21:53:15 | 
Erro ao acessar o site em: 21:53:30 | 
Erro ao acessar o site em: 21:53:45 | 
Erro ao acessar o site em: 21:54:0 | 
Erro ao acessar o site em: 21:54:15 | 
Erro ao acessar o site em: 21:54:30 | 
Erro ao acessar o site em: 21:54:45 | 
Erro ao acessar o site em: 21:55:0 | 
Erro ao acessar o site em: 21:55:16 | 
Erro ao acessar o site em: 21:55:31 | 
Erro ao acessar o site em: 21:55:46 | 
Erro ao acessar o site em: 21:56:1 | 
Erro ao acessar o site em: 21:56:16 | 
Erro ao acessar o site em: 21:56:31 | 
Erro ao acessar o site em: 21:56:46 | 
Erro ao acessar o site em: 21:57:1 | 
Erro ao acessar o site em: 21:57:16 | 
Erro ao acessar o site em: 21:57:32 | 
Erro ao acessar o site em: 21:57:47 | 
Erro ao acessar o site em: 21:58:2 | 
Erro ao acessar o site em: 21:58:17 | 
Erro ao acessar o site em: 21:58:32 | 
Erro ao acessar o site em: 21:58:47 | 
Erro ao acessar o site em: 21:59:2 | 
Erro ao acessar o site em: 21:59:17 | 
Erro ao acessar o site em: 21:59:32 | 
Erro ao acessar o site em: 21:59:48 | 
Erro ao acessar o site em: 22:0:3 | 
Erro ao acessar o site em: 22:0:18 | 
Erro ao acessar o site em: 22:0:33 | 
Erro ao acessar o site em: 22:0:48 | 
Erro ao acessar o site em: 22:1:3 | 
Erro ao acessar o site em: 22:1:18 | 
Erro ao acessar o site em: 22:1:33 | 
Erro ao acessar o site em: 22:1:48 | 
Erro ao acessar o site em: 22:2:3 | 
Erro ao acessar o site em: 22:2:19 | 
Erro ao acessar o site em: 22:2:34 | 
Erro ao acessar o site em: 22:2:49 | 
Erro ao acessar o site em: 22:3:4 | 
Erro ao acessar o site em: 22:3:19 | 
Erro ao acessar o site em: 22:3:34 | 
Erro ao acessar o site em: 22:3:49 | 
Erro ao acessar o site em: 22:4:4 | 
Erro ao acessar o site em: 22:4:19 | 
Erro ao acessar o site em: 22:4:35 | 
Erro ao acessar o site em: 22:4:50 | 
Erro ao acessar o site em: 22:5:5 | 
Erro ao acessar o site em: 22:5:20 | 
Erro ao acessar o site em: 22:5:35 | 
Erro ao acessar o site em: 22:5:50 | 
Erro ao acessar o site em: 22:6:5 | 
Erro ao acessar o site em: 22:6:20 | 
Erro ao acessar o site em: 22:6:35 | 
Erro ao acessar o site em: 22:6:50 | 
Erro ao acessar o site em: 22:7:6 | 
Erro ao acessar o site em: 22:7:21 | 
Erro ao acessar o site em: 22:7:36 | 
Erro ao acessar o site em: 22:7:51 | 
Erro ao acessar o site em: 22:8:6 | 
Erro ao acessar o site em: 22:8:21 | 
Erro ao acessar o site em: 22:8:36 | 
Erro ao acessar o site em: 22:8:51 | 
Erro ao acessar o site em: 22:9:6 | 
Erro ao acessar o site em: 22:9:22 | 
Erro ao acessar o site em: 22:9:37 | 
Erro ao acessar o site em: 22:9:52 | 
Erro ao acessar o site em: 22:10:7 | 
Erro ao acessar o site em: 22:10:22 | 
Erro ao acessar o site em: 22:10:37 | 
Erro ao acessar o site em: 22:10:52 | 
Erro ao acessar o site em: 22:11:7 | 
Erro ao acessar o site em: 22:11:22 | 
Erro ao acessar o site em: 22:11:37 | 
Erro ao acessar o site em: 22:11:53 | 
Erro ao acessar o site em: 22:12:8 | 
Erro ao acessar o site em: 22:12:23 | 
Erro ao acessar o site em: 22:12:38 | 
Erro ao acessar o site em: 22:12:53 | 
Erro ao acessar o site em: 22:13:8 | 
Erro ao acessar o site em: 22:13:23 | 
Erro ao acessar o site em: 22:13:38 | 
Erro ao acessar o site em: 22:13:53 | 
Erro ao acessar o site em: 22:14:9 | 
Erro ao acessar o site em: 22:14:24 | 
Erro ao acessar o site em: 22:14:39 | 
Erro ao acessar o site em: 22:14:54 | 
Erro ao acessar o site em: 22:15:9 | 
Erro ao acessar o site em: 22:15:24 | 
Erro ao acessar o site em: 22:15:39 | 
Erro ao acessar o site em: 22:15:54 | 
Erro ao acessar o site em: 22:16:9 | 
Erro ao acessar o site em: 22:16:25 | 
Erro ao acessar o site em: 22:16:40 | 
Erro ao acessar o site em: 22:16:55 | 
Erro ao acessar o site em: 22:17:10 | 
Erro ao acessar o site em: 22:17:25 | 
Erro ao acessar o site em: 22:17:40 | 
Erro ao acessar o site em: 22:17:55 | 
Erro ao acessar o site em: 22:18:10 | 
Erro ao acessar o site em: 22:18:25 | 
Erro ao acessar o site em: 22:18:41 | 
Erro ao acessar o site em: 22:18:56 | 
Erro ao acessar o site em: 22:19:11 | 
Erro ao acessar o site em: 22:19:26 | 
Erro ao acessar o site em: 22:19:41 | 
Erro ao acessar o site em: 22:19:56 | 
Erro ao acessar o site em: 22:20:11 | 
Erro ao acessar o site em: 22:20:26 | 
Erro ao acessar o site em: 22:20:41 | 
Erro ao acessar o site em: 22:20:57 | 
Erro ao acessar o site em: 22:21:12 | 
Erro ao acessar o site em: 22:21:27 | 
Erro ao acessar o site em: 22:21:42 | 
Erro ao acessar o site em: 22:21:57 | 
Erro ao acessar o site em: 22:22:12 | 
Erro ao acessar o site em: 22:22:27 | 
Erro ao acessar o site em: 22:22:42 | 
Erro ao acessar o site em: 22:22:58 | 
Erro ao acessar o site em: 22:23:13 | 
Erro ao acessar o site em: 22:23:28 | 
Erro ao acessar o site em: 22:23:43 | 
Erro ao acessar o site em: 22:23:58 | 
Erro ao acessar o site em: 22:24:13 | 
Erro ao acessar o site em: 22:24:28 | 
Erro ao acessar o site em: 22:24:43 | 
Erro ao acessar o site em: 22:24:58 | 
Erro ao acessar o site em: 22:25:14 | 
Erro ao acessar o site em: 22:25:29 | 
Erro ao acessar o site em: 22:25:44 | 
Erro ao acessar o site em: 22:25:59 | 
Erro ao acessar o site em: 22:26:14 | 
Erro ao acessar o site em: 22:26:29 | 
Erro ao acessar o site em: 22:26:44 | 
Erro ao acessar o site em: 22:26:59 | 
Erro ao acessar o site em: 22:27:15 | 
Erro ao acessar o site em: 22:27:30 | 
Erro ao acessar o site em: 22:27:45 | 
Erro ao acessar o site em: 22:28:0 | 
Erro ao acessar o site em: 22:28:15 | 
Erro ao acessar o site em: 22:28:30 | 
Erro ao acessar o site em: 22:28:45 | 
Erro ao acessar o site em: 22:29:0 | 
Erro ao acessar o site em: 22:29:16 | 
Erro ao acessar o site em: 22:29:31 | 
Erro ao acessar o site em: 22:29:46 | 
Erro ao acessar o site em: 22:30:1 | 
Erro ao acessar o site em: 22:30:16 | 
Erro ao acessar o site em: 22:30:31 | 
Erro ao acessar o site em: 22:30:46 | 
Erro ao acessar o site em: 22:31:1 | 
Erro ao acessar o site em: 22:31:17 | 
Erro ao acessar o site em: 22:31:32 | 
Erro ao acessar o site em: 22:31:47 | 
Erro ao acessar o site em: 22:32:2 | 
Erro ao acessar o site em: 22:32:17 | 
Erro ao acessar o site em: 22:32:32 | 
Erro ao acessar o site em: 22:32:47 | 
Erro ao acessar o site em: 22:33:2 | 
Erro ao acessar o site em: 22:33:18 | 
Erro ao acessar o site em: 22:33:33 | 
Erro ao acessar o site em: 22:33:48 | 
Erro ao acessar o site em: 22:34:3 | 
Erro ao acessar o site em: 22:34:18 | 
Erro ao acessar o site em: 22:34:33 | 
Erro ao acessar o site em: 22:34:48 | 
Erro ao acessar o site em: 22:35:3 | 
Erro ao acessar o site em: 22:35:18 | 
Erro ao acessar o site em: 22:35:34 | 
Erro ao acessar o site em: 22:35:49 | 
Erro ao acessar o site em: 22:36:4 | 
Erro ao acessar o site em: 22:36:19 | 
Erro ao acessar o site em: 22:36:34 | 
Erro ao acessar o site em: 22:36:49 | 
Erro ao acessar o site em: 22:37:4 | 
Erro ao acessar o site em: 22:37:19 | 
Erro ao acessar o site em: 22:37:35 | 
Erro ao acessar o site em: 22:37:50 | 
Erro ao acessar o site em: 22:38:5 | 
Erro ao acessar o site em: 22:38:20 | 
Erro ao acessar o site em: 22:38:35 | 
Erro ao acessar o site em: 22:38:50 | 
Erro ao acessar o site em: 22:39:5 | 
Erro ao acessar o site em: 22:39:20 | 
Erro ao acessar o site em: 22:39:35 | 
Erro ao acessar o site em: 22:39:51 | 
Erro ao acessar o site em: 22:40:6 | 
Erro ao acessar o site em: 22:40:21 | 
Erro ao acessar o site em: 22:40:36 | 
Erro ao acessar o site em: 22:40:51 | 
Erro ao acessar o site em: 22:41:6 | 
Erro ao acessar o site em: 22:41:21 | 
Erro ao acessar o site em: 22:41:36 | 
Erro ao acessar o site em: 22:41:51 | 
Erro ao acessar o site em: 22:42:7 | 
Erro ao acessar o site em: 22:42:22 | 
Erro ao acessar o site em: 22:42:37 | 
Erro ao acessar o site em: 22:42:52 | 
Erro ao acessar o site em: 22:43:7 | 
Erro ao acessar o site em: 22:43:22 | 
Erro ao acessar o site em: 22:43:37 | 
Erro ao acessar o site em: 22:43:52 | 
Erro ao acessar o site em: 22:44:8 | 
Erro ao acessar o site em: 22:44:23 | 
Erro ao acessar o site em: 22:44:38 | 
Erro ao acessar o site em: 22:44:53 | 
Erro ao acessar o site em: 22:45:8 | 
Erro ao acessar o site em: 22:45:23 | 
Erro ao acessar o site em: 22:45:38 | 
Erro ao acessar o site em: 22:45:53 | 
Erro ao acessar o site em: 22:46:8 | 
Erro ao acessar o site em: 22:46:24 | 
Erro ao acessar o site em: 22:46:39 | 
Erro ao acessar o site em: 22:46:54 | 
Erro ao acessar o site em: 22:47:9 | 
Erro ao acessar o site em: 22:47:24 | 
Erro ao acessar o site em: 22:47:39 | 
Erro ao acessar o site em: 22:47:54 | 
Erro ao acessar o site em: 22:48:9 | 
Erro ao acessar o site em: 22:48:24 | 
Erro ao acessar o site em: 22:48:40 | 
Erro ao acessar o site em: 22:48:55 | 
Erro ao acessar o site em: 22:49:10 | 
Erro ao acessar o site em: 22:49:25 | 
Erro ao acessar o site em: 22:49:40 | 
Erro ao acessar o site em: 22:49:55 | 
Erro ao acessar o site em: 22:50:10 | 
Erro ao acessar o site em: 22:50:26 | 
Erro ao acessar o site em: 22:50:41 | 
Erro ao acessar o site em: 22:50:56 | 
Erro ao acessar o site em: 22:51:11 | 
Erro ao acessar o site em: 22:51:26 | 
Erro ao acessar o site em: 22:51:41 | 
Erro ao acessar o site em: 22:51:56 | 
Erro ao acessar o site em: 22:52:12 | 
Erro ao acessar o site em: 22:52:27 | 
Erro ao acessar o site em: 22:52:42 | 
Erro ao acessar o site em: 22:52:57 | 
Erro ao acessar o site em: 22:53:12 | 
Erro ao acessar o site em: 22:53:27 | 
Erro ao acessar o site em: 22:53:42 | 
Erro ao acessar o site em: 22:53:57 | 
Erro ao acessar o site em: 22:54:13 | 
Erro ao acessar o site em: 22:54:28 | 
Erro ao acessar o site em: 22:54:43 | 
Erro ao acessar o site em: 22:54:58 | 
Erro ao acessar o site em: 22:55:13 | 
Erro ao acessar o site em: 22:55:28 | 
Erro ao acessar o site em: 22:55:43 | 
Erro ao acessar o site em: 22:55:58 | 
Erro ao acessar o site em: 22:56:14 | 
Erro ao acessar o site em: 22:56:29 | 
Erro ao acessar o site em: 22:56:44 | 
Erro ao acessar o site em: 22:56:59 | 
Erro ao acessar o site em: 22:57:14 | 
Erro ao acessar o site em: 22:57:29 | 
Erro ao acessar o site em: 22:57:44 | 
Erro ao acessar o site em: 22:57:59 | 
Erro ao acessar o site em: 22:58:15 | 
Erro ao acessar o site em: 22:58:30 | 
Erro ao acessar o site em: 22:58:45 | 
Erro ao acessar o site em: 22:59:0 | 
Erro ao acessar o site em: 22:59:15 | 
Erro ao acessar o site em: 22:59:30 | 
Erro ao acessar o site em: 22:59:45 | 
Erro ao acessar o site em: 23:0:1 | 
Erro ao acessar o site em: 23:0:16 | 
Erro ao acessar o site em: 23:0:31 | 
Erro ao acessar o site em: 23:0:46 | 
Erro ao acessar o site em: 23:1:1 | 
Erro ao acessar o site em: 23:1:16 | 
Erro ao acessar o site em: 23:1:31 | 
Erro ao acessar o site em: 23:1:47 | 
Erro ao acessar o site em: 23:2:2 | 
Erro ao acessar o site em: 23:2:17 | 
Erro ao acessar o site em: 23:2:32 | 
Erro ao acessar o site em: 23:2:47 | 
Erro ao acessar o site em: 23:3:2 | 
Erro ao acessar o site em: 23:3:17 | 
Erro ao acessar o site em: 23:3:32 | 
Erro ao acessar o site em: 23:3:48 | 
Erro ao acessar o site em: 23:4:3 | 
Erro ao acessar o site em: 23:4:18 | 
Erro ao acessar o site em: 23:4:33 | 
Erro ao acessar o site em: 23:4:48 | 
Erro ao acessar o site em: 23:5:3 | 
Erro ao acessar o site em: 23:5:18 | 
Erro ao acessar o site em: 23:5:34 | 
Erro ao acessar o site em: 23:5:49 | 
Erro ao acessar o site em: 23:6:4 | 
Erro ao acessar o site em: 23:6:19 | 
Erro ao acessar o site em: 23:6:34 | 
Erro ao acessar o site em: 23:6:49 | 
Erro ao acessar o site em: 23:7:4 | 
Erro ao acessar o site em: 23:7:19 | 
Erro ao acessar o site em: 23:7:35 | 
Erro ao acessar o site em: 23:7:50 | 
Erro ao acessar o site em: 23:8:5 | 
Erro ao acessar o site em: 23:8:20 | 
Erro ao acessar o site em: 23:8:35 | 
Erro ao acessar o site em: 23:8:50 | 
Erro ao acessar o site em: 23:9:6 | 
Erro ao acessar o site em: 23:9:21 | 
Erro ao acessar o site em: 23:9:36 | 
Erro ao acessar o site em: 23:9:51 | 
Erro ao acessar o site em: 23:10:6 | 
Erro ao acessar o site em: 23:10:21 | 
Erro ao acessar o site em: 23:10:36 | 
Erro ao acessar o site em: 23:10:52 | 
Erro ao acessar o site em: 23:11:7 | 
Erro ao acessar o site em: 23:11:22 | 
Erro ao acessar o site em: 23:11:37 | 
Erro ao acessar o site em: 23:11:52 | 
Erro ao acessar o site em: 23:12:7 | 
Erro ao acessar o site em: 23:12:22 | 
Erro ao acessar o site em: 23:12:38 | 
Erro ao acessar o site em: 23:12:53 | 
Erro ao acessar o site em: 23:13:8 | 
Erro ao acessar o site em: 23:13:23 | 
Erro ao acessar o site em: 23:13:38 | 
Erro ao acessar o site em: 23:13:53 | 
Erro ao acessar o site em: 23:14:8 | 
Erro ao acessar o site em: 23:14:24 | 
Erro ao acessar o site em: 23:14:39 | 
Erro ao acessar o site em: 23:14:54 | 
Erro ao acessar o site em: 23:15:9 | 
Erro ao acessar o site em: 23:15:24 | 
Erro ao acessar o site em: 23:15:39 | 
Erro ao acessar o site em: 23:15:55 | 
Erro ao acessar o site em: 23:16:10 | 
Erro ao acessar o site em: 23:16:25 | 
Erro ao acessar o site em: 23:16:40 | 
Erro ao acessar o site em: 23:16:55 | 
Erro ao acessar o site em: 23:17:10 | 
Erro ao acessar o site em: 23:17:25 | 
Erro ao acessar o site em: 23:17:40 | 
Erro ao acessar o site em: 23:17:56 | 
Erro ao acessar o site em: 23:18:11 | 
Erro ao acessar o site em: 23:18:26 | 
Erro ao acessar o site em: 23:18:41 | 
Erro ao acessar o site em: 23:18:56 | 
Erro ao acessar o site em: 23:19:11 | 
Erro ao acessar o site em: 23:19:26 | 
Erro ao acessar o site em: 23:19:42 | 
Erro ao acessar o site em: 23:19:57 | 
Erro ao acessar o site em: 23:20:12 | 
Erro ao acessar o site em: 23:20:27 | 
Erro ao acessar o site em: 23:20:42 | 
Erro ao acessar o site em: 23:20:57 | 
Erro ao acessar o site em: 23:21:12 | 
Erro ao acessar o site em: 23:21:28 | 
Erro ao acessar o site em: 23:21:43 | 
Erro ao acessar o site em: 23:21:58 | 
Erro ao acessar o site em: 23:22:13 | 
Erro ao acessar o site em: 23:22:28 | 
Erro ao acessar o site em: 23:22:43 | 
Erro ao acessar o site em: 23:22:58 | 
Erro ao acessar o site em: 23:23:14 | 
Erro ao acessar o site em: 23:23:29 | 
Erro ao acessar o site em: 23:23:44 | 
Erro ao acessar o site em: 23:23:59 | 
Erro ao acessar o site em: 23:24:14 | 
Erro ao acessar o site em: 23:24:29 | 
Erro ao acessar o site em: 23:24:45 | 
Erro ao acessar o site em: 23:25:0 | 
Erro ao acessar o site em: 23:25:15 | 
Erro ao acessar o site em: 23:25:30 | 
Erro ao acessar o site em: 23:25:45 | 
Erro ao acessar o site em: 23:26:0 | 
Erro ao acessar o site em: 23:26:15 | 
Erro ao acessar o site em: 23:26:30 | 
Erro ao acessar o site em: 23:26:46 | 
Erro ao acessar o site em: 23:27:1 | 
Erro ao acessar o site em: 23:27:16 | 
Erro ao acessar o site em: 23:27:31 | 
Erro ao acessar o site em: 23:27:46 | 
Erro ao acessar o site em: 23:28:1 | 
Erro ao acessar o site em: 23:28:16 | 
Erro ao acessar o site em: 23:28:32 | 
Erro ao acessar o site em: 23:28:47 | 
Erro ao acessar o site em: 23:29:2 | 
Erro ao acessar o site em: 23:29:17 | 
Erro ao acessar o site em: 23:29:32 | 
Erro ao acessar o site em: 23:29:47 | 
Erro ao acessar o site em: 23:30:2 | 
Erro ao acessar o site em: 23:30:18 | 
Erro ao acessar o site em: 23:30:33 | 
Erro ao acessar o site em: 23:30:48 | 
Erro ao acessar o site em: 23:31:3 | 
Erro ao acessar o site em: 23:31:18 | 
Erro ao acessar o site em: 23:31:33 | 
Erro ao acessar o site em: 23:31:48 | 
Erro ao acessar o site em: 23:32:4 | 
Erro ao acessar o site em: 23:32:19 | 
Erro ao acessar o site em: 23:32:34 | 
Erro ao acessar o site em: 23:32:49 | 
Erro ao acessar o site em: 23:33:4 | 
Erro ao acessar o site em: 23:33:19 | 
Erro ao acessar o site em: 23:33:34 | 
Erro ao acessar o site em: 23:33:50 | 
Erro ao acessar o site em: 23:34:5 | 
Erro ao acessar o site em: 23:34:20 | 
Erro ao acessar o site em: 23:34:35 | 
Erro ao acessar o site em: 23:34:50 | 
Erro ao acessar o site em: 23:35:5 | 
Erro ao acessar o site em: 23:35:20 | 
Erro ao acessar o site em: 23:35:36 | 
Erro ao acessar o site em: 23:35:51 | 
Erro ao acessar o site em: 23:36:6 | 
Erro ao acessar o site em: 23:36:21 | 
Erro ao acessar o site em: 23:36:36 | 
Erro ao acessar o site em: 23:36:51 | 
Erro ao acessar o site em: 23:37:7 | 
Erro ao acessar o site em: 23:37:22 | 
Erro ao acessar o site em: 23:37:37 | 
Erro ao acessar o site em: 23:37:52 | 
Erro ao acessar o site em: 23:38:7 | 
Erro ao acessar o site em: 23:38:22 | 
Erro ao acessar o site em: 23:38:37 | 
Erro ao acessar o site em: 23:38:52 | 
Erro ao acessar o site em: 23:39:8 | 
Erro ao acessar o site em: 23:39:23 | 
Erro ao acessar o site em: 23:39:38 | 
Erro ao acessar o site em: 23:39:53 | 
Erro ao acessar o site em: 23:40:8 | 
Erro ao acessar o site em: 23:40:23 | 
Erro ao acessar o site em: 23:40:38 | 
Erro ao acessar o site em: 23:40:54 | 
Erro ao acessar o site em: 23:41:9 | 
Erro ao acessar o site em: 23:41:24 | 
Erro ao acessar o site em: 23:41:39 | 
Erro ao acessar o site em: 23:41:54 | 
Erro ao acessar o site em: 23:42:9 | 
Erro ao acessar o site em: 23:42:24 | 
Erro ao acessar o site em: 23:42:40 | 
Erro ao acessar o site em: 23:42:55 | 
Erro ao acessar o site em: 23:43:10 | 
Erro ao acessar o site em: 23:43:25 | 
Erro ao acessar o site em: 23:43:40 | 
Erro ao acessar o site em: 23:43:55 | 
Erro ao acessar o site em: 23:44:11 | 
Erro ao acessar o site em: 23:44:26 | 
Erro ao acessar o site em: 23:44:41 | 
Erro ao acessar o site em: 23:44:56 | 
Erro ao acessar o site em: 23:45:11 | 
Erro ao acessar o site em: 23:45:26 | 
Erro ao acessar o site em: 23:45:41 | 
Erro ao acessar o site em: 23:45:57 | 
Erro ao acessar o site em: 23:46:12 | 
Erro ao acessar o site em: 23:46:27 | 
Erro ao acessar o site em: 23:46:42 | 
Erro ao acessar o site em: 23:46:57 | 
Erro ao acessar o site em: 23:47:12 | 
Erro ao acessar o site em: 23:47:28 | 
Erro ao acessar o site em: 23:47:43 | 
Erro ao acessar o site em: 23:47:58 | 
Erro ao acessar o site em: 23:48:13 | 
Erro ao acessar o site em: 23:48:28 | 
Erro ao acessar o site em: 23:48:43 | 
Erro ao acessar o site em: 23:48:58 | 
Erro ao acessar o site em: 23:49:14 | 
Erro ao acessar o site em: 23:49:29 | 
Erro ao acessar o site em: 23:49:44 | 
Erro ao acessar o site em: 23:49:59 | 
Erro ao acessar o site em: 23:50:14 | 
Erro ao acessar o site em: 23:50:29 | 
Erro ao acessar o site em: 23:50:44 | 
