
DATA: 2019-02-20 as 03:54:11
IP: 35.221.26.100
URL: www.methodus.com.br/facix2/_php/rdstation/webhook.php
REFERER: 
{"leads":[{"id":"482476016","email":"antonio6marceneiro@gmail.com","name":"Antônio José de Souza","company":null,"job_title":null,"bio":null,"public_url":"http://rdstation.com.br/leads/public/68bf5436-2241-4e3d-9879-340cb57d3268","created_at":"2019-02-19T21:40:25.087-03:00","opportunity":"false","number_conversions":"9","user":null,"first_conversion":{"content":{"nome":"Antonio","perfil":"","Interesse":"Curso de Oratória","identificador":"ebook_medo_falar","interesse":"Curso de Oratória","created_at":"2019-02-20T00:40:25.087056Z","email_lead":"antonio6marceneiro@gmail.com"},"created_at":"2019-02-19T21:40:25.087-03:00","cumulative_sum":"1","source":"ebook_medo_falar","conversion_origin":{"source":"unknown","medium":"unknown","value":null,"campaign":"unknown","channel":"Unknown"}},"last_conversion":{"content":{"identificador":"guia-medo-de-falar-em-publico","_rd_experiment_content_id":"","traffic_source":"encoded_eyJmaXJzdF9zZXNzaW9uIjp7InZhbHVlIjoiaHR0cHM6Ly93d3cuZ29vZ2xlLmNvbS8iLCJleHRyYV9wYXJhbXMiOnt9fSwiY3VycmVudF9zZXNzaW9uIjp7InZhbHVlIjoiaHR0cHM6Ly93d3cuZ29vZ2xlLmNvbS8iLCJleHRyYV9wYXJhbXMiOnt9fSwiY3JlYXRlZF9hdCI6MTU1MDYyMzk1MzQxM30=","created_at":"2019-02-20T00:52:56.092102Z","ip":"65.158.180.181","email_lead":"antonio6marceneiro@gmail.com","Nome":"Antônio José de Souza"},"created_at":"2019-02-19T21:52:56.092-03:00","cumulative_sum":"9","source":"guia-medo-de-falar-em-publico","conversion_origin":{"source":"Google","medium":"organic","value":null,"campaign":null,"channel":"Organic Search"}},"custom_fields":{"Interesse":"Curso de Oratória"},"website":null,"personal_phone":null,"mobile_phone":null,"city":null,"state":null,"tags":null,"lead_stage":"Lead","last_marked_opportunity_date":null,"uuid":"68bf5436-2241-4e3d-9879-340cb57d3268","fit_score":"d","interest":15}]}
--------------------
DATA: 2019-02-20 as 03:54:11
IP: 35.221.26.100
URL: www.methodus.com.br/facix2/_php/rdstation/webhook.php
REFERER: 
antonio6marceneiro@gmail.com
--------------------
DATA: 2019-02-20 as 03:54:15
IP: 35.221.26.100
URL: www.methodus.com.br/facix2/_php/rdstation/webhook.php
REFERER: 
Observações:  / Interesse: Curso de Oratória
--------------------
DATA: 2019-02-20 as 17:02:57
IP: 35.236.198.168
URL: www.methodus.com.br/facix2/_php/rdstation/webhook.php
REFERER: 
{"leads":[{"id":"482701141","email":"gmajzoub@adventinternational.com.br","name":"Gustavo Majzoub","company":null,"job_title":null,"bio":null,"public_url":"http://rdstation.com.br/leads/public/d50a303d-f15f-4011-809c-3ab2f30a45eb","created_at":"2019-02-20T11:00:01.500-03:00","opportunity":"false","number_conversions":"1","user":null,"first_conversion":{"content":{"identificador":"guia-medo-de-falar-em-publico","_rd_experiment_content_id":"","traffic_source":"encoded_eyJmaXJzdF9zZXNzaW9uIjp7InZhbHVlIjoiaHR0cHM6Ly93d3cuZ29vZ2xlLmNvbS8iLCJleHRyYV9wYXJhbXMiOnt9fSwiY3VycmVudF9zZXNzaW9uIjp7InZhbHVlIjoiaHR0cHM6Ly93d3cuZ29vZ2xlLmNvbS8iLCJleHRyYV9wYXJhbXMiOnt9fSwiY3JlYXRlZF9hdCI6MTU1MDY3MTE4MDU4M30=","created_at":"2019-02-20T14:00:01.500582Z","ip":"104.96.220.30","email_lead":"gmajzoub@adventinternational.com.br","Nome":"Gustavo Majzoub"},"created_at":"2019-02-20T11:00:01.500-03:00","cumulative_sum":"1","source":"guia-medo-de-falar-em-publico","conversion_origin":{"source":"Google","medium":"organic","value":null,"campaign":null,"channel":"Organic Search"}},"last_conversion":{"content":{"identificador":"guia-medo-de-falar-em-publico","_rd_experiment_content_id":"","traffic_source":"encoded_eyJmaXJzdF9zZXNzaW9uIjp7InZhbHVlIjoiaHR0cHM6Ly93d3cuZ29vZ2xlLmNvbS8iLCJleHRyYV9wYXJhbXMiOnt9fSwiY3VycmVudF9zZXNzaW9uIjp7InZhbHVlIjoiaHR0cHM6Ly93d3cuZ29vZ2xlLmNvbS8iLCJleHRyYV9wYXJhbXMiOnt9fSwiY3JlYXRlZF9hdCI6MTU1MDY3MTE4MDU4M30=","created_at":"2019-02-20T14:00:01.500582Z","ip":"104.96.220.30","email_lead":"gmajzoub@adventinternational.com.br","Nome":"Gustavo Majzoub"},"created_at":"2019-02-20T11:00:01.500-03:00","cumulative_sum":"1","source":"guia-medo-de-falar-em-publico","conversion_origin":{"source":"Google","medium":"organic","value":null,"campaign":null,"channel":"Organic Search"}},"custom_fields":{},"website":null,"personal_phone":null,"mobile_phone":null,"city":null,"state":null,"tags":null,"lead_stage":"Lead","last_marked_opportunity_date":null,"uuid":"d50a303d-f15f-4011-809c-3ab2f30a45eb","fit_score":"d","interest":15}]}
--------------------
DATA: 2019-02-20 as 17:02:57
IP: 35.236.198.168
URL: www.methodus.com.br/facix2/_php/rdstation/webhook.php
REFERER: 
gmajzoub@adventinternational.com.br
--------------------
DATA: 2019-02-20 as 17:03:00
IP: 35.236.198.168
URL: www.methodus.com.br/facix2/_php/rdstation/webhook.php
REFERER: 
Observações: 
--------------------