
DATA: 2020-01-28 as 00:14:09
IP: 104.197.119.182
URL: www.methodus.com.br/facix2/_php/rdstation/webhook.php
REFERER: 
{"leads":[{"id":"92177700","email":"lucasguaru@yahoo.com.br","name":"LUCAS DA CRUZ FABIANO","company":null,"job_title":null,"bio":null,"public_url":"http://rdstation.com.br/leads/public/a04006fe-ccfe-4221-8b54-b20772237bc7","created_at":"2016-08-09T15:26:13.630-03:00","opportunity":"false","number_conversions":"4","user":null,"first_conversion":{"content":{"email_lead":"lucasguaru@yahoo.com.br","nome":"Lucas da Cruz Fabiano","created_at":"2016-08-09T18:26:13.630Z","identificador":"alunos_methodus","company_id":null,"id":"92177700","Interesse":"Curso de Leitura Dinâmica e Memorização","import_token":"7b9e3a35-55f2-4814-b734-5b4bbb179357"},"created_at":"2016-08-09T15:26:31.208-03:00","cumulative_sum":"1","source":"alunos_methodus","conversion_origin":{"source":"unknown","medium":"unknown","value":null,"campaign":"unknown","channel":"Unknown"}},"last_conversion":{"content":{"identificador":"5-fatores-estrategicos-de-persuasao-landingpage","_rd_experiment_content_id":"","traffic_source":"encoded_eyJmaXJzdF9zZXNzaW9uIjp7InZhbHVlIjoiaHR0cHM6Ly93d3cuZ29vZ2xlLmNvbS8iLCJleHRyYV9wYXJhbXMiOnt9fSwiY3VycmVudF9zZXNzaW9uIjp7InZhbHVlIjoiaHR0cHM6Ly93d3cuZ29vZ2xlLmNvbS8iLCJleHRyYV9wYXJhbXMiOnt9fSwiY3JlYXRlZF9hdCI6MTU4MDE1Mjg3ODgwOX0=","created_at":"2020-01-27T19:22:00.719283Z","ip":"187.26.207.150","email_lead":"lucasguaru@yahoo.com.br","Nome":"LUCAS DA CRUZ FABIANO"},"created_at":"2020-01-27T16:22:00.719-03:00","cumulative_sum":"4","source":"5-fatores-estrategicos-de-persuasao-landingpage","conversion_origin":{"source":"Google","medium":"organic","value":null,"campaign":null,"channel":"Organic Search"}},"custom_fields":{"Interesse":"Curso de Leitura Dinâmica e Memorização"},"website":null,"personal_phone":null,"mobile_phone":null,"city":null,"state":null,"tags":[],"lead_stage":"Lead","last_marked_opportunity_date":null,"uuid":"a04006fe-ccfe-4221-8b54-b20772237bc7","fit_score":"d","interest":30}]}
--------------------
DATA: 2020-01-28 as 00:14:09
IP: 104.197.119.182
URL: www.methodus.com.br/facix2/_php/rdstation/webhook.php
REFERER: 
lucasguaru@yahoo.com.br
--------------------
DATA: 2020-01-28 as 00:14:15
IP: 104.197.119.182
URL: www.methodus.com.br/facix2/_php/rdstation/webhook.php
REFERER: 
Observações:  / Interesse: Curso de Leitura Dinâmica e Memorização
--------------------
DATA: 2020-01-28 as 00:58:41
IP: 35.184.89.97
URL: www.methodus.com.br/facix2/_php/rdstation/webhook.php
REFERER: 
{"leads":[{"id":"92177700","email":"lucasguaru@yahoo.com.br","name":"LUCAS DA CRUZ FABIANO","company":null,"job_title":null,"bio":null,"public_url":"http://rdstation.com.br/leads/public/a04006fe-ccfe-4221-8b54-b20772237bc7","created_at":"2016-08-09T15:26:13.630-03:00","opportunity":"false","number_conversions":"4","user":null,"first_conversion":{"content":{"email_lead":"lucasguaru@yahoo.com.br","nome":"Lucas da Cruz Fabiano","created_at":"2016-08-09T18:26:13.630Z","identificador":"alunos_methodus","company_id":null,"id":"92177700","Interesse":"Curso de Leitura Dinâmica e Memorização","import_token":"7b9e3a35-55f2-4814-b734-5b4bbb179357"},"created_at":"2016-08-09T15:26:31.208-03:00","cumulative_sum":"1","source":"alunos_methodus","conversion_origin":{"source":"unknown","medium":"unknown","value":null,"campaign":"unknown","channel":"Unknown"}},"last_conversion":{"content":{"identificador":"5-fatores-estrategicos-de-persuasao-landingpage","_rd_experiment_content_id":"","traffic_source":"encoded_eyJmaXJzdF9zZXNzaW9uIjp7InZhbHVlIjoiaHR0cHM6Ly93d3cuZ29vZ2xlLmNvbS8iLCJleHRyYV9wYXJhbXMiOnt9fSwiY3VycmVudF9zZXNzaW9uIjp7InZhbHVlIjoiaHR0cHM6Ly93d3cuZ29vZ2xlLmNvbS8iLCJleHRyYV9wYXJhbXMiOnt9fSwiY3JlYXRlZF9hdCI6MTU4MDE1Mjg3ODgwOX0=","created_at":"2020-01-27T19:22:00.719283Z","ip":"187.26.207.150","email_lead":"lucasguaru@yahoo.com.br","Nome":"LUCAS DA CRUZ FABIANO"},"created_at":"2020-01-27T16:22:00.719-03:00","cumulative_sum":"4","source":"5-fatores-estrategicos-de-persuasao-landingpage","conversion_origin":{"source":"Google","medium":"organic","value":null,"campaign":null,"channel":"Organic Search"}},"custom_fields":{"Interesse":"Curso de Leitura Dinâmica e Memorização"},"website":null,"personal_phone":null,"mobile_phone":null,"city":null,"state":null,"tags":[],"lead_stage":"Lead","last_marked_opportunity_date":null,"uuid":"a04006fe-ccfe-4221-8b54-b20772237bc7","fit_score":"d","interest":30}]}
--------------------
DATA: 2020-01-28 as 00:58:41
IP: 35.184.89.97
URL: www.methodus.com.br/facix2/_php/rdstation/webhook.php
REFERER: 
lucasguaru@yahoo.com.br
--------------------
DATA: 2020-01-28 as 00:58:45
IP: 35.184.89.97
URL: www.methodus.com.br/facix2/_php/rdstation/webhook.php
REFERER: 
Observações:  / Interesse: Curso de Leitura Dinâmica e Memorização
--------------------
DATA: 2020-01-28 as 22:29:33
IP: 35.225.36.28
URL: www.methodus.com.br/facix2/_php/rdstation/webhook.php
REFERER: 
{"leads":[{"id":"688718561","email":"deciodavi@yahoo.com.br","name":"decio","company":null,"job_title":null,"bio":null,"public_url":"http://rdstation.com.br/leads/public/4ae48ef0-436c-4bd3-b4dc-4f38cd552e63","created_at":"2019-10-23T20:54:04.709-03:00","opportunity":"false","number_conversions":"4","user":null,"first_conversion":{"content":{"identificador":"investimento","traffic_source":"encoded_eyJmaXJzdF9zZXNzaW9uIjp7InZhbHVlIjoiaHR0cHM6Ly93d3cuZ29vZ2xlLmNvbS8iLCJleHRyYV9wYXJhbXMiOnt9fSwiY3VycmVudF9zZXNzaW9uIjp7InZhbHVlIjoiaHR0cHM6Ly93d3cuZ29vZ2xlLmNvbS8iLCJleHRyYV9wYXJhbXMiOnt9fSwiY3JlYXRlZF9hdCI6MTU3MTg3NDc5NDE5NX0=","a":"aluno","metodo":"cadastro","origem":"Investimento","curso":"4","nome":"Decio","form_url":"https://www.methodus.com.br/leitura-dinamica/4-curso.html","page_title":"CURSO DE LEITURA DINÂMICA - Mind Map, Leitura Dinâmica e Memorização","email_lead":"deciodavi@yahoo.com.br"},"created_at":"2019-10-23T20:54:04.798-03:00","cumulative_sum":"1","source":"investimento","conversion_origin":{"source":"Google","medium":"organic","value":null,"campaign":null,"channel":"Organic Search"}},"last_conversion":{"content":{"identificador":"guia-medo-de-falar-em-publico","_rd_experiment_content_id":"","traffic_source":"encoded_eyJmaXJzdF9zZXNzaW9uIjp7InZhbHVlIjoiSUQ9NCZ1dG1fY2FtcGFpZ249Y3Vyc29fZGVfbGVpdHVyYV9lX21lbW9yaWFfMDI5M190cmVpbmVfc2V1X2NlcmVicm9fcGFyYV9hcHJlbmRlciZ1dG1fbWVkaXVtPWVtYWlsJnV0bV9zb3VyY2U9UkQrU3RhdGlvbiIsImV4dHJhX3BhcmFtcyI6e319LCJjdXJyZW50X3Nlc3Npb24iOnsidmFsdWUiOiJJRD00JnV0bV9jYW1wYWlnbj1jdXJzb19kZV9sZWl0dXJhX2VfbWVtb3JpYV8wMjkzX3RyZWluZV9zZXVfY2VyZWJyb19wYXJhX2FwcmVuZGVyJnV0bV9tZWRpdW09ZW1haWwmdXRtX3NvdXJjZT1SRCtTdGF0aW9uIiwiZXh0cmFfcGFyYW1zIjp7fX0sImNyZWF0ZWRfYXQiOjE1ODAyMzk3NDM2OTZ9","created_at":"2020-01-28T19:29:25.504319Z","ip":"177.195.159.228","email_lead":"deciodavi@yahoo.com.br","Nome":"decio","UF":null},"created_at":"2020-01-28T16:29:25.504-03:00","cumulative_sum":"4","source":"guia-medo-de-falar-em-publico","conversion_origin":{"source":"RD+Station","medium":"email","value":null,"campaign":"curso_de_leitura_e_memoria_0293_treine_seu_cerebro_para_aprender","channel":"Email"}},"custom_fields":{},"website":null,"personal_phone":null,"mobile_phone":null,"city":null,"state":null,"tags":null,"lead_stage":"Lead","last_marked_opportunity_date":null,"uuid":"4ae48ef0-436c-4bd3-b4dc-4f38cd552e63","fit_score":"d","interest":0}]}
--------------------
DATA: 2020-01-28 as 22:29:33
IP: 35.225.36.28
URL: www.methodus.com.br/facix2/_php/rdstation/webhook.php
REFERER: 
deciodavi@yahoo.com.br
--------------------
DATA: 2020-01-28 as 22:29:37
IP: 35.225.36.28
URL: www.methodus.com.br/facix2/_php/rdstation/webhook.php
REFERER: 
Observações: 
--------------------
DATA: 2020-01-28 as 23:04:27
IP: 34.68.164.244
URL: www.methodus.com.br/facix2/_php/rdstation/webhook.php
REFERER: 
{"leads":[{"id":"688718561","email":"deciodavi@yahoo.com.br","name":"decio","company":null,"job_title":null,"bio":null,"public_url":"http://rdstation.com.br/leads/public/4ae48ef0-436c-4bd3-b4dc-4f38cd552e63","created_at":"2019-10-23T20:54:04.709-03:00","opportunity":"false","number_conversions":"4","user":null,"first_conversion":{"content":{"identificador":"investimento","traffic_source":"encoded_eyJmaXJzdF9zZXNzaW9uIjp7InZhbHVlIjoiaHR0cHM6Ly93d3cuZ29vZ2xlLmNvbS8iLCJleHRyYV9wYXJhbXMiOnt9fSwiY3VycmVudF9zZXNzaW9uIjp7InZhbHVlIjoiaHR0cHM6Ly93d3cuZ29vZ2xlLmNvbS8iLCJleHRyYV9wYXJhbXMiOnt9fSwiY3JlYXRlZF9hdCI6MTU3MTg3NDc5NDE5NX0=","a":"aluno","metodo":"cadastro","origem":"Investimento","curso":"4","nome":"Decio","form_url":"https://www.methodus.com.br/leitura-dinamica/4-curso.html","page_title":"CURSO DE LEITURA DINÂMICA - Mind Map, Leitura Dinâmica e Memorização","email_lead":"deciodavi@yahoo.com.br"},"created_at":"2019-10-23T20:54:04.798-03:00","cumulative_sum":"1","source":"investimento","conversion_origin":{"source":"Google","medium":"organic","value":null,"campaign":null,"channel":"Organic Search"}},"last_conversion":{"content":{"identificador":"guia-medo-de-falar-em-publico","_rd_experiment_content_id":"","traffic_source":"encoded_eyJmaXJzdF9zZXNzaW9uIjp7InZhbHVlIjoiSUQ9NCZ1dG1fY2FtcGFpZ249Y3Vyc29fZGVfbGVpdHVyYV9lX21lbW9yaWFfMDI5M190cmVpbmVfc2V1X2NlcmVicm9fcGFyYV9hcHJlbmRlciZ1dG1fbWVkaXVtPWVtYWlsJnV0bV9zb3VyY2U9UkQrU3RhdGlvbiIsImV4dHJhX3BhcmFtcyI6e319LCJjdXJyZW50X3Nlc3Npb24iOnsidmFsdWUiOiJJRD00JnV0bV9jYW1wYWlnbj1jdXJzb19kZV9sZWl0dXJhX2VfbWVtb3JpYV8wMjkzX3RyZWluZV9zZXVfY2VyZWJyb19wYXJhX2FwcmVuZGVyJnV0bV9tZWRpdW09ZW1haWwmdXRtX3NvdXJjZT1SRCtTdGF0aW9uIiwiZXh0cmFfcGFyYW1zIjp7fX0sImNyZWF0ZWRfYXQiOjE1ODAyMzk3NDM2OTZ9","created_at":"2020-01-28T19:29:25.504319Z","ip":"177.195.159.228","email_lead":"deciodavi@yahoo.com.br","Nome":"decio","UF":null},"created_at":"2020-01-28T16:29:25.504-03:00","cumulative_sum":"4","source":"guia-medo-de-falar-em-publico","conversion_origin":{"source":"RD+Station","medium":"email","value":null,"campaign":"curso_de_leitura_e_memoria_0293_treine_seu_cerebro_para_aprender","channel":"Email"}},"custom_fields":{},"website":null,"personal_phone":null,"mobile_phone":null,"city":null,"state":null,"tags":null,"lead_stage":"Lead","last_marked_opportunity_date":null,"uuid":"4ae48ef0-436c-4bd3-b4dc-4f38cd552e63","fit_score":"d","interest":15}]}
--------------------
DATA: 2020-01-28 as 23:04:27
IP: 34.68.164.244
URL: www.methodus.com.br/facix2/_php/rdstation/webhook.php
REFERER: 
deciodavi@yahoo.com.br
--------------------
DATA: 2020-01-28 as 23:04:34
IP: 34.68.164.244
URL: www.methodus.com.br/facix2/_php/rdstation/webhook.php
REFERER: 
Observações: 
--------------------
DATA: 2020-01-28 as 23:34:17
IP: 130.211.228.142
URL: www.methodus.com.br/facix2/_php/rdstation/webhook.php
REFERER: 
{"leads":[{"id":"688718561","email":"deciodavi@yahoo.com.br","name":"decio","company":null,"job_title":null,"bio":null,"public_url":"http://rdstation.com.br/leads/public/4ae48ef0-436c-4bd3-b4dc-4f38cd552e63","created_at":"2019-10-23T20:54:04.709-03:00","opportunity":"false","number_conversions":"4","user":null,"first_conversion":{"content":{"identificador":"investimento","traffic_source":"encoded_eyJmaXJzdF9zZXNzaW9uIjp7InZhbHVlIjoiaHR0cHM6Ly93d3cuZ29vZ2xlLmNvbS8iLCJleHRyYV9wYXJhbXMiOnt9fSwiY3VycmVudF9zZXNzaW9uIjp7InZhbHVlIjoiaHR0cHM6Ly93d3cuZ29vZ2xlLmNvbS8iLCJleHRyYV9wYXJhbXMiOnt9fSwiY3JlYXRlZF9hdCI6MTU3MTg3NDc5NDE5NX0=","a":"aluno","metodo":"cadastro","origem":"Investimento","curso":"4","nome":"Decio","form_url":"https://www.methodus.com.br/leitura-dinamica/4-curso.html","page_title":"CURSO DE LEITURA DINÂMICA - Mind Map, Leitura Dinâmica e Memorização","email_lead":"deciodavi@yahoo.com.br"},"created_at":"2019-10-23T20:54:04.798-03:00","cumulative_sum":"1","source":"investimento","conversion_origin":{"source":"Google","medium":"organic","value":null,"campaign":null,"channel":"Organic Search"}},"last_conversion":{"content":{"identificador":"guia-medo-de-falar-em-publico","_rd_experiment_content_id":"","traffic_source":"encoded_eyJmaXJzdF9zZXNzaW9uIjp7InZhbHVlIjoiSUQ9NCZ1dG1fY2FtcGFpZ249Y3Vyc29fZGVfbGVpdHVyYV9lX21lbW9yaWFfMDI5M190cmVpbmVfc2V1X2NlcmVicm9fcGFyYV9hcHJlbmRlciZ1dG1fbWVkaXVtPWVtYWlsJnV0bV9zb3VyY2U9UkQrU3RhdGlvbiIsImV4dHJhX3BhcmFtcyI6e319LCJjdXJyZW50X3Nlc3Npb24iOnsidmFsdWUiOiJJRD00JnV0bV9jYW1wYWlnbj1jdXJzb19kZV9sZWl0dXJhX2VfbWVtb3JpYV8wMjkzX3RyZWluZV9zZXVfY2VyZWJyb19wYXJhX2FwcmVuZGVyJnV0bV9tZWRpdW09ZW1haWwmdXRtX3NvdXJjZT1SRCtTdGF0aW9uIiwiZXh0cmFfcGFyYW1zIjp7fX0sImNyZWF0ZWRfYXQiOjE1ODAyMzk3NDM2OTZ9","created_at":"2020-01-28T19:29:25.504319Z","ip":"177.195.159.228","email_lead":"deciodavi@yahoo.com.br","Nome":"decio","UF":null},"created_at":"2020-01-28T16:29:25.504-03:00","cumulative_sum":"4","source":"guia-medo-de-falar-em-publico","conversion_origin":{"source":"RD+Station","medium":"email","value":null,"campaign":"curso_de_leitura_e_memoria_0293_treine_seu_cerebro_para_aprender","channel":"Email"}},"custom_fields":{},"website":null,"personal_phone":null,"mobile_phone":null,"city":null,"state":null,"tags":null,"lead_stage":"Lead","last_marked_opportunity_date":null,"uuid":"4ae48ef0-436c-4bd3-b4dc-4f38cd552e63","fit_score":"d","interest":15}]}
--------------------
DATA: 2020-01-28 as 23:34:17
IP: 130.211.228.142
URL: www.methodus.com.br/facix2/_php/rdstation/webhook.php
REFERER: 
deciodavi@yahoo.com.br
--------------------
DATA: 2020-01-28 as 23:34:24
IP: 130.211.228.142
URL: www.methodus.com.br/facix2/_php/rdstation/webhook.php
REFERER: 
Observações: 
--------------------