
DATA: 2019-11-05 as 03:42:19
IP: 35.193.113.98
URL: www.methodus.com.br/facix2/_php/rdstation/webhook.php
REFERER: 
{"leads":[{"id":"698994203","email":"marialima043@gmail.com","name":"maria lima","company":null,"job_title":null,"bio":null,"public_url":"http://rdstation.com.br/leads/public/436ea13a-f1ce-41b7-bd8c-a81a1ff72bd4","created_at":"2019-11-04T21:42:07.516-03:00","opportunity":"false","number_conversions":"1","user":null,"first_conversion":{"content":{"identificador":"guia-medo-de-falar-em-publico","_rd_experiment_content_id":"","traffic_source":"encoded_eyJmaXJzdF9zZXNzaW9uIjp7InZhbHVlIjoiaHR0cHM6Ly93d3cuZ29vZ2xlLmNvbS8iLCJleHRyYV9wYXJhbXMiOnt9fSwiY3VycmVudF9zZXNzaW9uIjp7InZhbHVlIjoiaHR0cHM6Ly93d3cuZ29vZ2xlLmNvbS8iLCJleHRyYV9wYXJhbXMiOnt9fSwiY3JlYXRlZF9hdCI6MTU3MjkxNDQxMjAwOX0=","created_at":"2019-11-05T00:42:07.516340Z","ip":"177.25.140.26","email_lead":"marialima043@gmail.com","Nome":"maria lima"},"created_at":"2019-11-04T21:42:07.516-03:00","cumulative_sum":"1","source":"guia-medo-de-falar-em-publico","conversion_origin":{"source":"Google","medium":"organic","value":null,"campaign":null,"channel":"Organic Search"}},"last_conversion":{"content":{"identificador":"guia-medo-de-falar-em-publico","_rd_experiment_content_id":"","traffic_source":"encoded_eyJmaXJzdF9zZXNzaW9uIjp7InZhbHVlIjoiaHR0cHM6Ly93d3cuZ29vZ2xlLmNvbS8iLCJleHRyYV9wYXJhbXMiOnt9fSwiY3VycmVudF9zZXNzaW9uIjp7InZhbHVlIjoiaHR0cHM6Ly93d3cuZ29vZ2xlLmNvbS8iLCJleHRyYV9wYXJhbXMiOnt9fSwiY3JlYXRlZF9hdCI6MTU3MjkxNDQxMjAwOX0=","created_at":"2019-11-05T00:42:07.516340Z","ip":"177.25.140.26","email_lead":"marialima043@gmail.com","Nome":"maria lima"},"created_at":"2019-11-04T21:42:07.516-03:00","cumulative_sum":"1","source":"guia-medo-de-falar-em-publico","conversion_origin":{"source":"Google","medium":"organic","value":null,"campaign":null,"channel":"Organic Search"}},"custom_fields":{},"website":null,"personal_phone":null,"mobile_phone":null,"city":null,"state":null,"tags":null,"lead_stage":"Lead","last_marked_opportunity_date":null,"uuid":"436ea13a-f1ce-41b7-bd8c-a81a1ff72bd4","fit_score":"d","interest":0}]}
--------------------
DATA: 2019-11-05 as 03:42:19
IP: 35.193.113.98
URL: www.methodus.com.br/facix2/_php/rdstation/webhook.php
REFERER: 
marialima043@gmail.com
--------------------
DATA: 2019-11-05 as 03:42:23
IP: 104.198.26.122
URL: www.methodus.com.br/facix2/_php/rdstation/webhook.php
REFERER: 
{"leads":[{"id":"698994203","email":"marialima043@gmail.com","name":"maria lima","company":null,"job_title":null,"bio":null,"public_url":"http://rdstation.com.br/leads/public/436ea13a-f1ce-41b7-bd8c-a81a1ff72bd4","created_at":"2019-11-04T21:42:07.516-03:00","opportunity":"false","number_conversions":"1","user":null,"first_conversion":{"content":{"identificador":"guia-medo-de-falar-em-publico","_rd_experiment_content_id":"","traffic_source":"encoded_eyJmaXJzdF9zZXNzaW9uIjp7InZhbHVlIjoiaHR0cHM6Ly93d3cuZ29vZ2xlLmNvbS8iLCJleHRyYV9wYXJhbXMiOnt9fSwiY3VycmVudF9zZXNzaW9uIjp7InZhbHVlIjoiaHR0cHM6Ly93d3cuZ29vZ2xlLmNvbS8iLCJleHRyYV9wYXJhbXMiOnt9fSwiY3JlYXRlZF9hdCI6MTU3MjkxNDQxMjAwOX0=","created_at":"2019-11-05T00:42:07.516340Z","ip":"177.25.140.26","email_lead":"marialima043@gmail.com","Nome":"maria lima"},"created_at":"2019-11-04T21:42:07.516-03:00","cumulative_sum":"1","source":"guia-medo-de-falar-em-publico","conversion_origin":{"source":"Google","medium":"organic","value":null,"campaign":null,"channel":"Organic Search"}},"last_conversion":{"content":{"identificador":"guia-medo-de-falar-em-publico","_rd_experiment_content_id":"","traffic_source":"encoded_eyJmaXJzdF9zZXNzaW9uIjp7InZhbHVlIjoiaHR0cHM6Ly93d3cuZ29vZ2xlLmNvbS8iLCJleHRyYV9wYXJhbXMiOnt9fSwiY3VycmVudF9zZXNzaW9uIjp7InZhbHVlIjoiaHR0cHM6Ly93d3cuZ29vZ2xlLmNvbS8iLCJleHRyYV9wYXJhbXMiOnt9fSwiY3JlYXRlZF9hdCI6MTU3MjkxNDQxMjAwOX0=","created_at":"2019-11-05T00:42:07.516340Z","ip":"177.25.140.26","email_lead":"marialima043@gmail.com","Nome":"maria lima"},"created_at":"2019-11-04T21:42:07.516-03:00","cumulative_sum":"1","source":"guia-medo-de-falar-em-publico","conversion_origin":{"source":"Google","medium":"organic","value":null,"campaign":null,"channel":"Organic Search"}},"custom_fields":{},"website":null,"personal_phone":null,"mobile_phone":null,"city":null,"state":null,"tags":null,"lead_stage":"Lead","last_marked_opportunity_date":null,"uuid":"436ea13a-f1ce-41b7-bd8c-a81a1ff72bd4","fit_score":"d","interest":0}]}
--------------------
DATA: 2019-11-05 as 03:42:23
IP: 104.198.26.122
URL: www.methodus.com.br/facix2/_php/rdstation/webhook.php
REFERER: 
marialima043@gmail.com
--------------------
DATA: 2019-11-05 as 03:42:25
IP: 35.193.113.98
URL: www.methodus.com.br/facix2/_php/rdstation/webhook.php
REFERER: 
Observações: 
--------------------
DATA: 2019-11-05 as 03:42:27
IP: 104.198.26.122
URL: www.methodus.com.br/facix2/_php/rdstation/webhook.php
REFERER: 
Observações: 
--------------------
DATA: 2019-11-05 as 20:18:06
IP: 35.192.153.205
URL: www.methodus.com.br/facix2/_php/rdstation/webhook.php
REFERER: 
{"leads":[{"id":"660242926","email":"vitor34c@gmail.com","name":"VITOR LYRA","company":null,"job_title":null,"bio":null,"public_url":"http://rdstation.com.br/leads/public/99b530bc-c726-4e67-b3a2-12f1253569e6","created_at":"2019-09-23T07:25:12.041-03:00","opportunity":"false","number_conversions":"5","user":null,"first_conversion":{"content":{"identificador":"form_ebook","traffic_source":"encoded_eyJmaXJzdF9zZXNzaW9uIjp7InZhbHVlIjoiSUQ9NSZ1dG1fY2FtcGFpZ249Y3Vyc29fZGVfb3JhdG9yaWFfLV9jYW1wYW5oYV9hYnJpbF8yMDE5JnV0bV9tZWRpdW09ZW1haWwmdXRtX3NvdXJjZT1SRCtTdGF0aW9uIiwiZXh0cmFfcGFyYW1zIjp7fX0sImN1cnJlbnRfc2Vzc2lvbiI6eyJ2YWx1ZSI6IklEPTUmdXRtX2NhbXBhaWduPWN1cnNvX2RlX29yYXRvcmlhXy1fY2FtcGFuaGFfYWJyaWxfMjAxOSZ1dG1fbWVkaXVtPWVtYWlsJnV0bV9zb3VyY2U9UkQrU3RhdGlvbiIsImV4dHJhX3BhcmFtcyI6e319LCJjcmVhdGVkX2F0IjoxNTY5MjM0MTE2ODk1fQ==","destino":"https://d335luupugsy2.cloudfront.net/cms%2Ffiles%2F16878%2F14661812711+Guia+Medo+falar+em+p%C3%BAblico+%28ebook%29.pdf","a":"aluno","metodo":"cadastro","origem":"Ebook_Medo_Falar","curso":"5","nome":"Vítor de Lyra Coelho","form_url":"https://www.methodus.com.br/oratoria/5-curso.html","page_title":"CURSO DE ORATÓRIA - Como falar em público bem e fazer apresentação","email_lead":"vitor34c@gmail.com"},"created_at":"2019-09-23T07:25:12.108-03:00","cumulative_sum":"1","source":"form_ebook","conversion_origin":{"source":"RD+Station","medium":"email","value":null,"campaign":"curso_de_oratoria_-_campanha_abril_2019","channel":"Email"}},"last_conversion":{"content":{"identificador":"guia-medo-de-falar-em-publico","_rd_experiment_content_id":"","traffic_source":"encoded_eyJmaXJzdF9zZXNzaW9uIjp7InZhbHVlIjoidXRtX3NvdXJjZT1nb29nbGUmdXRtX21lZGl1bT1jcGMmdXRtX2NhbXBhaWduPWN1cnNvLWZhbGFyLWVtLXB1YmxpY28tYW1wbG8mZ2NsaWQ9RUFJYUlRb2JDaE1JeFozWG5MelQ1UUlWbFlhUkNoMEpiUXlLRUFBWUFpQUFFZ0xzcnZEX0J3RSIsImV4dHJhX3BhcmFtcyI6e319LCJjdXJyZW50X3Nlc3Npb24iOnsidmFsdWUiOiJ1dG1fc291cmNlPWdvb2dsZSZ1dG1fbWVkaXVtPWNwYyZ1dG1fY2FtcGFpZ249Y3Vyc28tZmFsYXItZW0tcHVibGljby1hbXBsbyZnY2xpZD1FQUlhSVFvYkNoTUkxNURYX01UVDVRSVZod2FSQ2gzVVRnUzVFQUFZQVNBQUVnTDZEX0RfQndFIiwiZXh0cmFfcGFyYW1zIjp7fX0sImNyZWF0ZWRfYXQiOjE1NzI5NzQyNjA5NTN9","created_at":"2019-11-05T17:17:56.971864Z","ip":"177.103.223.58","email_lead":"vitor34c@gmail.com","Nome":"VITOR LYRA"},"created_at":"2019-11-05T14:17:56.971-03:00","cumulative_sum":"5","source":"guia-medo-de-falar-em-publico","conversion_origin":{"source":"google","medium":"cpc","value":null,"campaign":"curso-falar-em-publico-amplo","channel":"Paid Search"}},"custom_fields":{"Interesse":"Curso de Oratória"},"website":null,"personal_phone":null,"mobile_phone":null,"city":null,"state":null,"tags":null,"lead_stage":"Lead","last_marked_opportunity_date":null,"uuid":"99b530bc-c726-4e67-b3a2-12f1253569e6","fit_score":"d","interest":0}]}
--------------------
DATA: 2019-11-05 as 20:18:06
IP: 35.192.153.205
URL: www.methodus.com.br/facix2/_php/rdstation/webhook.php
REFERER: 
vitor34c@gmail.com
--------------------
DATA: 2019-11-05 as 20:18:12
IP: 35.192.153.205
URL: www.methodus.com.br/facix2/_php/rdstation/webhook.php
REFERER: 
Observações:  / Interesse: Curso de Oratória
--------------------
DATA: 2019-11-05 as 20:18:16
IP: 34.68.47.154
URL: www.methodus.com.br/facix2/_php/rdstation/webhook.php
REFERER: 
{"leads":[{"id":"660242926","email":"vitor34c@gmail.com","name":"VITOR LYRA","company":null,"job_title":null,"bio":null,"public_url":"http://rdstation.com.br/leads/public/99b530bc-c726-4e67-b3a2-12f1253569e6","created_at":"2019-09-23T07:25:12.041-03:00","opportunity":"false","number_conversions":"5","user":null,"first_conversion":{"content":{"identificador":"form_ebook","traffic_source":"encoded_eyJmaXJzdF9zZXNzaW9uIjp7InZhbHVlIjoiSUQ9NSZ1dG1fY2FtcGFpZ249Y3Vyc29fZGVfb3JhdG9yaWFfLV9jYW1wYW5oYV9hYnJpbF8yMDE5JnV0bV9tZWRpdW09ZW1haWwmdXRtX3NvdXJjZT1SRCtTdGF0aW9uIiwiZXh0cmFfcGFyYW1zIjp7fX0sImN1cnJlbnRfc2Vzc2lvbiI6eyJ2YWx1ZSI6IklEPTUmdXRtX2NhbXBhaWduPWN1cnNvX2RlX29yYXRvcmlhXy1fY2FtcGFuaGFfYWJyaWxfMjAxOSZ1dG1fbWVkaXVtPWVtYWlsJnV0bV9zb3VyY2U9UkQrU3RhdGlvbiIsImV4dHJhX3BhcmFtcyI6e319LCJjcmVhdGVkX2F0IjoxNTY5MjM0MTE2ODk1fQ==","destino":"https://d335luupugsy2.cloudfront.net/cms%2Ffiles%2F16878%2F14661812711+Guia+Medo+falar+em+p%C3%BAblico+%28ebook%29.pdf","a":"aluno","metodo":"cadastro","origem":"Ebook_Medo_Falar","curso":"5","nome":"Vítor de Lyra Coelho","form_url":"https://www.methodus.com.br/oratoria/5-curso.html","page_title":"CURSO DE ORATÓRIA - Como falar em público bem e fazer apresentação","email_lead":"vitor34c@gmail.com"},"created_at":"2019-09-23T07:25:12.108-03:00","cumulative_sum":"1","source":"form_ebook","conversion_origin":{"source":"RD+Station","medium":"email","value":null,"campaign":"curso_de_oratoria_-_campanha_abril_2019","channel":"Email"}},"last_conversion":{"content":{"identificador":"guia-medo-de-falar-em-publico","_rd_experiment_content_id":"","traffic_source":"encoded_eyJmaXJzdF9zZXNzaW9uIjp7InZhbHVlIjoidXRtX3NvdXJjZT1nb29nbGUmdXRtX21lZGl1bT1jcGMmdXRtX2NhbXBhaWduPWN1cnNvLWZhbGFyLWVtLXB1YmxpY28tYW1wbG8mZ2NsaWQ9RUFJYUlRb2JDaE1JeFozWG5MelQ1UUlWbFlhUkNoMEpiUXlLRUFBWUFpQUFFZ0xzcnZEX0J3RSIsImV4dHJhX3BhcmFtcyI6e319LCJjdXJyZW50X3Nlc3Npb24iOnsidmFsdWUiOiJ1dG1fc291cmNlPWdvb2dsZSZ1dG1fbWVkaXVtPWNwYyZ1dG1fY2FtcGFpZ249Y3Vyc28tZmFsYXItZW0tcHVibGljby1hbXBsbyZnY2xpZD1FQUlhSVFvYkNoTUkxNURYX01UVDVRSVZod2FSQ2gzVVRnUzVFQUFZQVNBQUVnTDZEX0RfQndFIiwiZXh0cmFfcGFyYW1zIjp7fX0sImNyZWF0ZWRfYXQiOjE1NzI5NzQyNjA5NTN9","created_at":"2019-11-05T17:17:56.971864Z","ip":"177.103.223.58","email_lead":"vitor34c@gmail.com","Nome":"VITOR LYRA"},"created_at":"2019-11-05T14:17:56.971-03:00","cumulative_sum":"5","source":"guia-medo-de-falar-em-publico","conversion_origin":{"source":"google","medium":"cpc","value":null,"campaign":"curso-falar-em-publico-amplo","channel":"Paid Search"}},"custom_fields":{"Interesse":"Curso de Oratória"},"website":null,"personal_phone":null,"mobile_phone":null,"city":null,"state":null,"tags":null,"lead_stage":"Lead","last_marked_opportunity_date":null,"uuid":"99b530bc-c726-4e67-b3a2-12f1253569e6","fit_score":"d","interest":0}]}
--------------------
DATA: 2019-11-05 as 20:18:16
IP: 34.68.47.154
URL: www.methodus.com.br/facix2/_php/rdstation/webhook.php
REFERER: 
vitor34c@gmail.com
--------------------
DATA: 2019-11-05 as 20:18:19
IP: 34.68.47.154
URL: www.methodus.com.br/facix2/_php/rdstation/webhook.php
REFERER: 
Observações:  / Interesse: Curso de Oratória
--------------------