
DATA: 2019-12-26 as 17:41:07
IP: 35.226.183.248
URL: www.methodus.com.br/facix2/_php/rdstation/webhook.php
REFERER: 
{"leads":[{"id":"757667979","email":"droumbs@gmail.com","name":"Douglas Santos","company":null,"job_title":null,"bio":null,"public_url":"http://rdstation.com.br/leads/public/35410343-ef83-4f1c-ad2c-3da257f8c9ab","created_at":"2019-12-26T11:40:04.826-03:00","opportunity":"false","number_conversions":"2","user":null,"first_conversion":{"content":{"identificador":"curso-de-administracao-do-tempo-infografico-procrastinar-depois","_rd_experiment_content_id":"","traffic_source":"encoded_eyJmaXJzdF9zZXNzaW9uIjp7InZhbHVlIjoiKG5vbmUpIiwiZXh0cmFfcGFyYW1zIjp7fX0sImN1cnJlbnRfc2Vzc2lvbiI6eyJ2YWx1ZSI6Iihub25lKSIsImV4dHJhX3BhcmFtcyI6e319LCJjcmVhdGVkX2F0IjoxNTc3MzcxMTc1ODM1fQ==","created_at":"2019-12-26T14:40:04.826161Z","ip":"201.55.46.5","email_lead":"droumbs@gmail.com","Nome":"Douglas Santos"},"created_at":"2019-12-26T11:40:04.826-03:00","cumulative_sum":"1","source":"curso-de-administracao-do-tempo-infografico-procrastinar-depois","conversion_origin":{"source":"(direct)","medium":"(none)","value":null,"campaign":"(direct)","channel":"Direct"}},"last_conversion":{"content":{"identificador":"administracao-do-tempo-infografico-5-passos-infaliveis-para-realizar-grandes-sonhos","_rd_experiment_content_id":"","traffic_source":"encoded_eyJmaXJzdF9zZXNzaW9uIjp7InZhbHVlIjoiKG5vbmUpIiwiZXh0cmFfcGFyYW1zIjp7fX0sImN1cnJlbnRfc2Vzc2lvbiI6eyJ2YWx1ZSI6Iihub25lKSIsImV4dHJhX3BhcmFtcyI6e319LCJjcmVhdGVkX2F0IjoxNTc3MzcxMTc1ODM1fQ==","created_at":"2019-12-26T14:40:58.649078Z","ip":"201.55.46.5","email_lead":"droumbs@gmail.com","Nome":"Douglas Santos"},"created_at":"2019-12-26T11:40:58.649-03:00","cumulative_sum":"2","source":"administracao-do-tempo-infografico-5-passos-infaliveis-para-realizar-grandes-sonhos","conversion_origin":{"source":"(direct)","medium":"(none)","value":null,"campaign":"(direct)","channel":"Direct"}},"custom_fields":{},"website":null,"personal_phone":null,"mobile_phone":null,"city":null,"state":null,"tags":null,"lead_stage":"Lead","last_marked_opportunity_date":null,"uuid":"35410343-ef83-4f1c-ad2c-3da257f8c9ab","fit_score":"d","interest":15}]}
--------------------
DATA: 2019-12-26 as 17:41:07
IP: 35.226.183.248
URL: www.methodus.com.br/facix2/_php/rdstation/webhook.php
REFERER: 
droumbs@gmail.com
--------------------
DATA: 2019-12-26 as 17:41:11
IP: 35.226.183.248
URL: www.methodus.com.br/facix2/_php/rdstation/webhook.php
REFERER: 
Observações: 
--------------------