
DATA: 2018-11-06 as 10:52:49
IP: 35.194.80.212
URL: www.methodus.com.br/facix2/_php/rdstation/webhook.php
REFERER: 
{"leads":[{"id":"416492640","email":"clemos@legalline.co.mz","name":"Carlos Lemos","company":null,"job_title":null,"bio":null,"public_url":"http://rdstation.com.br/leads/public/59b307f0-6fa2-4c0d-a44e-c535c2242833","created_at":"2018-11-06T05:52:29.000-02:00","opportunity":"false","number_conversions":"1","user":null,"first_conversion":{"content":{"identificador":"guia-medo-de-falar-em-publico","_rd_experiment_content_id":"","traffic_source":"encoded_eyJmaXJzdF9zZXNzaW9uIjp7InZhbHVlIjoiKG5vbmUpIiwiZXh0cmFfcGFyYW1zIjp7fX0sImN1cnJlbnRfc2Vzc2lvbiI6eyJ2YWx1ZSI6Iihub25lKSIsImV4dHJhX3BhcmFtcyI6e319LCJjcmVhdGVkX2F0IjoxNTQxNDkwNzI4Nzk5fQ==","created_at":"2018-11-06 07:52:29 UTC","ip":"197.249.48.206","email_lead":"clemos@legalline.co.mz","Nome":"Carlos Lemos"},"created_at":"2018-11-06T05:52:29.000-02:00","cumulative_sum":"1","source":"guia-medo-de-falar-em-publico","conversion_origin":{"source":"(direct)","medium":"(none)","value":null,"campaign":"(direct)","channel":"Direct"}},"last_conversion":{"content":{"identificador":"guia-medo-de-falar-em-publico","_rd_experiment_content_id":"","traffic_source":"encoded_eyJmaXJzdF9zZXNzaW9uIjp7InZhbHVlIjoiKG5vbmUpIiwiZXh0cmFfcGFyYW1zIjp7fX0sImN1cnJlbnRfc2Vzc2lvbiI6eyJ2YWx1ZSI6Iihub25lKSIsImV4dHJhX3BhcmFtcyI6e319LCJjcmVhdGVkX2F0IjoxNTQxNDkwNzI4Nzk5fQ==","created_at":"2018-11-06 07:52:29 UTC","ip":"197.249.48.206","email_lead":"clemos@legalline.co.mz","Nome":"Carlos Lemos"},"created_at":"2018-11-06T05:52:29.000-02:00","cumulative_sum":"1","source":"guia-medo-de-falar-em-publico","conversion_origin":{"source":"(direct)","medium":"(none)","value":null,"campaign":"(direct)","channel":"Direct"}},"custom_fields":{},"website":null,"personal_phone":null,"mobile_phone":null,"city":null,"state":null,"tags":null,"lead_stage":"Lead","last_marked_opportunity_date":null,"uuid":"59b307f0-6fa2-4c0d-a44e-c535c2242833","fit_score":"d","interest":0}]}
--------------------
DATA: 2018-11-06 as 10:52:49
IP: 35.194.80.212
URL: www.methodus.com.br/facix2/_php/rdstation/webhook.php
REFERER: 
clemos@legalline.co.mz
--------------------
DATA: 2018-11-06 as 10:52:53
IP: 35.194.80.212
URL: www.methodus.com.br/facix2/_php/rdstation/webhook.php
REFERER: 
Observações: 
--------------------
DATA: 2018-11-06 as 10:52:53
IP: 35.199.11.149
URL: www.methodus.com.br/facix2/_php/rdstation/webhook.php
REFERER: 
{"leads":[{"id":"416492640","email":"clemos@legalline.co.mz","name":"Carlos Lemos","company":null,"job_title":null,"bio":null,"public_url":"http://rdstation.com.br/leads/public/59b307f0-6fa2-4c0d-a44e-c535c2242833","created_at":"2018-11-06T05:52:29.000-02:00","opportunity":"false","number_conversions":"1","user":null,"first_conversion":{"content":{"identificador":"guia-medo-de-falar-em-publico","_rd_experiment_content_id":"","traffic_source":"encoded_eyJmaXJzdF9zZXNzaW9uIjp7InZhbHVlIjoiKG5vbmUpIiwiZXh0cmFfcGFyYW1zIjp7fX0sImN1cnJlbnRfc2Vzc2lvbiI6eyJ2YWx1ZSI6Iihub25lKSIsImV4dHJhX3BhcmFtcyI6e319LCJjcmVhdGVkX2F0IjoxNTQxNDkwNzI4Nzk5fQ==","created_at":"2018-11-06 07:52:29 UTC","ip":"197.249.48.206","email_lead":"clemos@legalline.co.mz","Nome":"Carlos Lemos"},"created_at":"2018-11-06T05:52:29.000-02:00","cumulative_sum":"1","source":"guia-medo-de-falar-em-publico","conversion_origin":{"source":"(direct)","medium":"(none)","value":null,"campaign":"(direct)","channel":"Direct"}},"last_conversion":{"content":{"identificador":"guia-medo-de-falar-em-publico","_rd_experiment_content_id":"","traffic_source":"encoded_eyJmaXJzdF9zZXNzaW9uIjp7InZhbHVlIjoiKG5vbmUpIiwiZXh0cmFfcGFyYW1zIjp7fX0sImN1cnJlbnRfc2Vzc2lvbiI6eyJ2YWx1ZSI6Iihub25lKSIsImV4dHJhX3BhcmFtcyI6e319LCJjcmVhdGVkX2F0IjoxNTQxNDkwNzI4Nzk5fQ==","created_at":"2018-11-06 07:52:29 UTC","ip":"197.249.48.206","email_lead":"clemos@legalline.co.mz","Nome":"Carlos Lemos"},"created_at":"2018-11-06T05:52:29.000-02:00","cumulative_sum":"1","source":"guia-medo-de-falar-em-publico","conversion_origin":{"source":"(direct)","medium":"(none)","value":null,"campaign":"(direct)","channel":"Direct"}},"custom_fields":{},"website":null,"personal_phone":null,"mobile_phone":null,"city":null,"state":null,"tags":null,"lead_stage":"Lead","last_marked_opportunity_date":null,"uuid":"59b307f0-6fa2-4c0d-a44e-c535c2242833","fit_score":"d","interest":0}]}
--------------------
DATA: 2018-11-06 as 10:52:53
IP: 35.199.11.149
URL: www.methodus.com.br/facix2/_php/rdstation/webhook.php
REFERER: 
clemos@legalline.co.mz
--------------------
DATA: 2018-11-06 as 10:52:56
IP: 35.199.11.149
URL: www.methodus.com.br/facix2/_php/rdstation/webhook.php
REFERER: 
Observações: 
--------------------