
DATA: 2017-10-16 as 01:44:33
IP: 13.90.202.185
URL: www.methodus.com.br/facix2/_php/rdstation/webhook.php
REFERER: 
{"leads":[{"id":"89650722","email":"ivantsantos@hotmail.com","name":"Ivan","company":null,"job_title":null,"bio":null,"public_url":"http://rdstation.com.br/leads/public/d5f31f1b-0f4f-4372-92b1-b135aab84461","created_at":"2016-07-27T14:07:21.121-03:00","opportunity":"false","number_conversions":"2","user":null,"first_conversion":{"content":{"nome":"Ivan","perfil":"Sou vestibulando / concursando","interesse":"Curso de Leitura Dinâmica e Memorização","identificador":"investimento","created_at":"2016-07-27T17:07:21.121Z","email_lead":"ivantsantos@hotmail.com"},"created_at":"2016-07-27T14:07:21.121-03:00","cumulative_sum":"1","source":"investimento","conversion_origin":{"source":"unknown","medium":"unknown","value":null,"campaign":"unknown","channel":"Unknown"}},"last_conversion":{"content":{"identificador":"estudar-so-e-dificil-para-quem-nao-tem-tecnica","_rd_experiment_content_id":"","traffic_source":"encoded_eyJmaXJzdF9zZXNzaW9uIjp7InZhbHVlIjoiaHR0cHM6Ly93d3cuZ29vZ2xlLmNvbS5ici8iLCJleHRyYV9wYXJhbXMiOnt9fSwiY3VycmVudF9zZXNzaW9uIjp7InZhbHVlIjoiKG5vbmUpIiwiZXh0cmFfcGFyYW1zIjp7fX0sImNyZWF0ZWRfYXQiOjE1MDgxMDczNDQ5Njd9","created_at":"2017-10-15 22:42:38 UTC","email_lead":"ivantsantos@hotmail.com","nome":"Ivan"},"created_at":"2017-10-15T20:42:38.000-02:00","cumulative_sum":"2","source":"estudar-so-e-dificil-para-quem-nao-tem-tecnica","conversion_origin":{"source":"(direct)","medium":"(none)","value":null,"campaign":"(direct)","channel":"Direct"}},"custom_fields":{"Interesse":"Curso de Leitura Dinâmica e Memorização","perfil":"Sou vestibulando / concursando"},"website":null,"personal_phone":null,"mobile_phone":null,"city":null,"state":null,"tags":null,"lead_stage":"Lead","last_marked_opportunity_date":null,"uuid":"d5f31f1b-0f4f-4372-92b1-b135aab84461","fit_score":"d","interest":15}]}
--------------------
DATA: 2017-10-16 as 01:44:33
IP: 13.90.202.185
URL: www.methodus.com.br/facix2/_php/rdstation/webhook.php
REFERER: 
ivantsantos@hotmail.com
--------------------
DATA: 2017-10-16 as 01:44:37
IP: 13.90.202.185
URL: www.methodus.com.br/facix2/_php/rdstation/webhook.php
REFERER: 
Observações:  / Interesse: Curso de Leitura Dinâmica e Memorização / perfil: Sou vestibulando / concursando
--------------------
DATA: 2017-10-16 as 20:33:39
IP: 13.90.202.185
URL: www.methodus.com.br/facix2/_php/rdstation/webhook.php
REFERER: 
{"leads":[{"id":"217929729","email":"ueltonr@bol.com.br","name":"Uelton Ramos de Oliveira","company":null,"job_title":null,"bio":null,"public_url":"http://rdstation.com.br/leads/public/3d6f0966-445b-4426-96cd-3f2f3baf87f3","created_at":"2017-10-16T15:31:34.000-02:00","opportunity":"false","number_conversions":"1","user":null,"first_conversion":{"content":{"identificador":"guia-medo-de-falar-em-publico","_rd_experiment_content_id":"","traffic_source":"encoded_eyJmaXJzdF9zZXNzaW9uIjp7InZhbHVlIjoiaHR0cHM6Ly93d3cuZ29vZ2xlLmNvbS5ici8iLCJleHRyYV9wYXJhbXMiOnt9fSwiY3VycmVudF9zZXNzaW9uIjp7InZhbHVlIjoiKG5vbmUpIiwiZXh0cmFfcGFyYW1zIjp7fX0sImNyZWF0ZWRfYXQiOjE1MDgxNzUwNjM0OTV9","created_at":"2017-10-16 17:31:34 UTC","email_lead":"ueltonr@bol.com.br","nome":"Uelton Ramos de Oliveira"},"created_at":"2017-10-16T15:31:34.000-02:00","cumulative_sum":"1","source":"guia-medo-de-falar-em-publico","conversion_origin":{"source":"Google","medium":"organic","value":null,"campaign":null,"channel":"Organic Search"}},"last_conversion":{"content":{"identificador":"guia-medo-de-falar-em-publico","_rd_experiment_content_id":"","traffic_source":"encoded_eyJmaXJzdF9zZXNzaW9uIjp7InZhbHVlIjoiaHR0cHM6Ly93d3cuZ29vZ2xlLmNvbS5ici8iLCJleHRyYV9wYXJhbXMiOnt9fSwiY3VycmVudF9zZXNzaW9uIjp7InZhbHVlIjoiKG5vbmUpIiwiZXh0cmFfcGFyYW1zIjp7fX0sImNyZWF0ZWRfYXQiOjE1MDgxNzUwNjM0OTV9","created_at":"2017-10-16 17:31:34 UTC","email_lead":"ueltonr@bol.com.br","nome":"Uelton Ramos de Oliveira"},"created_at":"2017-10-16T15:31:34.000-02:00","cumulative_sum":"1","source":"guia-medo-de-falar-em-publico","conversion_origin":{"source":"Google","medium":"organic","value":null,"campaign":null,"channel":"Organic Search"}},"custom_fields":{},"website":null,"personal_phone":null,"mobile_phone":null,"city":null,"state":null,"tags":null,"lead_stage":"Lead","last_marked_opportunity_date":null,"uuid":"3d6f0966-445b-4426-96cd-3f2f3baf87f3","fit_score":"d","interest":15}]}
--------------------
DATA: 2017-10-16 as 20:33:39
IP: 13.90.202.185
URL: www.methodus.com.br/facix2/_php/rdstation/webhook.php
REFERER: 
ueltonr@bol.com.br
--------------------
DATA: 2017-10-16 as 20:33:44
IP: 13.90.202.185
URL: www.methodus.com.br/facix2/_php/rdstation/webhook.php
REFERER: 
Observações: 
--------------------