
DATA: 2019-06-17 as 02:29:42
IP: 104.154.152.240
URL: www.methodus.com.br/facix2/_php/rdstation/webhook.php
REFERER: 
{"leads":[{"id":"569418257","email":"sthefany_ferreira12@hotmail.com","name":"Sthefany Teófilo","company":null,"job_title":null,"bio":null,"public_url":"http://rdstation.com.br/leads/public/6061e0c0-984d-4146-9067-018dafecd887","created_at":"2019-06-16T20:29:15.163-03:00","opportunity":"false","number_conversions":"1","user":null,"first_conversion":{"content":{"identificador":"guia-medo-de-falar-em-publico","_rd_experiment_content_id":"","traffic_source":"encoded_eyJmaXJzdF9zZXNzaW9uIjp7InZhbHVlIjoiaHR0cHM6Ly93d3cubWV0aG9kdXMuY29tLmJyL29yYXRvcmlhLzUtY3Vyc28uaHRtbCIsImV4dHJhX3BhcmFtcyI6e319LCJjdXJyZW50X3Nlc3Npb24iOnsidmFsdWUiOiJodHRwczovL3d3dy5tZXRob2R1cy5jb20uYnIvb3JhdG9yaWEvNS1jdXJzby5odG1sIiwiZXh0cmFfcGFyYW1zIjp7fX0sImNyZWF0ZWRfYXQiOjE1NjA3Mjc3MzM5OTV9","created_at":"2019-06-16T23:29:15.163702Z","ip":"184.26.95.71","email_lead":"sthefany_ferreira12@hotmail.com","Nome":"Sthefany Teófilo"},"created_at":"2019-06-16T20:29:15.163-03:00","cumulative_sum":"1","source":"guia-medo-de-falar-em-publico","conversion_origin":{"source":"methodus.com.br","medium":"referral","value":null,"campaign":"(referral)","channel":"Referral"}},"last_conversion":{"content":{"identificador":"guia-medo-de-falar-em-publico","_rd_experiment_content_id":"","traffic_source":"encoded_eyJmaXJzdF9zZXNzaW9uIjp7InZhbHVlIjoiaHR0cHM6Ly93d3cubWV0aG9kdXMuY29tLmJyL29yYXRvcmlhLzUtY3Vyc28uaHRtbCIsImV4dHJhX3BhcmFtcyI6e319LCJjdXJyZW50X3Nlc3Npb24iOnsidmFsdWUiOiJodHRwczovL3d3dy5tZXRob2R1cy5jb20uYnIvb3JhdG9yaWEvNS1jdXJzby5odG1sIiwiZXh0cmFfcGFyYW1zIjp7fX0sImNyZWF0ZWRfYXQiOjE1NjA3Mjc3MzM5OTV9","created_at":"2019-06-16T23:29:15.163702Z","ip":"184.26.95.71","email_lead":"sthefany_ferreira12@hotmail.com","Nome":"Sthefany Teófilo"},"created_at":"2019-06-16T20:29:15.163-03:00","cumulative_sum":"1","source":"guia-medo-de-falar-em-publico","conversion_origin":{"source":"methodus.com.br","medium":"referral","value":null,"campaign":"(referral)","channel":"Referral"}},"custom_fields":{},"website":null,"personal_phone":null,"mobile_phone":null,"city":null,"state":null,"tags":null,"lead_stage":"Lead","last_marked_opportunity_date":null,"uuid":"6061e0c0-984d-4146-9067-018dafecd887","fit_score":"d","interest":0}]}
--------------------
DATA: 2019-06-17 as 02:29:42
IP: 104.154.152.240
URL: www.methodus.com.br/facix2/_php/rdstation/webhook.php
REFERER: 
sthefany_ferreira12@hotmail.com
--------------------
DATA: 2019-06-17 as 02:29:48
IP: 104.154.152.240
URL: www.methodus.com.br/facix2/_php/rdstation/webhook.php
REFERER: 
Observações: 
--------------------
DATA: 2019-06-17 as 02:29:55
IP: 35.238.0.124
URL: www.methodus.com.br/facix2/_php/rdstation/webhook.php
REFERER: 
{"leads":[{"id":"569418257","email":"sthefany_ferreira12@hotmail.com","name":"Sthefany Teófilo","company":null,"job_title":null,"bio":null,"public_url":"http://rdstation.com.br/leads/public/6061e0c0-984d-4146-9067-018dafecd887","created_at":"2019-06-16T20:29:15.163-03:00","opportunity":"false","number_conversions":"1","user":null,"first_conversion":{"content":{"identificador":"guia-medo-de-falar-em-publico","_rd_experiment_content_id":"","traffic_source":"encoded_eyJmaXJzdF9zZXNzaW9uIjp7InZhbHVlIjoiaHR0cHM6Ly93d3cubWV0aG9kdXMuY29tLmJyL29yYXRvcmlhLzUtY3Vyc28uaHRtbCIsImV4dHJhX3BhcmFtcyI6e319LCJjdXJyZW50X3Nlc3Npb24iOnsidmFsdWUiOiJodHRwczovL3d3dy5tZXRob2R1cy5jb20uYnIvb3JhdG9yaWEvNS1jdXJzby5odG1sIiwiZXh0cmFfcGFyYW1zIjp7fX0sImNyZWF0ZWRfYXQiOjE1NjA3Mjc3MzM5OTV9","created_at":"2019-06-16T23:29:15.163702Z","ip":"184.26.95.71","email_lead":"sthefany_ferreira12@hotmail.com","Nome":"Sthefany Teófilo"},"created_at":"2019-06-16T20:29:15.163-03:00","cumulative_sum":"1","source":"guia-medo-de-falar-em-publico","conversion_origin":{"source":"methodus.com.br","medium":"referral","value":null,"campaign":"(referral)","channel":"Referral"}},"last_conversion":{"content":{"identificador":"guia-medo-de-falar-em-publico","_rd_experiment_content_id":"","traffic_source":"encoded_eyJmaXJzdF9zZXNzaW9uIjp7InZhbHVlIjoiaHR0cHM6Ly93d3cubWV0aG9kdXMuY29tLmJyL29yYXRvcmlhLzUtY3Vyc28uaHRtbCIsImV4dHJhX3BhcmFtcyI6e319LCJjdXJyZW50X3Nlc3Npb24iOnsidmFsdWUiOiJodHRwczovL3d3dy5tZXRob2R1cy5jb20uYnIvb3JhdG9yaWEvNS1jdXJzby5odG1sIiwiZXh0cmFfcGFyYW1zIjp7fX0sImNyZWF0ZWRfYXQiOjE1NjA3Mjc3MzM5OTV9","created_at":"2019-06-16T23:29:15.163702Z","ip":"184.26.95.71","email_lead":"sthefany_ferreira12@hotmail.com","Nome":"Sthefany Teófilo"},"created_at":"2019-06-16T20:29:15.163-03:00","cumulative_sum":"1","source":"guia-medo-de-falar-em-publico","conversion_origin":{"source":"methodus.com.br","medium":"referral","value":null,"campaign":"(referral)","channel":"Referral"}},"custom_fields":{},"website":null,"personal_phone":null,"mobile_phone":null,"city":null,"state":null,"tags":null,"lead_stage":"Lead","last_marked_opportunity_date":null,"uuid":"6061e0c0-984d-4146-9067-018dafecd887","fit_score":"d","interest":15}]}
--------------------
DATA: 2019-06-17 as 02:29:55
IP: 35.238.0.124
URL: www.methodus.com.br/facix2/_php/rdstation/webhook.php
REFERER: 
sthefany_ferreira12@hotmail.com
--------------------
DATA: 2019-06-17 as 02:29:58
IP: 35.238.0.124
URL: www.methodus.com.br/facix2/_php/rdstation/webhook.php
REFERER: 
Observações: 
--------------------