
DATA: 2019-03-26 as 15:40:53
IP: 35.188.227.242
URL: www.methodus.com.br/facix2/_php/rdstation/webhook.php
REFERER: 
{"leads":[{"id":"505485049","email":"gleydielly.santos@yahoo.com","name":"Gleydielly","company":null,"job_title":null,"bio":null,"public_url":"http://rdstation.com.br/leads/public/3dcfb495-9e80-4f4c-8474-fe86c6655dd4","created_at":"2019-03-26T09:39:47.659-03:00","opportunity":"false","number_conversions":"1","user":null,"first_conversion":{"content":{"identificador":"guia-medo-de-falar-em-publico","_rd_experiment_content_id":"","traffic_source":"encoded_eyJmaXJzdF9zZXNzaW9uIjp7InZhbHVlIjoiaHR0cHM6Ly93d3cuZ29vZ2xlLmNvbS5ici8iLCJleHRyYV9wYXJhbXMiOnt9fSwiY3VycmVudF9zZXNzaW9uIjp7InZhbHVlIjoiaHR0cHM6Ly93d3cuZ29vZ2xlLmNvbS5ici8iLCJleHRyYV9wYXJhbXMiOnt9fSwiY3JlYXRlZF9hdCI6MTU1MzYwMzk2ODM5Nn0=","created_at":"2019-03-26T12:39:47.659551Z","ip":"69.31.28.157","email_lead":"gleydielly.santos@yahoo.com","Nome":"Gleydielly"},"created_at":"2019-03-26T09:39:47.659-03:00","cumulative_sum":"1","source":"guia-medo-de-falar-em-publico","conversion_origin":{"source":"Google","medium":"organic","value":null,"campaign":null,"channel":"Organic Search"}},"last_conversion":{"content":{"identificador":"guia-medo-de-falar-em-publico","_rd_experiment_content_id":"","traffic_source":"encoded_eyJmaXJzdF9zZXNzaW9uIjp7InZhbHVlIjoiaHR0cHM6Ly93d3cuZ29vZ2xlLmNvbS5ici8iLCJleHRyYV9wYXJhbXMiOnt9fSwiY3VycmVudF9zZXNzaW9uIjp7InZhbHVlIjoiaHR0cHM6Ly93d3cuZ29vZ2xlLmNvbS5ici8iLCJleHRyYV9wYXJhbXMiOnt9fSwiY3JlYXRlZF9hdCI6MTU1MzYwMzk2ODM5Nn0=","created_at":"2019-03-26T12:39:47.659551Z","ip":"69.31.28.157","email_lead":"gleydielly.santos@yahoo.com","Nome":"Gleydielly"},"created_at":"2019-03-26T09:39:47.659-03:00","cumulative_sum":"1","source":"guia-medo-de-falar-em-publico","conversion_origin":{"source":"Google","medium":"organic","value":null,"campaign":null,"channel":"Organic Search"}},"custom_fields":{},"website":null,"personal_phone":null,"mobile_phone":null,"city":null,"state":null,"tags":null,"lead_stage":"Lead","last_marked_opportunity_date":null,"uuid":"3dcfb495-9e80-4f4c-8474-fe86c6655dd4","fit_score":"d","interest":0}]}
--------------------
DATA: 2019-03-26 as 15:40:53
IP: 35.188.227.242
URL: www.methodus.com.br/facix2/_php/rdstation/webhook.php
REFERER: 
gleydielly.santos@yahoo.com
--------------------
DATA: 2019-03-26 as 15:40:59
IP: 35.188.227.242
URL: www.methodus.com.br/facix2/_php/rdstation/webhook.php
REFERER: 
Observações: 
--------------------
DATA: 2019-03-26 as 15:41:05
IP: 35.245.101.79
URL: www.methodus.com.br/facix2/_php/rdstation/webhook.php
REFERER: 
{"leads":[{"id":"505485049","email":"gleydielly.santos@yahoo.com","name":"Gleydielly","company":null,"job_title":null,"bio":null,"public_url":"http://rdstation.com.br/leads/public/3dcfb495-9e80-4f4c-8474-fe86c6655dd4","created_at":"2019-03-26T09:39:47.659-03:00","opportunity":"false","number_conversions":"1","user":null,"first_conversion":{"content":{"identificador":"guia-medo-de-falar-em-publico","_rd_experiment_content_id":"","traffic_source":"encoded_eyJmaXJzdF9zZXNzaW9uIjp7InZhbHVlIjoiaHR0cHM6Ly93d3cuZ29vZ2xlLmNvbS5ici8iLCJleHRyYV9wYXJhbXMiOnt9fSwiY3VycmVudF9zZXNzaW9uIjp7InZhbHVlIjoiaHR0cHM6Ly93d3cuZ29vZ2xlLmNvbS5ici8iLCJleHRyYV9wYXJhbXMiOnt9fSwiY3JlYXRlZF9hdCI6MTU1MzYwMzk2ODM5Nn0=","created_at":"2019-03-26T12:39:47.659551Z","ip":"69.31.28.157","email_lead":"gleydielly.santos@yahoo.com","Nome":"Gleydielly"},"created_at":"2019-03-26T09:39:47.659-03:00","cumulative_sum":"1","source":"guia-medo-de-falar-em-publico","conversion_origin":{"source":"Google","medium":"organic","value":null,"campaign":null,"channel":"Organic Search"}},"last_conversion":{"content":{"identificador":"guia-medo-de-falar-em-publico","_rd_experiment_content_id":"","traffic_source":"encoded_eyJmaXJzdF9zZXNzaW9uIjp7InZhbHVlIjoiaHR0cHM6Ly93d3cuZ29vZ2xlLmNvbS5ici8iLCJleHRyYV9wYXJhbXMiOnt9fSwiY3VycmVudF9zZXNzaW9uIjp7InZhbHVlIjoiaHR0cHM6Ly93d3cuZ29vZ2xlLmNvbS5ici8iLCJleHRyYV9wYXJhbXMiOnt9fSwiY3JlYXRlZF9hdCI6MTU1MzYwMzk2ODM5Nn0=","created_at":"2019-03-26T12:39:47.659551Z","ip":"69.31.28.157","email_lead":"gleydielly.santos@yahoo.com","Nome":"Gleydielly"},"created_at":"2019-03-26T09:39:47.659-03:00","cumulative_sum":"1","source":"guia-medo-de-falar-em-publico","conversion_origin":{"source":"Google","medium":"organic","value":null,"campaign":null,"channel":"Organic Search"}},"custom_fields":{},"website":null,"personal_phone":null,"mobile_phone":null,"city":null,"state":null,"tags":null,"lead_stage":"Lead","last_marked_opportunity_date":null,"uuid":"3dcfb495-9e80-4f4c-8474-fe86c6655dd4","fit_score":"d","interest":0}]}
--------------------
DATA: 2019-03-26 as 15:41:05
IP: 35.245.101.79
URL: www.methodus.com.br/facix2/_php/rdstation/webhook.php
REFERER: 
gleydielly.santos@yahoo.com
--------------------
DATA: 2019-03-26 as 15:41:08
IP: 35.245.101.79
URL: www.methodus.com.br/facix2/_php/rdstation/webhook.php
REFERER: 
Observações: 
--------------------
DATA: 2019-03-26 as 18:41:09
IP: 35.236.220.236
URL: www.methodus.com.br/facix2/_php/rdstation/webhook.php
REFERER: 
{"leads":[{"id":"505736687","email":"eldon.mendonca@gmail.com","name":"ELDON MENDONCA DE SOUSA","company":null,"job_title":null,"bio":null,"public_url":"http://rdstation.com.br/leads/public/b030901a-8718-4c60-b88a-f91c2b4a9089","created_at":"2019-03-26T12:40:11.043-03:00","opportunity":"false","number_conversions":"1","user":null,"first_conversion":{"content":{"identificador":"guia-medo-de-falar-em-publico","_rd_experiment_content_id":"","traffic_source":"encoded_eyJmaXJzdF9zZXNzaW9uIjp7InZhbHVlIjoiaHR0cHM6Ly93d3cuZ29vZ2xlLmNvbS8iLCJleHRyYV9wYXJhbXMiOnt9fSwiY3VycmVudF9zZXNzaW9uIjp7InZhbHVlIjoiaHR0cHM6Ly93d3cuZ29vZ2xlLmNvbS8iLCJleHRyYV9wYXJhbXMiOnt9fSwiY3JlYXRlZF9hdCI6MTU1MzYxNDc5NzM2Nn0=","created_at":"2019-03-26T15:40:11.043514Z","ip":"184.28.17.67","email_lead":"eldon.mendonca@gmail.com","Nome":"ELDON MENDONCA DE SOUSA"},"created_at":"2019-03-26T12:40:11.043-03:00","cumulative_sum":"1","source":"guia-medo-de-falar-em-publico","conversion_origin":{"source":"Google","medium":"organic","value":null,"campaign":null,"channel":"Organic Search"}},"last_conversion":{"content":{"identificador":"guia-medo-de-falar-em-publico","_rd_experiment_content_id":"","traffic_source":"encoded_eyJmaXJzdF9zZXNzaW9uIjp7InZhbHVlIjoiaHR0cHM6Ly93d3cuZ29vZ2xlLmNvbS8iLCJleHRyYV9wYXJhbXMiOnt9fSwiY3VycmVudF9zZXNzaW9uIjp7InZhbHVlIjoiaHR0cHM6Ly93d3cuZ29vZ2xlLmNvbS8iLCJleHRyYV9wYXJhbXMiOnt9fSwiY3JlYXRlZF9hdCI6MTU1MzYxNDc5NzM2Nn0=","created_at":"2019-03-26T15:40:11.043514Z","ip":"184.28.17.67","email_lead":"eldon.mendonca@gmail.com","Nome":"ELDON MENDONCA DE SOUSA"},"created_at":"2019-03-26T12:40:11.043-03:00","cumulative_sum":"1","source":"guia-medo-de-falar-em-publico","conversion_origin":{"source":"Google","medium":"organic","value":null,"campaign":null,"channel":"Organic Search"}},"custom_fields":{},"website":null,"personal_phone":null,"mobile_phone":null,"city":null,"state":null,"tags":null,"lead_stage":"Lead","last_marked_opportunity_date":null,"uuid":"b030901a-8718-4c60-b88a-f91c2b4a9089","fit_score":"d","interest":15}]}
--------------------
DATA: 2019-03-26 as 18:41:09
IP: 35.236.220.236
URL: www.methodus.com.br/facix2/_php/rdstation/webhook.php
REFERER: 
eldon.mendonca@gmail.com
--------------------
DATA: 2019-03-26 as 18:41:12
IP: 35.236.220.236
URL: www.methodus.com.br/facix2/_php/rdstation/webhook.php
REFERER: 
Observações: 
--------------------
DATA: 2019-03-26 as 18:45:28
IP: 35.245.101.79
URL: www.methodus.com.br/facix2/_php/rdstation/webhook.php
REFERER: 
{"leads":[{"id":"505736687","email":"eldon.mendonca@gmail.com","name":"ELDON MENDONCA DE SOUSA","company":null,"job_title":null,"bio":null,"public_url":"http://rdstation.com.br/leads/public/b030901a-8718-4c60-b88a-f91c2b4a9089","created_at":"2019-03-26T12:40:11.043-03:00","opportunity":"false","number_conversions":"2","user":null,"first_conversion":{"content":{"identificador":"guia-medo-de-falar-em-publico","_rd_experiment_content_id":"","traffic_source":"encoded_eyJmaXJzdF9zZXNzaW9uIjp7InZhbHVlIjoiaHR0cHM6Ly93d3cuZ29vZ2xlLmNvbS8iLCJleHRyYV9wYXJhbXMiOnt9fSwiY3VycmVudF9zZXNzaW9uIjp7InZhbHVlIjoiaHR0cHM6Ly93d3cuZ29vZ2xlLmNvbS8iLCJleHRyYV9wYXJhbXMiOnt9fSwiY3JlYXRlZF9hdCI6MTU1MzYxNDc5NzM2Nn0=","created_at":"2019-03-26T15:40:11.043514Z","ip":"184.28.17.67","email_lead":"eldon.mendonca@gmail.com","Nome":"ELDON MENDONCA DE SOUSA"},"created_at":"2019-03-26T12:40:11.043-03:00","cumulative_sum":"1","source":"guia-medo-de-falar-em-publico","conversion_origin":{"source":"Google","medium":"organic","value":null,"campaign":null,"channel":"Organic Search"}},"last_conversion":{"content":{"identificador":"guia-medo-de-falar-em-publico","_rd_experiment_content_id":"","traffic_source":"encoded_eyJmaXJzdF9zZXNzaW9uIjp7InZhbHVlIjoiaHR0cHM6Ly93d3cuZ29vZ2xlLmNvbS8iLCJleHRyYV9wYXJhbXMiOnt9fSwiY3VycmVudF9zZXNzaW9uIjp7InZhbHVlIjoiKG5vbmUpIiwiZXh0cmFfcGFyYW1zIjp7fX0sImNyZWF0ZWRfYXQiOjE1NTM2MTUwOTU0NDN9","created_at":"2019-03-26T15:45:05.178624Z","ip":"184.28.36.52","email_lead":"eldon.mendonca@gmail.com","Nome":"ELDON MENDONCA DE SOUSA"},"created_at":"2019-03-26T12:45:05.178-03:00","cumulative_sum":"2","source":"guia-medo-de-falar-em-publico","conversion_origin":{"source":"(direct)","medium":"(none)","value":null,"campaign":"(direct)","channel":"Direct"}},"custom_fields":{},"website":null,"personal_phone":null,"mobile_phone":null,"city":null,"state":null,"tags":null,"lead_stage":"Lead","last_marked_opportunity_date":null,"uuid":"b030901a-8718-4c60-b88a-f91c2b4a9089","fit_score":"d","interest":15}]}
--------------------
DATA: 2019-03-26 as 18:45:28
IP: 35.245.101.79
URL: www.methodus.com.br/facix2/_php/rdstation/webhook.php
REFERER: 
eldon.mendonca@gmail.com
--------------------
DATA: 2019-03-26 as 18:45:32
IP: 35.245.101.79
URL: www.methodus.com.br/facix2/_php/rdstation/webhook.php
REFERER: 
Observações: 
--------------------