
DATA: 2019-02-03 as 04:16:11
IP: 35.236.255.213
URL: www.methodus.com.br/facix2/_php/rdstation/webhook.php
REFERER: 
{"leads":[{"id":"470720666","email":"frederico.gervatoski@gmail.com","name":"FREDERICO AUGUSTO GERVATOSKI LOURENCO","company":null,"job_title":null,"bio":null,"public_url":"http://rdstation.com.br/leads/public/580d3a2b-09ae-40bf-a0d6-55131a751009","created_at":"2019-02-02T23:15:46.665-02:00","opportunity":"false","number_conversions":"1","user":null,"first_conversion":{"content":{"identificador":"guia-medo-de-falar-em-publico","_rd_experiment_content_id":"","traffic_source":"encoded_eyJmaXJzdF9zZXNzaW9uIjp7InZhbHVlIjoiaHR0cHM6Ly93d3cuZ29vZ2xlLmNvbS8iLCJleHRyYV9wYXJhbXMiOnt9fSwiY3VycmVudF9zZXNzaW9uIjp7InZhbHVlIjoiaHR0cHM6Ly93d3cuZ29vZ2xlLmNvbS8iLCJleHRyYV9wYXJhbXMiOnt9fSwiY3JlYXRlZF9hdCI6MTU0OTE1NjUzNTUwNX0=","created_at":"2019-02-03T01:15:46.665788Z","ip":"187.39.145.25","email_lead":"frederico.gervatoski@gmail.com","Nome":"FREDERICO AUGUSTO GERVATOSKI LOURENCO"},"created_at":"2019-02-02T23:15:46.665-02:00","cumulative_sum":"1","source":"guia-medo-de-falar-em-publico","conversion_origin":{"source":"Google","medium":"organic","value":null,"campaign":null,"channel":"Organic Search"}},"last_conversion":{"content":{"identificador":"guia-medo-de-falar-em-publico","_rd_experiment_content_id":"","traffic_source":"encoded_eyJmaXJzdF9zZXNzaW9uIjp7InZhbHVlIjoiaHR0cHM6Ly93d3cuZ29vZ2xlLmNvbS8iLCJleHRyYV9wYXJhbXMiOnt9fSwiY3VycmVudF9zZXNzaW9uIjp7InZhbHVlIjoiaHR0cHM6Ly93d3cuZ29vZ2xlLmNvbS8iLCJleHRyYV9wYXJhbXMiOnt9fSwiY3JlYXRlZF9hdCI6MTU0OTE1NjUzNTUwNX0=","created_at":"2019-02-03T01:15:46.665788Z","ip":"187.39.145.25","email_lead":"frederico.gervatoski@gmail.com","Nome":"FREDERICO AUGUSTO GERVATOSKI LOURENCO"},"created_at":"2019-02-02T23:15:46.665-02:00","cumulative_sum":"1","source":"guia-medo-de-falar-em-publico","conversion_origin":{"source":"Google","medium":"organic","value":null,"campaign":null,"channel":"Organic Search"}},"custom_fields":{},"website":null,"personal_phone":null,"mobile_phone":null,"city":null,"state":null,"tags":null,"lead_stage":"Lead","last_marked_opportunity_date":null,"uuid":"580d3a2b-09ae-40bf-a0d6-55131a751009","fit_score":"d","interest":0}]}
--------------------
DATA: 2019-02-03 as 04:16:11
IP: 35.236.255.213
URL: www.methodus.com.br/facix2/_php/rdstation/webhook.php
REFERER: 
frederico.gervatoski@gmail.com
--------------------
DATA: 2019-02-03 as 04:16:14
IP: 35.221.26.100
URL: www.methodus.com.br/facix2/_php/rdstation/webhook.php
REFERER: 
{"leads":[{"id":"470720666","email":"frederico.gervatoski@gmail.com","name":"FREDERICO AUGUSTO GERVATOSKI LOURENCO","company":null,"job_title":null,"bio":null,"public_url":"http://rdstation.com.br/leads/public/580d3a2b-09ae-40bf-a0d6-55131a751009","created_at":"2019-02-02T23:15:46.665-02:00","opportunity":"false","number_conversions":"1","user":null,"first_conversion":{"content":{"identificador":"guia-medo-de-falar-em-publico","_rd_experiment_content_id":"","traffic_source":"encoded_eyJmaXJzdF9zZXNzaW9uIjp7InZhbHVlIjoiaHR0cHM6Ly93d3cuZ29vZ2xlLmNvbS8iLCJleHRyYV9wYXJhbXMiOnt9fSwiY3VycmVudF9zZXNzaW9uIjp7InZhbHVlIjoiaHR0cHM6Ly93d3cuZ29vZ2xlLmNvbS8iLCJleHRyYV9wYXJhbXMiOnt9fSwiY3JlYXRlZF9hdCI6MTU0OTE1NjUzNTUwNX0=","created_at":"2019-02-03T01:15:46.665788Z","ip":"187.39.145.25","email_lead":"frederico.gervatoski@gmail.com","Nome":"FREDERICO AUGUSTO GERVATOSKI LOURENCO"},"created_at":"2019-02-02T23:15:46.665-02:00","cumulative_sum":"1","source":"guia-medo-de-falar-em-publico","conversion_origin":{"source":"Google","medium":"organic","value":null,"campaign":null,"channel":"Organic Search"}},"last_conversion":{"content":{"identificador":"guia-medo-de-falar-em-publico","_rd_experiment_content_id":"","traffic_source":"encoded_eyJmaXJzdF9zZXNzaW9uIjp7InZhbHVlIjoiaHR0cHM6Ly93d3cuZ29vZ2xlLmNvbS8iLCJleHRyYV9wYXJhbXMiOnt9fSwiY3VycmVudF9zZXNzaW9uIjp7InZhbHVlIjoiaHR0cHM6Ly93d3cuZ29vZ2xlLmNvbS8iLCJleHRyYV9wYXJhbXMiOnt9fSwiY3JlYXRlZF9hdCI6MTU0OTE1NjUzNTUwNX0=","created_at":"2019-02-03T01:15:46.665788Z","ip":"187.39.145.25","email_lead":"frederico.gervatoski@gmail.com","Nome":"FREDERICO AUGUSTO GERVATOSKI LOURENCO"},"created_at":"2019-02-02T23:15:46.665-02:00","cumulative_sum":"1","source":"guia-medo-de-falar-em-publico","conversion_origin":{"source":"Google","medium":"organic","value":null,"campaign":null,"channel":"Organic Search"}},"custom_fields":{},"website":null,"personal_phone":null,"mobile_phone":null,"city":null,"state":null,"tags":null,"lead_stage":"Lead","last_marked_opportunity_date":null,"uuid":"580d3a2b-09ae-40bf-a0d6-55131a751009","fit_score":"d","interest":0}]}
--------------------
DATA: 2019-02-03 as 04:16:14
IP: 35.221.26.100
URL: www.methodus.com.br/facix2/_php/rdstation/webhook.php
REFERER: 
frederico.gervatoski@gmail.com
--------------------
DATA: 2019-02-03 as 04:16:15
IP: 35.236.255.213
URL: www.methodus.com.br/facix2/_php/rdstation/webhook.php
REFERER: 
Observações: 
--------------------
DATA: 2019-02-03 as 04:16:18
IP: 35.221.26.100
URL: www.methodus.com.br/facix2/_php/rdstation/webhook.php
REFERER: 
Observações: 
--------------------