
DATA: 2019-09-23 as 23:35:57
IP: 34.66.199.124
URL: www.methodus.com.br/facix2/_php/rdstation/webhook.php
REFERER: 
{"leads":[{"id":"661161828","email":"horisman@hotmail.com","name":"Horisman Mattos","company":null,"job_title":null,"bio":null,"public_url":"http://rdstation.com.br/leads/public/455202d6-2078-44f4-b482-99859cf47449","created_at":"2019-09-23T17:35:08.454-03:00","opportunity":"false","number_conversions":"2","user":null,"first_conversion":{"content":{"identificador":"curso-oratoria-pagina","traffic_source":"encoded_eyJmaXJzdF9zZXNzaW9uIjp7InZhbHVlIjoiaHR0cHM6Ly93d3cuZ29vZ2xlLmNvbS8iLCJleHRyYV9wYXJhbXMiOnt9fSwiY3VycmVudF9zZXNzaW9uIjp7InZhbHVlIjoiaHR0cHM6Ly93d3cuZ29vZ2xlLmNvbS8iLCJleHRyYV9wYXJhbXMiOnt9fSwiY3JlYXRlZF9hdCI6MTU2OTI3MDg1MzU3NX0=","_doe":"","created_at":"2019-09-23T20:35:08.454643Z","ip":"177.221.43.129","email_lead":"horisman@hotmail.com","Nome":"Horisman Mattos"},"created_at":"2019-09-23T17:35:08.454-03:00","cumulative_sum":"1","source":"curso-oratoria-pagina","conversion_origin":{"source":"Google","medium":"organic","value":null,"campaign":null,"channel":"Organic Search"}},"last_conversion":{"content":{"identificador":"guia-medo-de-falar-em-publico","_rd_experiment_content_id":"","traffic_source":"encoded_eyJmaXJzdF9zZXNzaW9uIjp7InZhbHVlIjoiaHR0cHM6Ly93d3cuZ29vZ2xlLmNvbS8iLCJleHRyYV9wYXJhbXMiOnt9fSwiY3VycmVudF9zZXNzaW9uIjp7InZhbHVlIjoiaHR0cHM6Ly93d3cuZ29vZ2xlLmNvbS8iLCJleHRyYV9wYXJhbXMiOnt9fSwiY3JlYXRlZF9hdCI6MTU2OTI3MDkwMTIzMn0=","created_at":"2019-09-23T20:35:24.920898Z","ip":"177.221.43.129","email_lead":"horisman@hotmail.com","Nome":"Horisman Mattos"},"created_at":"2019-09-23T17:35:24.920-03:00","cumulative_sum":"2","source":"guia-medo-de-falar-em-publico","conversion_origin":{"source":"Google","medium":"organic","value":null,"campaign":null,"channel":"Organic Search"}},"custom_fields":{},"website":null,"personal_phone":null,"mobile_phone":null,"city":null,"state":null,"tags":null,"lead_stage":"Lead","last_marked_opportunity_date":null,"uuid":"455202d6-2078-44f4-b482-99859cf47449","fit_score":"d","interest":0}]}
--------------------
DATA: 2019-09-23 as 23:35:57
IP: 34.66.199.124
URL: www.methodus.com.br/facix2/_php/rdstation/webhook.php
REFERER: 
horisman@hotmail.com
--------------------
DATA: 2019-09-23 as 23:36:06
IP: 34.66.199.124
URL: www.methodus.com.br/facix2/_php/rdstation/webhook.php
REFERER: 
Observações: 
--------------------