
DATA: 2018-08-22 as 19:35:16
IP: 35.194.69.135
URL: www.methodus.com.br/facix2/_php/rdstation/webhook.php
REFERER: 
{"leads":[{"id":"367315475","email":"michell_fe@hotmail.com","name":"Michel","company":null,"job_title":null,"bio":null,"public_url":"http://rdstation.com.br/leads/public/1729d5bb-9f09-4283-b284-bf113f7053f1","created_at":"2018-08-22T13:32:12.000-03:00","opportunity":"false","number_conversions":"2","user":null,"first_conversion":{"content":{"nome":"Michel","perfil":"","Interesse":"Curso de Leitura Dinâmica e Memorização","identificador":"investimento","interesse":"Curso de Leitura Dinâmica e Memorização","created_at":"2018-08-22 16:32:12 UTC","email_lead":"michell_fe@hotmail.com"},"created_at":"2018-08-22T13:32:12.000-03:00","cumulative_sum":"1","source":"investimento","conversion_origin":{"source":"unknown","medium":"unknown","value":null,"campaign":"unknown","channel":"Unknown"}},"last_conversion":{"content":{"identificador":"administracao-do-tempo-infografico-5-passos-infaliveis-para-realizar-grandes-sonhos","_rd_experiment_content_id":"","traffic_source":"encoded_eyJmaXJzdF9zZXNzaW9uIjp7InZhbHVlIjoiaHR0cDovL3d3dy5hYWp1bXAuY29tLmJyL2luZGV4LnBocD9fYWN0aW9uPWZlLWNvbnZlbmlvLWRldGFsaGUmaWRfY29udmVuaW89MjQiLCJleHRyYV9wYXJhbXMiOnt9fSwiY3VycmVudF9zZXNzaW9uIjp7InZhbHVlIjoiKG5vbmUpIiwiZXh0cmFfcGFyYW1zIjp7fX0sImNyZWF0ZWRfYXQiOjE1MzQ5NTU2Mjg5NDV9","created_at":"2018-08-22 16:34:38 UTC","ip":"201.55.50.182","email_lead":"michell_fe@hotmail.com","nome":"Michel"},"created_at":"2018-08-22T13:34:38.000-03:00","cumulative_sum":"2","source":"administracao-do-tempo-infografico-5-passos-infaliveis-para-realizar-grandes-sonhos","conversion_origin":{"source":"(direct)","medium":"(none)","value":null,"campaign":"(direct)","channel":"Direct"}},"custom_fields":{"Interesse":"Curso de Leitura Dinâmica e Memorização"},"website":null,"personal_phone":null,"mobile_phone":null,"city":null,"state":null,"tags":null,"lead_stage":"Lead","last_marked_opportunity_date":null,"uuid":"1729d5bb-9f09-4283-b284-bf113f7053f1","fit_score":"d","interest":0}]}
--------------------
DATA: 2018-08-22 as 19:35:16
IP: 35.194.69.135
URL: www.methodus.com.br/facix2/_php/rdstation/webhook.php
REFERER: 
michell_fe@hotmail.com
--------------------
DATA: 2018-08-22 as 19:35:19
IP: 35.194.69.135
URL: www.methodus.com.br/facix2/_php/rdstation/webhook.php
REFERER: 
Observações:  / Interesse: Curso de Leitura Dinâmica e Memorização
--------------------