
DATA: 2019-10-29 as 17:24:50
IP: 34.68.110.127
URL: www.methodus.com.br/facix2/_php/rdstation/webhook.php
REFERER: 
{"leads":[{"id":"92177056","email":"fortesbraz@gmail.com","name":"Felipe fortes braz","company":null,"job_title":null,"bio":null,"public_url":"http://rdstation.com.br/leads/public/f02c25da-ad23-461c-abab-ae76c1a5eb2e","created_at":"2016-08-09T15:26:13.535-03:00","opportunity":"false","number_conversions":"3","user":null,"first_conversion":{"content":{"email_lead":"fortesbraz@gmail.com","nome":"Felipe Fortes Braz","created_at":"2016-08-09T18:26:13.535Z","identificador":"alunos_methodus","company_id":null,"id":"92177056","Interesse":"Curso de Oratória","import_token":"7b9e3a35-55f2-4814-b734-5b4bbb179357"},"created_at":"2016-08-09T15:26:30.899-03:00","cumulative_sum":"1","source":"alunos_methodus","conversion_origin":{"source":"unknown","medium":"unknown","value":null,"campaign":"unknown","channel":"Unknown"}},"last_conversion":{"content":{"identificador":"guia-medo-de-falar-em-publico","_rd_experiment_content_id":"","traffic_source":"encoded_eyJmaXJzdF9zZXNzaW9uIjp7InZhbHVlIjoiKG5vbmUpIiwiZXh0cmFfcGFyYW1zIjp7fX0sImN1cnJlbnRfc2Vzc2lvbiI6eyJ2YWx1ZSI6Iihub25lKSIsImV4dHJhX3BhcmFtcyI6e319LCJjcmVhdGVkX2F0IjoxNTcyMzU4NzQ3NDI2fQ==","created_at":"2019-10-29T14:23:07.708552Z","ip":"179.176.207.97","email_lead":"fortesbraz@gmail.com","Nome":"Felipe fortes braz"},"created_at":"2019-10-29T11:23:07.708-03:00","cumulative_sum":"3","source":"guia-medo-de-falar-em-publico","conversion_origin":{"source":"(direct)","medium":"(none)","value":null,"campaign":"(direct)","channel":"Direct"}},"custom_fields":{"Interesse":"Curso de Oratória"},"website":null,"personal_phone":null,"mobile_phone":null,"city":null,"state":null,"tags":["leads_frios"],"lead_stage":"Cliente","last_marked_opportunity_date":null,"uuid":"f02c25da-ad23-461c-abab-ae76c1a5eb2e","fit_score":"d","interest":0}]}
--------------------
DATA: 2019-10-29 as 17:24:50
IP: 34.68.110.127
URL: www.methodus.com.br/facix2/_php/rdstation/webhook.php
REFERER: 
fortesbraz@gmail.com
--------------------
DATA: 2019-10-29 as 17:24:53
IP: 34.68.110.127
URL: www.methodus.com.br/facix2/_php/rdstation/webhook.php
REFERER: 
Observações:  / Interesse: Curso de Oratória
--------------------