
DATA: 2018-12-30 as 16:40:55
IP: 35.236.220.236
URL: www.methodus.com.br/facix2/_php/rdstation/webhook.php
REFERER: 
{"leads":[{"id":"449826135","email":"otreborzdrc98@gmail.com","name":"Otrebor Ozodrac","company":null,"job_title":null,"bio":null,"public_url":"http://rdstation.com.br/leads/public/730b25a3-7a7a-4ab1-9447-5dae123d363c","created_at":"2018-12-30T11:40:47.000-02:00","opportunity":"false","number_conversions":"1","user":null,"first_conversion":{"content":{"identificador":"guia-medo-de-falar-em-publico","_rd_experiment_content_id":"","traffic_source":"encoded_eyJmaXJzdF9zZXNzaW9uIjp7InZhbHVlIjoiaHR0cHM6Ly93d3cuZ29vZ2xlLmNvbS8iLCJleHRyYV9wYXJhbXMiOnt9fSwiY3VycmVudF9zZXNzaW9uIjp7InZhbHVlIjoiaHR0cHM6Ly93d3cuZ29vZ2xlLmNvbS8iLCJleHRyYV9wYXJhbXMiOnt9fSwiY3JlYXRlZF9hdCI6MTU0NjA4Nzg4MjU5M30=","created_at":"2018-12-30 13:40:47 UTC","ip":"201.76.119.225","email_lead":"otreborzdrc98@gmail.com","Nome":"Otrebor Ozodrac"},"created_at":"2018-12-30T11:40:47.000-02:00","cumulative_sum":"1","source":"guia-medo-de-falar-em-publico","conversion_origin":{"source":"Google","medium":"organic","value":null,"campaign":null,"channel":"Organic Search"}},"last_conversion":{"content":{"identificador":"guia-medo-de-falar-em-publico","_rd_experiment_content_id":"","traffic_source":"encoded_eyJmaXJzdF9zZXNzaW9uIjp7InZhbHVlIjoiaHR0cHM6Ly93d3cuZ29vZ2xlLmNvbS8iLCJleHRyYV9wYXJhbXMiOnt9fSwiY3VycmVudF9zZXNzaW9uIjp7InZhbHVlIjoiaHR0cHM6Ly93d3cuZ29vZ2xlLmNvbS8iLCJleHRyYV9wYXJhbXMiOnt9fSwiY3JlYXRlZF9hdCI6MTU0NjA4Nzg4MjU5M30=","created_at":"2018-12-30 13:40:47 UTC","ip":"201.76.119.225","email_lead":"otreborzdrc98@gmail.com","Nome":"Otrebor Ozodrac"},"created_at":"2018-12-30T11:40:47.000-02:00","cumulative_sum":"1","source":"guia-medo-de-falar-em-publico","conversion_origin":{"source":"Google","medium":"organic","value":null,"campaign":null,"channel":"Organic Search"}},"custom_fields":{},"website":null,"personal_phone":null,"mobile_phone":null,"city":null,"state":null,"tags":null,"lead_stage":"Lead","last_marked_opportunity_date":null,"uuid":"730b25a3-7a7a-4ab1-9447-5dae123d363c","fit_score":"d","interest":0}]}
--------------------
DATA: 2018-12-30 as 16:40:55
IP: 35.236.220.236
URL: www.methodus.com.br/facix2/_php/rdstation/webhook.php
REFERER: 
otreborzdrc98@gmail.com
--------------------
DATA: 2018-12-30 as 16:40:59
IP: 35.236.220.236
URL: www.methodus.com.br/facix2/_php/rdstation/webhook.php
REFERER: 
Observações: 
--------------------
DATA: 2018-12-30 as 16:41:00
IP: 35.236.238.214
URL: www.methodus.com.br/facix2/_php/rdstation/webhook.php
REFERER: 
{"leads":[{"id":"449826135","email":"otreborzdrc98@gmail.com","name":"Otrebor Ozodrac","company":null,"job_title":null,"bio":null,"public_url":"http://rdstation.com.br/leads/public/730b25a3-7a7a-4ab1-9447-5dae123d363c","created_at":"2018-12-30T11:40:47.000-02:00","opportunity":"false","number_conversions":"1","user":null,"first_conversion":{"content":{"identificador":"guia-medo-de-falar-em-publico","_rd_experiment_content_id":"","traffic_source":"encoded_eyJmaXJzdF9zZXNzaW9uIjp7InZhbHVlIjoiaHR0cHM6Ly93d3cuZ29vZ2xlLmNvbS8iLCJleHRyYV9wYXJhbXMiOnt9fSwiY3VycmVudF9zZXNzaW9uIjp7InZhbHVlIjoiaHR0cHM6Ly93d3cuZ29vZ2xlLmNvbS8iLCJleHRyYV9wYXJhbXMiOnt9fSwiY3JlYXRlZF9hdCI6MTU0NjA4Nzg4MjU5M30=","created_at":"2018-12-30 13:40:47 UTC","ip":"201.76.119.225","email_lead":"otreborzdrc98@gmail.com","Nome":"Otrebor Ozodrac"},"created_at":"2018-12-30T11:40:47.000-02:00","cumulative_sum":"1","source":"guia-medo-de-falar-em-publico","conversion_origin":{"source":"Google","medium":"organic","value":null,"campaign":null,"channel":"Organic Search"}},"last_conversion":{"content":{"identificador":"guia-medo-de-falar-em-publico","_rd_experiment_content_id":"","traffic_source":"encoded_eyJmaXJzdF9zZXNzaW9uIjp7InZhbHVlIjoiaHR0cHM6Ly93d3cuZ29vZ2xlLmNvbS8iLCJleHRyYV9wYXJhbXMiOnt9fSwiY3VycmVudF9zZXNzaW9uIjp7InZhbHVlIjoiaHR0cHM6Ly93d3cuZ29vZ2xlLmNvbS8iLCJleHRyYV9wYXJhbXMiOnt9fSwiY3JlYXRlZF9hdCI6MTU0NjA4Nzg4MjU5M30=","created_at":"2018-12-30 13:40:47 UTC","ip":"201.76.119.225","email_lead":"otreborzdrc98@gmail.com","Nome":"Otrebor Ozodrac"},"created_at":"2018-12-30T11:40:47.000-02:00","cumulative_sum":"1","source":"guia-medo-de-falar-em-publico","conversion_origin":{"source":"Google","medium":"organic","value":null,"campaign":null,"channel":"Organic Search"}},"custom_fields":{},"website":null,"personal_phone":null,"mobile_phone":null,"city":null,"state":null,"tags":null,"lead_stage":"Lead","last_marked_opportunity_date":null,"uuid":"730b25a3-7a7a-4ab1-9447-5dae123d363c","fit_score":"d","interest":0}]}
--------------------
DATA: 2018-12-30 as 16:41:00
IP: 35.236.238.214
URL: www.methodus.com.br/facix2/_php/rdstation/webhook.php
REFERER: 
otreborzdrc98@gmail.com
--------------------
DATA: 2018-12-30 as 16:41:03
IP: 35.236.238.214
URL: www.methodus.com.br/facix2/_php/rdstation/webhook.php
REFERER: 
Observações: 
--------------------