
DATA: 2018-11-16 as 17:18:15
IP: 35.188.242.56
URL: www.methodus.com.br/facix2/_php/rdstation/webhook.php
REFERER: 
{"leads":[{"id":"423101565","email":"anapauladuartefreitas@gmail.com","name":"Ana Freitas","company":null,"job_title":null,"bio":null,"public_url":"http://rdstation.com.br/leads/public/8bdc7dfa-581e-44a8-b0f8-d3dcc158950c","created_at":"2018-11-16T12:18:06.000-02:00","opportunity":"false","number_conversions":"1","user":null,"first_conversion":{"content":{"identificador":"guia-medo-de-falar-em-publico","_rd_experiment_content_id":"","traffic_source":"encoded_eyJmaXJzdF9zZXNzaW9uIjp7InZhbHVlIjoiaHR0cHM6Ly93d3cuZ29vZ2xlLnB0LyIsImV4dHJhX3BhcmFtcyI6e319LCJjdXJyZW50X3Nlc3Npb24iOnsidmFsdWUiOiJodHRwczovL3d3dy5mYWNlYm9vay5jb20vIiwiZXh0cmFfcGFyYW1zIjp7fX0sImNyZWF0ZWRfYXQiOjE1NDIzNzc4MzEzNjd9","created_at":"2018-11-16 14:18:06 UTC","ip":"83.132.174.123","email_lead":"anapauladuartefreitas@gmail.com","Nome":"Ana Freitas"},"created_at":"2018-11-16T12:18:06.000-02:00","cumulative_sum":"1","source":"guia-medo-de-falar-em-publico","conversion_origin":{"source":"Facebook","medium":"social","value":null,"campaign":null,"channel":"Social"}},"last_conversion":{"content":{"identificador":"guia-medo-de-falar-em-publico","_rd_experiment_content_id":"","traffic_source":"encoded_eyJmaXJzdF9zZXNzaW9uIjp7InZhbHVlIjoiaHR0cHM6Ly93d3cuZ29vZ2xlLnB0LyIsImV4dHJhX3BhcmFtcyI6e319LCJjdXJyZW50X3Nlc3Npb24iOnsidmFsdWUiOiJodHRwczovL3d3dy5mYWNlYm9vay5jb20vIiwiZXh0cmFfcGFyYW1zIjp7fX0sImNyZWF0ZWRfYXQiOjE1NDIzNzc4MzEzNjd9","created_at":"2018-11-16 14:18:06 UTC","ip":"83.132.174.123","email_lead":"anapauladuartefreitas@gmail.com","Nome":"Ana Freitas"},"created_at":"2018-11-16T12:18:06.000-02:00","cumulative_sum":"1","source":"guia-medo-de-falar-em-publico","conversion_origin":{"source":"Facebook","medium":"social","value":null,"campaign":null,"channel":"Social"}},"custom_fields":{},"website":null,"personal_phone":null,"mobile_phone":null,"city":null,"state":null,"tags":null,"lead_stage":"Lead","last_marked_opportunity_date":null,"uuid":"8bdc7dfa-581e-44a8-b0f8-d3dcc158950c","fit_score":"d","interest":0}]}
--------------------
DATA: 2018-11-16 as 17:18:15
IP: 35.188.242.56
URL: www.methodus.com.br/facix2/_php/rdstation/webhook.php
REFERER: 
anapauladuartefreitas@gmail.com
--------------------
DATA: 2018-11-16 as 17:18:19
IP: 35.188.242.56
URL: www.methodus.com.br/facix2/_php/rdstation/webhook.php
REFERER: 
Observações: 
--------------------
DATA: 2018-11-16 as 17:19:02
IP: 35.236.220.236
URL: www.methodus.com.br/facix2/_php/rdstation/webhook.php
REFERER: 
{"leads":[{"id":"423101565","email":"anapauladuartefreitas@gmail.com","name":"Ana Freitas","company":null,"job_title":null,"bio":null,"public_url":"http://rdstation.com.br/leads/public/8bdc7dfa-581e-44a8-b0f8-d3dcc158950c","created_at":"2018-11-16T12:18:06.000-02:00","opportunity":"false","number_conversions":"1","user":null,"first_conversion":{"content":{"identificador":"guia-medo-de-falar-em-publico","_rd_experiment_content_id":"","traffic_source":"encoded_eyJmaXJzdF9zZXNzaW9uIjp7InZhbHVlIjoiaHR0cHM6Ly93d3cuZ29vZ2xlLnB0LyIsImV4dHJhX3BhcmFtcyI6e319LCJjdXJyZW50X3Nlc3Npb24iOnsidmFsdWUiOiJodHRwczovL3d3dy5mYWNlYm9vay5jb20vIiwiZXh0cmFfcGFyYW1zIjp7fX0sImNyZWF0ZWRfYXQiOjE1NDIzNzc4MzEzNjd9","created_at":"2018-11-16 14:18:06 UTC","ip":"83.132.174.123","email_lead":"anapauladuartefreitas@gmail.com","Nome":"Ana Freitas"},"created_at":"2018-11-16T12:18:06.000-02:00","cumulative_sum":"1","source":"guia-medo-de-falar-em-publico","conversion_origin":{"source":"Facebook","medium":"social","value":null,"campaign":null,"channel":"Social"}},"last_conversion":{"content":{"identificador":"guia-medo-de-falar-em-publico","_rd_experiment_content_id":"","traffic_source":"encoded_eyJmaXJzdF9zZXNzaW9uIjp7InZhbHVlIjoiaHR0cHM6Ly93d3cuZ29vZ2xlLnB0LyIsImV4dHJhX3BhcmFtcyI6e319LCJjdXJyZW50X3Nlc3Npb24iOnsidmFsdWUiOiJodHRwczovL3d3dy5mYWNlYm9vay5jb20vIiwiZXh0cmFfcGFyYW1zIjp7fX0sImNyZWF0ZWRfYXQiOjE1NDIzNzc4MzEzNjd9","created_at":"2018-11-16 14:18:06 UTC","ip":"83.132.174.123","email_lead":"anapauladuartefreitas@gmail.com","Nome":"Ana Freitas"},"created_at":"2018-11-16T12:18:06.000-02:00","cumulative_sum":"1","source":"guia-medo-de-falar-em-publico","conversion_origin":{"source":"Facebook","medium":"social","value":null,"campaign":null,"channel":"Social"}},"custom_fields":{},"website":null,"personal_phone":null,"mobile_phone":null,"city":null,"state":null,"tags":null,"lead_stage":"Lead","last_marked_opportunity_date":null,"uuid":"8bdc7dfa-581e-44a8-b0f8-d3dcc158950c","fit_score":"d","interest":15}]}
--------------------
DATA: 2018-11-16 as 17:19:02
IP: 35.236.220.236
URL: www.methodus.com.br/facix2/_php/rdstation/webhook.php
REFERER: 
anapauladuartefreitas@gmail.com
--------------------
DATA: 2018-11-16 as 17:19:06
IP: 35.236.220.236
URL: www.methodus.com.br/facix2/_php/rdstation/webhook.php
REFERER: 
Observações: 
--------------------