
DATA: 2019-09-20 as 03:11:08
IP: 34.66.199.124
URL: www.methodus.com.br/facix2/_php/rdstation/webhook.php
REFERER: 
{"leads":[{"id":"657391163","email":"sampaiopaloma48@gmail.com","name":"paloma pereira","company":null,"job_title":null,"bio":null,"public_url":"http://rdstation.com.br/leads/public/2e19ac6a-d4be-4348-ac01-9c431803ccad","created_at":"2019-09-18T22:11:23.341-03:00","opportunity":"false","number_conversions":"1","user":null,"first_conversion":{"content":{"identificador":"guia-medo-de-falar-em-publico","_rd_experiment_content_id":"","traffic_source":"encoded_eyJmaXJzdF9zZXNzaW9uIjp7InZhbHVlIjoiaHR0cHM6Ly93d3cuZ29vZ2xlLmNvbS8iLCJleHRyYV9wYXJhbXMiOnt9fSwiY3VycmVudF9zZXNzaW9uIjp7InZhbHVlIjoiaHR0cHM6Ly93d3cuZ29vZ2xlLmNvbS8iLCJleHRyYV9wYXJhbXMiOnt9fSwiY3JlYXRlZF9hdCI6MTU2ODg1NTM5NTY0MX0=","created_at":"2019-09-19T01:11:23.341131Z","ip":"177.37.161.251","email_lead":"sampaiopaloma48@gmail.com","Nome":"paloma pereira"},"created_at":"2019-09-18T22:11:23.341-03:00","cumulative_sum":"1","source":"guia-medo-de-falar-em-publico","conversion_origin":{"source":"Google","medium":"organic","value":null,"campaign":null,"channel":"Organic Search"}},"last_conversion":{"content":{"identificador":"guia-medo-de-falar-em-publico","_rd_experiment_content_id":"","traffic_source":"encoded_eyJmaXJzdF9zZXNzaW9uIjp7InZhbHVlIjoiaHR0cHM6Ly93d3cuZ29vZ2xlLmNvbS8iLCJleHRyYV9wYXJhbXMiOnt9fSwiY3VycmVudF9zZXNzaW9uIjp7InZhbHVlIjoiaHR0cHM6Ly93d3cuZ29vZ2xlLmNvbS8iLCJleHRyYV9wYXJhbXMiOnt9fSwiY3JlYXRlZF9hdCI6MTU2ODg1NTM5NTY0MX0=","created_at":"2019-09-19T01:11:23.341131Z","ip":"177.37.161.251","email_lead":"sampaiopaloma48@gmail.com","Nome":"paloma pereira"},"created_at":"2019-09-18T22:11:23.341-03:00","cumulative_sum":"1","source":"guia-medo-de-falar-em-publico","conversion_origin":{"source":"Google","medium":"organic","value":null,"campaign":null,"channel":"Organic Search"}},"custom_fields":{},"website":null,"personal_phone":null,"mobile_phone":null,"city":null,"state":null,"tags":null,"lead_stage":"Lead","last_marked_opportunity_date":null,"uuid":"2e19ac6a-d4be-4348-ac01-9c431803ccad","fit_score":"d","interest":15}]}
--------------------
DATA: 2019-09-20 as 03:11:08
IP: 34.66.199.124
URL: www.methodus.com.br/facix2/_php/rdstation/webhook.php
REFERER: 
sampaiopaloma48@gmail.com
--------------------
DATA: 2019-09-20 as 03:11:11
IP: 34.66.199.124
URL: www.methodus.com.br/facix2/_php/rdstation/webhook.php
REFERER: 
Observações: 
--------------------