
DATA: 2017-11-08 as 19:06:38
IP: 13.90.202.185
URL: www.methodus.com.br/facix2/_php/rdstation/webhook.php
REFERER: 
{"leads":[{"id":"222185817","email":"compras@tdconstrutora.com.br","name":"RITA DE CASSIA MARQUES","company":null,"job_title":null,"bio":null,"public_url":"http://rdstation.com.br/leads/public/efdab9a1-cf7e-4ebb-9137-be16169cb81c","created_at":"2017-10-26T11:22:09.000-02:00","opportunity":"false","number_conversions":"2","user":null,"first_conversion":{"content":{"identificador":"guia-medo-de-falar-em-publico","_rd_experiment_content_id":"","traffic_source":"encoded_eyJmaXJzdF9zZXNzaW9uIjp7InZhbHVlIjoiaHR0cHM6Ly93d3cuZ29vZ2xlLmNvbS5ici8iLCJleHRyYV9wYXJhbXMiOnt9fSwiY3VycmVudF9zZXNzaW9uIjp7InZhbHVlIjoiKG5vbmUpIiwiZXh0cmFfcGFyYW1zIjp7fX0sImNyZWF0ZWRfYXQiOjE1MDkwMjQxMDg1MjJ9","created_at":"2017-10-26 13:22:09 UTC","email_lead":"compras@tdconstrutora.com.br","nome":"RITA DE CASSIA MARQUES"},"created_at":"2017-10-26T11:22:09.000-02:00","cumulative_sum":"1","source":"guia-medo-de-falar-em-publico","conversion_origin":{"source":"Google","medium":"organic","value":null,"campaign":null,"channel":"Organic Search"}},"last_conversion":{"content":{"identificador":"guia-medo-de-falar-em-publico","_rd_experiment_content_id":"","traffic_source":"encoded_eyJmaXJzdF9zZXNzaW9uIjp7InZhbHVlIjoiaHR0cHM6Ly93d3cuZ29vZ2xlLmNvbS5ici8iLCJleHRyYV9wYXJhbXMiOnt9fSwiY3VycmVudF9zZXNzaW9uIjp7InZhbHVlIjoiKG5vbmUpIiwiZXh0cmFfcGFyYW1zIjp7fX0sImNyZWF0ZWRfYXQiOjE1MTAxNTcxMzQ0ODN9","created_at":"2017-11-08 16:05:40 UTC","email_lead":"compras@tdconstrutora.com.br","nome":"RITA DE CASSIA MARQUES"},"created_at":"2017-11-08T14:05:40.000-02:00","cumulative_sum":"2","source":"guia-medo-de-falar-em-publico","conversion_origin":{"source":"(direct)","medium":"(none)","value":null,"campaign":"(direct)","channel":"Direct"}},"custom_fields":{},"website":null,"personal_phone":null,"mobile_phone":null,"city":null,"state":null,"tags":null,"lead_stage":"Lead","last_marked_opportunity_date":null,"uuid":"efdab9a1-cf7e-4ebb-9137-be16169cb81c","fit_score":"d","interest":15}]}
--------------------
DATA: 2017-11-08 as 19:06:38
IP: 13.90.202.185
URL: www.methodus.com.br/facix2/_php/rdstation/webhook.php
REFERER: 
compras@tdconstrutora.com.br
--------------------
DATA: 2017-11-08 as 19:06:43
IP: 13.90.202.185
URL: www.methodus.com.br/facix2/_php/rdstation/webhook.php
REFERER: 
Observações: 
--------------------
DATA: 2017-11-08 as 19:36:21
IP: 13.90.202.185
URL: www.methodus.com.br/facix2/_php/rdstation/webhook.php
REFERER: 
{"leads":[{"id":"227329867","email":"valdemarxp@ig.com.br","name":"valdemar","company":null,"job_title":null,"bio":null,"public_url":"http://rdstation.com.br/leads/public/843bb0bf-a006-40ea-b192-8a5070ecc9bb","created_at":"2017-11-08T14:31:35.000-02:00","opportunity":"false","number_conversions":"2","user":null,"first_conversion":{"content":{"nome":"Valdemar","perfil":"","interesse":"Curso de Oratória","identificador":"investimento","created_at":"2017-11-08 16:31:35 UTC","email_lead":"valdemarxp@ig.com.br"},"created_at":"2017-11-08T14:31:35.000-02:00","cumulative_sum":"1","source":"investimento","conversion_origin":{"source":"unknown","medium":"unknown","value":null,"campaign":"unknown","channel":"Unknown"}},"last_conversion":{"content":{"identificador":"guia-medo-de-falar-em-publico","_rd_experiment_content_id":"","traffic_source":"encoded_eyJmaXJzdF9zZXNzaW9uIjp7InZhbHVlIjoiaHR0cHM6Ly93d3cuZ29vZ2xlLmNvbS5ici8iLCJleHRyYV9wYXJhbXMiOnt9fSwiY3VycmVudF9zZXNzaW9uIjp7InZhbHVlIjoiKG5vbmUpIiwiZXh0cmFfcGFyYW1zIjp7fX0sImNyZWF0ZWRfYXQiOjE1MTAxNTg3OTYzMDl9","created_at":"2017-11-08 16:34:18 UTC","email_lead":"valdemarxp@ig.com.br","nome":"valdemar"},"created_at":"2017-11-08T14:34:18.000-02:00","cumulative_sum":"2","source":"guia-medo-de-falar-em-publico","conversion_origin":{"source":"(direct)","medium":"(none)","value":null,"campaign":"(direct)","channel":"Direct"}},"custom_fields":{},"website":null,"personal_phone":null,"mobile_phone":null,"city":null,"state":null,"tags":null,"lead_stage":"Lead","last_marked_opportunity_date":null,"uuid":"843bb0bf-a006-40ea-b192-8a5070ecc9bb","fit_score":"d","interest":15}]}
--------------------
DATA: 2017-11-08 as 19:36:21
IP: 13.90.202.185
URL: www.methodus.com.br/facix2/_php/rdstation/webhook.php
REFERER: 
valdemarxp@ig.com.br
--------------------
DATA: 2017-11-08 as 19:36:25
IP: 13.90.202.185
URL: www.methodus.com.br/facix2/_php/rdstation/webhook.php
REFERER: 
Observações: 
--------------------
DATA: 2017-11-08 as 20:36:04
IP: 13.90.202.185
URL: www.methodus.com.br/facix2/_php/rdstation/webhook.php
REFERER: 
{"leads":[{"id":"208779794","email":"ro_pessoademoura@yahoo.com.br","name":"Rosângela Pessoa","company":null,"job_title":null,"bio":null,"public_url":"http://rdstation.com.br/leads/public/5864f9cc-503c-4bde-8384-a74ed49e1b06","created_at":"2017-09-22T21:12:31.000-03:00","opportunity":"false","number_conversions":"2","user":null,"first_conversion":{"content":{"nome":"Rosângela Pessoa","perfil":"","interesse":"Curso de Oratória","identificador":"investimento","created_at":"2017-09-23 00:12:31 UTC","email_lead":"ro_pessoademoura@yahoo.com.br"},"created_at":"2017-09-22T21:12:31.000-03:00","cumulative_sum":"1","source":"investimento","conversion_origin":{"source":"unknown","medium":"unknown","value":null,"campaign":"unknown","channel":"Unknown"}},"last_conversion":{"content":{"identificador":"guia-medo-de-falar-em-publico","_rd_experiment_content_id":"","traffic_source":"encoded_eyJmaXJzdF9zZXNzaW9uIjp7InZhbHVlIjoiSUQ9NSZ1dG1fY2FtcGFpZ249b3JhdG9yaWFfLV9jYW1wYW5oYV9ub3ZlbWJyb18yMDE3XzImdXRtX21lZGl1bT1lbWFpbCZ1dG1fc291cmNlPVJEK1N0YXRpb24iLCJleHRyYV9wYXJhbXMiOnt9fSwiY3VycmVudF9zZXNzaW9uIjp7InZhbHVlIjoidXRtX2NhbXBhaWduPW9yYXRvcmlhXzVfZS1tYWlsX3Bvc192ZXJfaW52ZXN0aW1lbnRvX2UtYm9va19ndWlhX21lZG9fZGVfZmFsYXJfZW1fcHVibGljbyZ1dG1fbWVkaXVtPWVtYWlsJnV0bV9zb3VyY2U9UkQrU3RhdGlvbiIsImV4dHJhX3BhcmFtcyI6e319LCJjcmVhdGVkX2F0IjoxNTEwMTYyNTEwODQ3fQ==","utm_medium":"email","utm_source":"RD Station","created_at":"2017-11-08 17:35:25 UTC","email_lead":"ro_pessoademoura@yahoo.com.br","nome":"Rosângela Pessoa"},"created_at":"2017-11-08T15:35:25.000-02:00","cumulative_sum":"2","source":"guia-medo-de-falar-em-publico","conversion_origin":{"source":"RD+Station","medium":"email","value":null,"campaign":"oratoria_5_e-mail_pos_ver_investimento_e-book_guia_medo_de_falar_em_publico","channel":"Email"}},"custom_fields":{},"website":null,"personal_phone":null,"mobile_phone":null,"city":null,"state":null,"tags":null,"lead_stage":"Lead","last_marked_opportunity_date":null,"uuid":"5864f9cc-503c-4bde-8384-a74ed49e1b06","fit_score":"d","interest":15}]}
--------------------
DATA: 2017-11-08 as 20:36:04
IP: 13.90.202.185
URL: www.methodus.com.br/facix2/_php/rdstation/webhook.php
REFERER: 
ro_pessoademoura@yahoo.com.br
--------------------
DATA: 2017-11-08 as 20:36:08
IP: 13.90.202.185
URL: www.methodus.com.br/facix2/_php/rdstation/webhook.php
REFERER: 
Observações: 
--------------------