
DATA: 2018-10-05 as 17:39:16
IP: 35.236.228.43
URL: www.methodus.com.br/facix2/_php/rdstation/webhook.php
REFERER: 
{"leads":[{"id":"341746922","email":"eng.producaoangelo@gmail.com","name":"josé angelo","company":null,"job_title":null,"bio":null,"public_url":"http://rdstation.com.br/leads/public/b7dd7d7c-18bd-4fd0-b16e-dcb6a699354a","created_at":"2018-07-11T15:24:51.000-03:00","opportunity":"false","number_conversions":"17","user":null,"first_conversion":{"content":{"nome":"josé angelo","perfil":"","Interesse":"Curso de Oratória","identificador":"ebook_medo_falar","interesse":"Curso de Oratória","created_at":"2018-07-11 18:24:51 UTC","email_lead":"eng.producaoangelo@gmail.com"},"created_at":"2018-07-11T15:24:51.000-03:00","cumulative_sum":"1","source":"ebook_medo_falar","conversion_origin":{"source":"unknown","medium":"unknown","value":null,"campaign":"unknown","channel":"Unknown"}},"last_conversion":{"content":{"nome":"josé angelo","perfil":"","Interesse":"Curso de Leitura Dinâmica e Memorização","identificador":"ebook_7_teses_leitura","interesse":"Curso de Leitura Dinâmica e Memorização","created_at":"2018-10-05 14:37:28 UTC","email_lead":"eng.producaoangelo@gmail.com"},"created_at":"2018-10-05T11:37:28.000-03:00","cumulative_sum":"17","source":"ebook_7_teses_leitura","conversion_origin":{"source":"unknown","medium":"unknown","value":null,"campaign":"unknown","channel":"Unknown"}},"custom_fields":{"Interesse":"Curso de Leitura Dinâmica e Memorização"},"website":null,"personal_phone":null,"mobile_phone":null,"city":null,"state":null,"tags":null,"lead_stage":"Lead","last_marked_opportunity_date":null,"uuid":"b7dd7d7c-18bd-4fd0-b16e-dcb6a699354a","fit_score":"d","interest":75}]}
--------------------
DATA: 2018-10-05 as 17:39:16
IP: 35.236.228.43
URL: www.methodus.com.br/facix2/_php/rdstation/webhook.php
REFERER: 
eng.producaoangelo@gmail.com
--------------------
DATA: 2018-10-05 as 17:39:19
IP: 35.236.228.43
URL: www.methodus.com.br/facix2/_php/rdstation/webhook.php
REFERER: 
Observações:  / Interesse: Curso de Leitura Dinâmica e Memorização
--------------------