
DATA: 2019-09-12 as 00:35:46
IP: 34.70.237.198
URL: www.methodus.com.br/facix2/_php/rdstation/webhook.php
REFERER: 
{"leads":[{"id":"645055409","email":"fasolo.web@gmail.com","name":"Fah","company":null,"job_title":null,"bio":null,"public_url":"http://rdstation.com.br/leads/public/a99261df-ced2-468f-9ab5-8da7418f4568","created_at":"2019-09-04T22:40:00.217-03:00","opportunity":"false","number_conversions":"4","user":null,"first_conversion":{"content":{"identificador":"form_ebook","traffic_source":"encoded_eyJmaXJzdF9zZXNzaW9uIjp7InZhbHVlIjoiaHR0cHM6Ly93d3cuZ29vZ2xlLmNvbS8iLCJleHRyYV9wYXJhbXMiOnt9fSwiY3VycmVudF9zZXNzaW9uIjp7InZhbHVlIjoiaHR0cHM6Ly93d3cuZ29vZ2xlLmNvbS8iLCJleHRyYV9wYXJhbXMiOnt9fSwiY3JlYXRlZF9hdCI6MTU2NzY0NzU3NzEzMH0=","destino":"https://d335luupugsy2.cloudfront.net/cms%2Ffiles%2F16878%2F14661812711+Guia+Medo+falar+em+p%C3%BAblico+%28ebook%29.pdf","a":"aluno","metodo":"cadastro","origem":"Ebook_Medo_Falar","curso":"5","nome":"Fasolo","form_url":"https://www.methodus.com.br/oratoria/5-curso.html","page_title":"CURSO DE ORATÓRIA - Como falar em público bem e fazer apresentação","email_lead":"fasolo.web@gmail.com"},"created_at":"2019-09-04T22:40:00.295-03:00","cumulative_sum":"1","source":"form_ebook","conversion_origin":{"source":"Google","medium":"organic","value":null,"campaign":null,"channel":"Organic Search"}},"last_conversion":{"content":{"identificador":"guia-medo-de-falar-em-publico","_rd_experiment_content_id":"","traffic_source":"encoded_eyJmaXJzdF9zZXNzaW9uIjp7InZhbHVlIjoiaHR0cHM6Ly93d3cuZ29vZ2xlLmNvbS8iLCJleHRyYV9wYXJhbXMiOnt9fSwiY3VycmVudF9zZXNzaW9uIjp7InZhbHVlIjoiaHR0cHM6Ly93d3cuZ29vZ2xlLmNvbS8iLCJleHRyYV9wYXJhbXMiOnt9fSwiY3JlYXRlZF9hdCI6MTU2NzY0NzU3NzEzMH0=","created_at":"2019-09-05T01:40:52.464354Z","ip":"104.91.167.69","email_lead":"fasolo.web@gmail.com","Nome":"Fah"},"created_at":"2019-09-04T22:40:52.464-03:00","cumulative_sum":"4","source":"guia-medo-de-falar-em-publico","conversion_origin":{"source":"Google","medium":"organic","value":null,"campaign":null,"channel":"Organic Search"}},"custom_fields":{"Interesse":"Curso de Oratória"},"website":null,"personal_phone":null,"mobile_phone":null,"city":null,"state":null,"tags":null,"lead_stage":"Lead","last_marked_opportunity_date":null,"uuid":"a99261df-ced2-468f-9ab5-8da7418f4568","fit_score":"d","interest":15}]}
--------------------
DATA: 2019-09-12 as 00:35:46
IP: 34.70.237.198
URL: www.methodus.com.br/facix2/_php/rdstation/webhook.php
REFERER: 
fasolo.web@gmail.com
--------------------
DATA: 2019-09-12 as 00:35:53
IP: 34.70.237.198
URL: www.methodus.com.br/facix2/_php/rdstation/webhook.php
REFERER: 
Observações:  / Interesse: Curso de Oratória
--------------------
DATA: 2019-09-12 as 02:39:54
IP: 35.188.7.117
URL: www.methodus.com.br/facix2/_php/rdstation/webhook.php
REFERER: 
{"leads":[{"id":"649583127","email":"carolinalperez@outlook.com","name":"Carolina Lopes Perez","company":null,"job_title":null,"bio":null,"public_url":"http://rdstation.com.br/leads/public/8b7692d2-b80a-4ae4-9b3f-0ba481fc23f4","created_at":"2019-09-10T13:20:11.638-03:00","opportunity":"false","number_conversions":"5","user":null,"first_conversion":{"content":{"identificador":"guia-medo-de-falar-em-publico","_rd_experiment_content_id":"","traffic_source":"encoded_eyJmaXJzdF9zZXNzaW9uIjp7InZhbHVlIjoiaHR0cHM6Ly93d3cuZ29vZ2xlLmNvbS8iLCJleHRyYV9wYXJhbXMiOnt9fSwiY3VycmVudF9zZXNzaW9uIjp7InZhbHVlIjoiaHR0cHM6Ly93d3cubWV0aG9kdXMuY29tLmJyL29yYXRvcmlhLzUtY3Vyc28uaHRtbCIsImV4dHJhX3BhcmFtcyI6e319LCJjcmVhdGVkX2F0IjoxNTY4MTMyMTI1MzcwfQ==","created_at":"2019-09-10T16:20:11.638953Z","ip":"23.56.175.141","email_lead":"carolinalperez@outlook.com","Nome":"Carolina Lopes Perez"},"created_at":"2019-09-10T13:20:11.638-03:00","cumulative_sum":"1","source":"guia-medo-de-falar-em-publico","conversion_origin":{"source":"methodus.com.br","medium":"referral","value":null,"campaign":"(referral)","channel":"Referral"}},"last_conversion":{"content":{"identificador":"testes_form","traffic_source":"encoded_eyJmaXJzdF9zZXNzaW9uIjp7InZhbHVlIjoiaHR0cHM6Ly93d3cuZ29vZ2xlLmNvbS8iLCJleHRyYV9wYXJhbXMiOnt9fSwiY3VycmVudF9zZXNzaW9uIjp7InZhbHVlIjoiaHR0cHM6Ly93d3cubWV0aG9kdXMuY29tLmJyL29yYXRvcmlhLzUtY3Vyc28uaHRtbCIsImV4dHJhX3BhcmFtcyI6e319LCJjcmVhdGVkX2F0IjoxNTY4MTMyMjM1ODQ2fQ==","a":"aluno","metodo":"cadastro","origem":"Testes","curso":"4","nome":"Carolina Lopes Perez","form_url":"https://www.methodus.com.br/testes.html","page_title":"Methodus - Leitura dinâmica, Administração do tempo e Oratória","email_lead":"carolinalperez@outlook.com"},"created_at":"2019-09-10T13:22:21.266-03:00","cumulative_sum":"5","source":"testes_form","conversion_origin":{"source":"methodus.com.br","medium":"referral","value":null,"campaign":"(referral)","channel":"Referral"}},"custom_fields":{"Interesse":"Curso de Leitura Dinâmica e Memorização"},"website":null,"personal_phone":null,"mobile_phone":null,"city":null,"state":null,"tags":null,"lead_stage":"Lead","last_marked_opportunity_date":null,"uuid":"8b7692d2-b80a-4ae4-9b3f-0ba481fc23f4","fit_score":"d","interest":15}]}
--------------------
DATA: 2019-09-12 as 02:39:54
IP: 35.188.7.117
URL: www.methodus.com.br/facix2/_php/rdstation/webhook.php
REFERER: 
carolinalperez@outlook.com
--------------------
DATA: 2019-09-12 as 02:40:00
IP: 35.188.7.117
URL: www.methodus.com.br/facix2/_php/rdstation/webhook.php
REFERER: 
Observações:  / Interesse: Curso de Leitura Dinâmica e Memorização
--------------------
DATA: 2019-09-12 as 05:16:25
IP: 104.154.152.240
URL: www.methodus.com.br/facix2/_php/rdstation/webhook.php
REFERER: 
{"leads":[{"id":"648320315","email":"naorsales@hotmail.com","name":"Naor Sales","company":null,"job_title":null,"bio":null,"public_url":"http://rdstation.com.br/leads/public/9c823c3f-339d-45bc-b43f-beed67ef7f09","created_at":"2019-09-09T11:00:02.258-03:00","opportunity":"false","number_conversions":"1","user":null,"first_conversion":{"content":{"identificador":"guia-medo-de-falar-em-publico","_rd_experiment_content_id":"","traffic_source":"encoded_eyJmaXJzdF9zZXNzaW9uIjp7InZhbHVlIjoiaHR0cHM6Ly93d3cuZ29vZ2xlLmNvbS8iLCJleHRyYV9wYXJhbXMiOnt9fSwiY3VycmVudF9zZXNzaW9uIjp7InZhbHVlIjoiaHR0cHM6Ly93d3cuZ29vZ2xlLmNvbS8iLCJleHRyYV9wYXJhbXMiOnt9fSwiY3JlYXRlZF9hdCI6MTU2ODAzNzU4MTkxNX0=","created_at":"2019-09-09T14:00:02.258881Z","ip":"184.28.51.63","email_lead":"naorsales@hotmail.com","Nome":"Naor Sales"},"created_at":"2019-09-09T11:00:02.258-03:00","cumulative_sum":"1","source":"guia-medo-de-falar-em-publico","conversion_origin":{"source":"Google","medium":"organic","value":null,"campaign":null,"channel":"Organic Search"}},"last_conversion":{"content":{"identificador":"guia-medo-de-falar-em-publico","_rd_experiment_content_id":"","traffic_source":"encoded_eyJmaXJzdF9zZXNzaW9uIjp7InZhbHVlIjoiaHR0cHM6Ly93d3cuZ29vZ2xlLmNvbS8iLCJleHRyYV9wYXJhbXMiOnt9fSwiY3VycmVudF9zZXNzaW9uIjp7InZhbHVlIjoiaHR0cHM6Ly93d3cuZ29vZ2xlLmNvbS8iLCJleHRyYV9wYXJhbXMiOnt9fSwiY3JlYXRlZF9hdCI6MTU2ODAzNzU4MTkxNX0=","created_at":"2019-09-09T14:00:02.258881Z","ip":"184.28.51.63","email_lead":"naorsales@hotmail.com","Nome":"Naor Sales"},"created_at":"2019-09-09T11:00:02.258-03:00","cumulative_sum":"1","source":"guia-medo-de-falar-em-publico","conversion_origin":{"source":"Google","medium":"organic","value":null,"campaign":null,"channel":"Organic Search"}},"custom_fields":{},"website":null,"personal_phone":null,"mobile_phone":null,"city":null,"state":null,"tags":null,"lead_stage":"Lead","last_marked_opportunity_date":null,"uuid":"9c823c3f-339d-45bc-b43f-beed67ef7f09","fit_score":"d","interest":15}]}
--------------------
DATA: 2019-09-12 as 05:16:25
IP: 104.154.152.240
URL: www.methodus.com.br/facix2/_php/rdstation/webhook.php
REFERER: 
naorsales@hotmail.com
--------------------
DATA: 2019-09-12 as 05:16:32
IP: 104.154.152.240
URL: www.methodus.com.br/facix2/_php/rdstation/webhook.php
REFERER: 
Observações: 
--------------------