
DATA: 2018-10-20 as 22:39:36
IP: 35.221.18.102
URL: www.methodus.com.br/facix2/_php/rdstation/webhook.php
REFERER: 
{"leads":[{"id":"406832734","email":"caio-amado@bol.com.br","name":"Caio Cesar Amado","company":null,"job_title":null,"bio":null,"public_url":"http://rdstation.com.br/leads/public/3cfdb9cb-efca-4eb4-a982-9eb4c4a3645f","created_at":"2018-10-20T16:39:21.000-03:00","opportunity":"false","number_conversions":"1","user":null,"first_conversion":{"content":{"identificador":"guia-medo-de-falar-em-publico","_rd_experiment_content_id":"","traffic_source":"encoded_eyJmaXJzdF9zZXNzaW9uIjp7InZhbHVlIjoiaHR0cHM6Ly93d3cuZ29vZ2xlLmNvbS5ici8iLCJleHRyYV9wYXJhbXMiOnt9fSwiY3VycmVudF9zZXNzaW9uIjp7InZhbHVlIjoiKG5vbmUpIiwiZXh0cmFfcGFyYW1zIjp7fX0sImNyZWF0ZWRfYXQiOjE1NDAwNjQyOTk0MjN9","created_at":"2018-10-20 19:39:21 UTC","ip":"177.139.35.26","email_lead":"caio-amado@bol.com.br","nome":"Caio Cesar Amado"},"created_at":"2018-10-20T16:39:21.000-03:00","cumulative_sum":"1","source":"guia-medo-de-falar-em-publico","conversion_origin":{"source":"(direct)","medium":"(none)","value":null,"campaign":"(direct)","channel":"Direct"}},"last_conversion":{"content":{"identificador":"guia-medo-de-falar-em-publico","_rd_experiment_content_id":"","traffic_source":"encoded_eyJmaXJzdF9zZXNzaW9uIjp7InZhbHVlIjoiaHR0cHM6Ly93d3cuZ29vZ2xlLmNvbS5ici8iLCJleHRyYV9wYXJhbXMiOnt9fSwiY3VycmVudF9zZXNzaW9uIjp7InZhbHVlIjoiKG5vbmUpIiwiZXh0cmFfcGFyYW1zIjp7fX0sImNyZWF0ZWRfYXQiOjE1NDAwNjQyOTk0MjN9","created_at":"2018-10-20 19:39:21 UTC","ip":"177.139.35.26","email_lead":"caio-amado@bol.com.br","nome":"Caio Cesar Amado"},"created_at":"2018-10-20T16:39:21.000-03:00","cumulative_sum":"1","source":"guia-medo-de-falar-em-publico","conversion_origin":{"source":"(direct)","medium":"(none)","value":null,"campaign":"(direct)","channel":"Direct"}},"custom_fields":{},"website":null,"personal_phone":null,"mobile_phone":null,"city":null,"state":null,"tags":null,"lead_stage":"Lead","last_marked_opportunity_date":null,"uuid":"3cfdb9cb-efca-4eb4-a982-9eb4c4a3645f","fit_score":"d","interest":0}]}
--------------------
DATA: 2018-10-20 as 22:39:36
IP: 35.221.18.102
URL: www.methodus.com.br/facix2/_php/rdstation/webhook.php
REFERER: 
caio-amado@bol.com.br
--------------------
DATA: 2018-10-20 as 22:39:40
IP: 35.221.18.102
URL: www.methodus.com.br/facix2/_php/rdstation/webhook.php
REFERER: 
Observações: 
--------------------
DATA: 2018-10-20 as 22:40:25
IP: 35.221.18.102
URL: www.methodus.com.br/facix2/_php/rdstation/webhook.php
REFERER: 
{"leads":[{"id":"406832734","email":"caio-amado@bol.com.br","name":"Caio Cesar Amado","company":null,"job_title":null,"bio":null,"public_url":"http://rdstation.com.br/leads/public/3cfdb9cb-efca-4eb4-a982-9eb4c4a3645f","created_at":"2018-10-20T16:39:21.000-03:00","opportunity":"false","number_conversions":"1","user":null,"first_conversion":{"content":{"identificador":"guia-medo-de-falar-em-publico","_rd_experiment_content_id":"","traffic_source":"encoded_eyJmaXJzdF9zZXNzaW9uIjp7InZhbHVlIjoiaHR0cHM6Ly93d3cuZ29vZ2xlLmNvbS5ici8iLCJleHRyYV9wYXJhbXMiOnt9fSwiY3VycmVudF9zZXNzaW9uIjp7InZhbHVlIjoiKG5vbmUpIiwiZXh0cmFfcGFyYW1zIjp7fX0sImNyZWF0ZWRfYXQiOjE1NDAwNjQyOTk0MjN9","created_at":"2018-10-20 19:39:21 UTC","ip":"177.139.35.26","email_lead":"caio-amado@bol.com.br","nome":"Caio Cesar Amado"},"created_at":"2018-10-20T16:39:21.000-03:00","cumulative_sum":"1","source":"guia-medo-de-falar-em-publico","conversion_origin":{"source":"(direct)","medium":"(none)","value":null,"campaign":"(direct)","channel":"Direct"}},"last_conversion":{"content":{"identificador":"guia-medo-de-falar-em-publico","_rd_experiment_content_id":"","traffic_source":"encoded_eyJmaXJzdF9zZXNzaW9uIjp7InZhbHVlIjoiaHR0cHM6Ly93d3cuZ29vZ2xlLmNvbS5ici8iLCJleHRyYV9wYXJhbXMiOnt9fSwiY3VycmVudF9zZXNzaW9uIjp7InZhbHVlIjoiKG5vbmUpIiwiZXh0cmFfcGFyYW1zIjp7fX0sImNyZWF0ZWRfYXQiOjE1NDAwNjQyOTk0MjN9","created_at":"2018-10-20 19:39:21 UTC","ip":"177.139.35.26","email_lead":"caio-amado@bol.com.br","nome":"Caio Cesar Amado"},"created_at":"2018-10-20T16:39:21.000-03:00","cumulative_sum":"1","source":"guia-medo-de-falar-em-publico","conversion_origin":{"source":"(direct)","medium":"(none)","value":null,"campaign":"(direct)","channel":"Direct"}},"custom_fields":{},"website":null,"personal_phone":null,"mobile_phone":null,"city":null,"state":null,"tags":null,"lead_stage":"Lead","last_marked_opportunity_date":null,"uuid":"3cfdb9cb-efca-4eb4-a982-9eb4c4a3645f","fit_score":"d","interest":0}]}
--------------------
DATA: 2018-10-20 as 22:40:25
IP: 35.221.18.102
URL: www.methodus.com.br/facix2/_php/rdstation/webhook.php
REFERER: 
caio-amado@bol.com.br
--------------------
DATA: 2018-10-20 as 22:40:29
IP: 35.221.18.102
URL: www.methodus.com.br/facix2/_php/rdstation/webhook.php
REFERER: 
Observações: 
--------------------