
DATA: 2020-01-17 as 04:11:49
IP: 35.188.88.75
URL: www.methodus.com.br/facix2/_php/rdstation/webhook.php
REFERER: 
{"leads":[{"id":"776633078","email":"fffff@gmail.com","name":"fffffffffff","company":null,"job_title":null,"bio":null,"public_url":"http://rdstation.com.br/leads/public/3e7377b2-6e7c-477a-8b92-2435920a4b7e","created_at":"2020-01-16T22:11:37.452-03:00","opportunity":"false","number_conversions":"1","user":null,"first_conversion":{"content":{"identificador":"guia-medo-de-falar-em-publico","_rd_experiment_content_id":"","traffic_source":"encoded_eyJmaXJzdF9zZXNzaW9uIjp7InZhbHVlIjoiaHR0cHM6Ly93d3cuZ29vZ2xlLmNvbS8iLCJleHRyYV9wYXJhbXMiOnt9fSwiY3VycmVudF9zZXNzaW9uIjp7InZhbHVlIjoiaHR0cHM6Ly93d3cuZ29vZ2xlLmNvbS8iLCJleHRyYV9wYXJhbXMiOnt9fSwiY3JlYXRlZF9hdCI6MTU3OTIyMzQyNjk3NX0=","created_at":"2020-01-17T01:11:37.452151Z","ip":"191.243.204.179","email_lead":"fffff@gmail.com","Nome":"fffffffffff"},"created_at":"2020-01-16T22:11:37.452-03:00","cumulative_sum":"1","source":"guia-medo-de-falar-em-publico","conversion_origin":{"source":"Google","medium":"organic","value":null,"campaign":null,"channel":"Organic Search"}},"last_conversion":{"content":{"identificador":"guia-medo-de-falar-em-publico","_rd_experiment_content_id":"","traffic_source":"encoded_eyJmaXJzdF9zZXNzaW9uIjp7InZhbHVlIjoiaHR0cHM6Ly93d3cuZ29vZ2xlLmNvbS8iLCJleHRyYV9wYXJhbXMiOnt9fSwiY3VycmVudF9zZXNzaW9uIjp7InZhbHVlIjoiaHR0cHM6Ly93d3cuZ29vZ2xlLmNvbS8iLCJleHRyYV9wYXJhbXMiOnt9fSwiY3JlYXRlZF9hdCI6MTU3OTIyMzQyNjk3NX0=","created_at":"2020-01-17T01:11:37.452151Z","ip":"191.243.204.179","email_lead":"fffff@gmail.com","Nome":"fffffffffff"},"created_at":"2020-01-16T22:11:37.452-03:00","cumulative_sum":"1","source":"guia-medo-de-falar-em-publico","conversion_origin":{"source":"Google","medium":"organic","value":null,"campaign":null,"channel":"Organic Search"}},"custom_fields":{},"website":null,"personal_phone":null,"mobile_phone":null,"city":null,"state":null,"tags":null,"lead_stage":"Lead","last_marked_opportunity_date":null,"uuid":"3e7377b2-6e7c-477a-8b92-2435920a4b7e","fit_score":"d","interest":0}]}
--------------------
DATA: 2020-01-17 as 04:11:49
IP: 35.188.88.75
URL: www.methodus.com.br/facix2/_php/rdstation/webhook.php
REFERER: 
fffff@gmail.com
--------------------
DATA: 2020-01-17 as 04:11:55
IP: 35.188.88.75
URL: www.methodus.com.br/facix2/_php/rdstation/webhook.php
REFERER: 
Observações: 
--------------------
DATA: 2020-01-17 as 05:08:26
IP: 35.202.129.238
URL: www.methodus.com.br/facix2/_php/rdstation/webhook.php
REFERER: 
{"leads":[{"id":"776633078","email":"fffff@gmail.com","name":"fffffffffff","company":null,"job_title":null,"bio":null,"public_url":"http://rdstation.com.br/leads/public/3e7377b2-6e7c-477a-8b92-2435920a4b7e","created_at":"2020-01-16T22:11:37.452-03:00","opportunity":"false","number_conversions":"2","user":null,"first_conversion":{"content":{"identificador":"guia-medo-de-falar-em-publico","_rd_experiment_content_id":"","traffic_source":"encoded_eyJmaXJzdF9zZXNzaW9uIjp7InZhbHVlIjoiaHR0cHM6Ly93d3cuZ29vZ2xlLmNvbS8iLCJleHRyYV9wYXJhbXMiOnt9fSwiY3VycmVudF9zZXNzaW9uIjp7InZhbHVlIjoiaHR0cHM6Ly93d3cuZ29vZ2xlLmNvbS8iLCJleHRyYV9wYXJhbXMiOnt9fSwiY3JlYXRlZF9hdCI6MTU3OTIyMzQyNjk3NX0=","created_at":"2020-01-17T01:11:37.452151Z","ip":"191.243.204.179","email_lead":"fffff@gmail.com","Nome":"fffffffffff"},"created_at":"2020-01-16T22:11:37.452-03:00","cumulative_sum":"1","source":"guia-medo-de-falar-em-publico","conversion_origin":{"source":"Google","medium":"organic","value":null,"campaign":null,"channel":"Organic Search"}},"last_conversion":{"content":{"identificador":"5-fatores-estrategicos-de-persuasao-landingpage","_rd_experiment_content_id":"","traffic_source":"encoded_eyJmaXJzdF9zZXNzaW9uIjp7InZhbHVlIjoiaHR0cHM6Ly93d3cuZ29vZ2xlLmNvbS8iLCJleHRyYV9wYXJhbXMiOnt9fSwiY3VycmVudF9zZXNzaW9uIjp7InZhbHVlIjoiaHR0cHM6Ly93d3cuZ29vZ2xlLmNvbS8iLCJleHRyYV9wYXJhbXMiOnt9fSwiY3JlYXRlZF9hdCI6MTU3OTIyMzQyNjk3NX0=","created_at":"2020-01-17T01:12:44.702913Z","ip":"191.243.204.179","email_lead":"fffff@gmail.com","Nome":"fffffffffff"},"created_at":"2020-01-16T22:12:44.702-03:00","cumulative_sum":"2","source":"5-fatores-estrategicos-de-persuasao-landingpage","conversion_origin":{"source":"Google","medium":"organic","value":null,"campaign":null,"channel":"Organic Search"}},"custom_fields":{},"website":null,"personal_phone":null,"mobile_phone":null,"city":null,"state":null,"tags":null,"lead_stage":"Lead","last_marked_opportunity_date":null,"uuid":"3e7377b2-6e7c-477a-8b92-2435920a4b7e","fit_score":"d","interest":30}]}
--------------------
DATA: 2020-01-17 as 05:08:26
IP: 35.202.129.238
URL: www.methodus.com.br/facix2/_php/rdstation/webhook.php
REFERER: 
fffff@gmail.com
--------------------
DATA: 2020-01-17 as 05:08:32
IP: 35.202.129.238
URL: www.methodus.com.br/facix2/_php/rdstation/webhook.php
REFERER: 
Observações: 
--------------------
DATA: 2020-01-17 as 06:01:32
IP: 35.202.129.238
URL: www.methodus.com.br/facix2/_php/rdstation/webhook.php
REFERER: 
{"leads":[{"id":"776633078","email":"fffff@gmail.com","name":"fffffffffff","company":null,"job_title":null,"bio":null,"public_url":"http://rdstation.com.br/leads/public/3e7377b2-6e7c-477a-8b92-2435920a4b7e","created_at":"2020-01-16T22:11:37.452-03:00","opportunity":"false","number_conversions":"2","user":null,"first_conversion":{"content":{"identificador":"guia-medo-de-falar-em-publico","_rd_experiment_content_id":"","traffic_source":"encoded_eyJmaXJzdF9zZXNzaW9uIjp7InZhbHVlIjoiaHR0cHM6Ly93d3cuZ29vZ2xlLmNvbS8iLCJleHRyYV9wYXJhbXMiOnt9fSwiY3VycmVudF9zZXNzaW9uIjp7InZhbHVlIjoiaHR0cHM6Ly93d3cuZ29vZ2xlLmNvbS8iLCJleHRyYV9wYXJhbXMiOnt9fSwiY3JlYXRlZF9hdCI6MTU3OTIyMzQyNjk3NX0=","created_at":"2020-01-17T01:11:37.452151Z","ip":"191.243.204.179","email_lead":"fffff@gmail.com","Nome":"fffffffffff"},"created_at":"2020-01-16T22:11:37.452-03:00","cumulative_sum":"1","source":"guia-medo-de-falar-em-publico","conversion_origin":{"source":"Google","medium":"organic","value":null,"campaign":null,"channel":"Organic Search"}},"last_conversion":{"content":{"identificador":"5-fatores-estrategicos-de-persuasao-landingpage","_rd_experiment_content_id":"","traffic_source":"encoded_eyJmaXJzdF9zZXNzaW9uIjp7InZhbHVlIjoiaHR0cHM6Ly93d3cuZ29vZ2xlLmNvbS8iLCJleHRyYV9wYXJhbXMiOnt9fSwiY3VycmVudF9zZXNzaW9uIjp7InZhbHVlIjoiaHR0cHM6Ly93d3cuZ29vZ2xlLmNvbS8iLCJleHRyYV9wYXJhbXMiOnt9fSwiY3JlYXRlZF9hdCI6MTU3OTIyMzQyNjk3NX0=","created_at":"2020-01-17T01:12:44.702913Z","ip":"191.243.204.179","email_lead":"fffff@gmail.com","Nome":"fffffffffff"},"created_at":"2020-01-16T22:12:44.702-03:00","cumulative_sum":"2","source":"5-fatores-estrategicos-de-persuasao-landingpage","conversion_origin":{"source":"Google","medium":"organic","value":null,"campaign":null,"channel":"Organic Search"}},"custom_fields":{},"website":null,"personal_phone":null,"mobile_phone":null,"city":null,"state":null,"tags":null,"lead_stage":"Lead","last_marked_opportunity_date":null,"uuid":"3e7377b2-6e7c-477a-8b92-2435920a4b7e","fit_score":"d","interest":30}]}
--------------------
DATA: 2020-01-17 as 06:01:32
IP: 35.202.129.238
URL: www.methodus.com.br/facix2/_php/rdstation/webhook.php
REFERER: 
fffff@gmail.com
--------------------
DATA: 2020-01-17 as 06:01:39
IP: 35.202.129.238
URL: www.methodus.com.br/facix2/_php/rdstation/webhook.php
REFERER: 
Observações: 
--------------------
DATA: 2020-01-17 as 06:48:16
IP: 34.70.164.7
URL: www.methodus.com.br/facix2/_php/rdstation/webhook.php
REFERER: 
{"leads":[{"id":"776633078","email":"fffff@gmail.com","name":"fffffffffff","company":null,"job_title":null,"bio":null,"public_url":"http://rdstation.com.br/leads/public/3e7377b2-6e7c-477a-8b92-2435920a4b7e","created_at":"2020-01-16T22:11:37.452-03:00","opportunity":"false","number_conversions":"2","user":null,"first_conversion":{"content":{"identificador":"guia-medo-de-falar-em-publico","_rd_experiment_content_id":"","traffic_source":"encoded_eyJmaXJzdF9zZXNzaW9uIjp7InZhbHVlIjoiaHR0cHM6Ly93d3cuZ29vZ2xlLmNvbS8iLCJleHRyYV9wYXJhbXMiOnt9fSwiY3VycmVudF9zZXNzaW9uIjp7InZhbHVlIjoiaHR0cHM6Ly93d3cuZ29vZ2xlLmNvbS8iLCJleHRyYV9wYXJhbXMiOnt9fSwiY3JlYXRlZF9hdCI6MTU3OTIyMzQyNjk3NX0=","created_at":"2020-01-17T01:11:37.452151Z","ip":"191.243.204.179","email_lead":"fffff@gmail.com","Nome":"fffffffffff"},"created_at":"2020-01-16T22:11:37.452-03:00","cumulative_sum":"1","source":"guia-medo-de-falar-em-publico","conversion_origin":{"source":"Google","medium":"organic","value":null,"campaign":null,"channel":"Organic Search"}},"last_conversion":{"content":{"identificador":"5-fatores-estrategicos-de-persuasao-landingpage","_rd_experiment_content_id":"","traffic_source":"encoded_eyJmaXJzdF9zZXNzaW9uIjp7InZhbHVlIjoiaHR0cHM6Ly93d3cuZ29vZ2xlLmNvbS8iLCJleHRyYV9wYXJhbXMiOnt9fSwiY3VycmVudF9zZXNzaW9uIjp7InZhbHVlIjoiaHR0cHM6Ly93d3cuZ29vZ2xlLmNvbS8iLCJleHRyYV9wYXJhbXMiOnt9fSwiY3JlYXRlZF9hdCI6MTU3OTIyMzQyNjk3NX0=","created_at":"2020-01-17T01:12:44.702913Z","ip":"191.243.204.179","email_lead":"fffff@gmail.com","Nome":"fffffffffff"},"created_at":"2020-01-16T22:12:44.702-03:00","cumulative_sum":"2","source":"5-fatores-estrategicos-de-persuasao-landingpage","conversion_origin":{"source":"Google","medium":"organic","value":null,"campaign":null,"channel":"Organic Search"}},"custom_fields":{},"website":null,"personal_phone":null,"mobile_phone":null,"city":null,"state":null,"tags":null,"lead_stage":"Lead","last_marked_opportunity_date":null,"uuid":"3e7377b2-6e7c-477a-8b92-2435920a4b7e","fit_score":"d","interest":30}]}
--------------------
DATA: 2020-01-17 as 06:48:16
IP: 34.70.164.7
URL: www.methodus.com.br/facix2/_php/rdstation/webhook.php
REFERER: 
fffff@gmail.com
--------------------
DATA: 2020-01-17 as 06:48:22
IP: 34.70.164.7
URL: www.methodus.com.br/facix2/_php/rdstation/webhook.php
REFERER: 
Observações: 
--------------------
DATA: 2020-01-17 as 07:27:33
IP: 35.202.129.238
URL: www.methodus.com.br/facix2/_php/rdstation/webhook.php
REFERER: 
{"leads":[{"id":"776633078","email":"fffff@gmail.com","name":"fffffffffff","company":null,"job_title":null,"bio":null,"public_url":"http://rdstation.com.br/leads/public/3e7377b2-6e7c-477a-8b92-2435920a4b7e","created_at":"2020-01-16T22:11:37.452-03:00","opportunity":"false","number_conversions":"2","user":null,"first_conversion":{"content":{"identificador":"guia-medo-de-falar-em-publico","_rd_experiment_content_id":"","traffic_source":"encoded_eyJmaXJzdF9zZXNzaW9uIjp7InZhbHVlIjoiaHR0cHM6Ly93d3cuZ29vZ2xlLmNvbS8iLCJleHRyYV9wYXJhbXMiOnt9fSwiY3VycmVudF9zZXNzaW9uIjp7InZhbHVlIjoiaHR0cHM6Ly93d3cuZ29vZ2xlLmNvbS8iLCJleHRyYV9wYXJhbXMiOnt9fSwiY3JlYXRlZF9hdCI6MTU3OTIyMzQyNjk3NX0=","created_at":"2020-01-17T01:11:37.452151Z","ip":"191.243.204.179","email_lead":"fffff@gmail.com","Nome":"fffffffffff"},"created_at":"2020-01-16T22:11:37.452-03:00","cumulative_sum":"1","source":"guia-medo-de-falar-em-publico","conversion_origin":{"source":"Google","medium":"organic","value":null,"campaign":null,"channel":"Organic Search"}},"last_conversion":{"content":{"identificador":"5-fatores-estrategicos-de-persuasao-landingpage","_rd_experiment_content_id":"","traffic_source":"encoded_eyJmaXJzdF9zZXNzaW9uIjp7InZhbHVlIjoiaHR0cHM6Ly93d3cuZ29vZ2xlLmNvbS8iLCJleHRyYV9wYXJhbXMiOnt9fSwiY3VycmVudF9zZXNzaW9uIjp7InZhbHVlIjoiaHR0cHM6Ly93d3cuZ29vZ2xlLmNvbS8iLCJleHRyYV9wYXJhbXMiOnt9fSwiY3JlYXRlZF9hdCI6MTU3OTIyMzQyNjk3NX0=","created_at":"2020-01-17T01:12:44.702913Z","ip":"191.243.204.179","email_lead":"fffff@gmail.com","Nome":"fffffffffff"},"created_at":"2020-01-16T22:12:44.702-03:00","cumulative_sum":"2","source":"5-fatores-estrategicos-de-persuasao-landingpage","conversion_origin":{"source":"Google","medium":"organic","value":null,"campaign":null,"channel":"Organic Search"}},"custom_fields":{},"website":null,"personal_phone":null,"mobile_phone":null,"city":null,"state":null,"tags":null,"lead_stage":"Lead","last_marked_opportunity_date":null,"uuid":"3e7377b2-6e7c-477a-8b92-2435920a4b7e","fit_score":"d","interest":30}]}
--------------------
DATA: 2020-01-17 as 07:27:33
IP: 35.202.129.238
URL: www.methodus.com.br/facix2/_php/rdstation/webhook.php
REFERER: 
fffff@gmail.com
--------------------
DATA: 2020-01-17 as 07:27:36
IP: 35.202.129.238
URL: www.methodus.com.br/facix2/_php/rdstation/webhook.php
REFERER: 
Observações: 
--------------------
DATA: 2020-01-17 as 08:01:09
IP: 34.70.164.7
URL: www.methodus.com.br/facix2/_php/rdstation/webhook.php
REFERER: 
{"leads":[{"id":"776633078","email":"fffff@gmail.com","name":"fffffffffff","company":null,"job_title":null,"bio":null,"public_url":"http://rdstation.com.br/leads/public/3e7377b2-6e7c-477a-8b92-2435920a4b7e","created_at":"2020-01-16T22:11:37.452-03:00","opportunity":"false","number_conversions":"2","user":null,"first_conversion":{"content":{"identificador":"guia-medo-de-falar-em-publico","_rd_experiment_content_id":"","traffic_source":"encoded_eyJmaXJzdF9zZXNzaW9uIjp7InZhbHVlIjoiaHR0cHM6Ly93d3cuZ29vZ2xlLmNvbS8iLCJleHRyYV9wYXJhbXMiOnt9fSwiY3VycmVudF9zZXNzaW9uIjp7InZhbHVlIjoiaHR0cHM6Ly93d3cuZ29vZ2xlLmNvbS8iLCJleHRyYV9wYXJhbXMiOnt9fSwiY3JlYXRlZF9hdCI6MTU3OTIyMzQyNjk3NX0=","created_at":"2020-01-17T01:11:37.452151Z","ip":"191.243.204.179","email_lead":"fffff@gmail.com","Nome":"fffffffffff"},"created_at":"2020-01-16T22:11:37.452-03:00","cumulative_sum":"1","source":"guia-medo-de-falar-em-publico","conversion_origin":{"source":"Google","medium":"organic","value":null,"campaign":null,"channel":"Organic Search"}},"last_conversion":{"content":{"identificador":"5-fatores-estrategicos-de-persuasao-landingpage","_rd_experiment_content_id":"","traffic_source":"encoded_eyJmaXJzdF9zZXNzaW9uIjp7InZhbHVlIjoiaHR0cHM6Ly93d3cuZ29vZ2xlLmNvbS8iLCJleHRyYV9wYXJhbXMiOnt9fSwiY3VycmVudF9zZXNzaW9uIjp7InZhbHVlIjoiaHR0cHM6Ly93d3cuZ29vZ2xlLmNvbS8iLCJleHRyYV9wYXJhbXMiOnt9fSwiY3JlYXRlZF9hdCI6MTU3OTIyMzQyNjk3NX0=","created_at":"2020-01-17T01:12:44.702913Z","ip":"191.243.204.179","email_lead":"fffff@gmail.com","Nome":"fffffffffff"},"created_at":"2020-01-16T22:12:44.702-03:00","cumulative_sum":"2","source":"5-fatores-estrategicos-de-persuasao-landingpage","conversion_origin":{"source":"Google","medium":"organic","value":null,"campaign":null,"channel":"Organic Search"}},"custom_fields":{},"website":null,"personal_phone":null,"mobile_phone":null,"city":null,"state":null,"tags":null,"lead_stage":"Lead","last_marked_opportunity_date":null,"uuid":"3e7377b2-6e7c-477a-8b92-2435920a4b7e","fit_score":"d","interest":30}]}
--------------------
DATA: 2020-01-17 as 08:01:09
IP: 34.70.164.7
URL: www.methodus.com.br/facix2/_php/rdstation/webhook.php
REFERER: 
fffff@gmail.com
--------------------
DATA: 2020-01-17 as 08:01:15
IP: 34.70.164.7
URL: www.methodus.com.br/facix2/_php/rdstation/webhook.php
REFERER: 
Observações: 
--------------------
DATA: 2020-01-17 as 08:27:39
IP: 35.239.128.187
URL: www.methodus.com.br/facix2/_php/rdstation/webhook.php
REFERER: 
{"leads":[{"id":"776633078","email":"fffff@gmail.com","name":"fffffffffff","company":null,"job_title":null,"bio":null,"public_url":"http://rdstation.com.br/leads/public/3e7377b2-6e7c-477a-8b92-2435920a4b7e","created_at":"2020-01-16T22:11:37.452-03:00","opportunity":"false","number_conversions":"2","user":null,"first_conversion":{"content":{"identificador":"guia-medo-de-falar-em-publico","_rd_experiment_content_id":"","traffic_source":"encoded_eyJmaXJzdF9zZXNzaW9uIjp7InZhbHVlIjoiaHR0cHM6Ly93d3cuZ29vZ2xlLmNvbS8iLCJleHRyYV9wYXJhbXMiOnt9fSwiY3VycmVudF9zZXNzaW9uIjp7InZhbHVlIjoiaHR0cHM6Ly93d3cuZ29vZ2xlLmNvbS8iLCJleHRyYV9wYXJhbXMiOnt9fSwiY3JlYXRlZF9hdCI6MTU3OTIyMzQyNjk3NX0=","created_at":"2020-01-17T01:11:37.452151Z","ip":"191.243.204.179","email_lead":"fffff@gmail.com","Nome":"fffffffffff"},"created_at":"2020-01-16T22:11:37.452-03:00","cumulative_sum":"1","source":"guia-medo-de-falar-em-publico","conversion_origin":{"source":"Google","medium":"organic","value":null,"campaign":null,"channel":"Organic Search"}},"last_conversion":{"content":{"identificador":"5-fatores-estrategicos-de-persuasao-landingpage","_rd_experiment_content_id":"","traffic_source":"encoded_eyJmaXJzdF9zZXNzaW9uIjp7InZhbHVlIjoiaHR0cHM6Ly93d3cuZ29vZ2xlLmNvbS8iLCJleHRyYV9wYXJhbXMiOnt9fSwiY3VycmVudF9zZXNzaW9uIjp7InZhbHVlIjoiaHR0cHM6Ly93d3cuZ29vZ2xlLmNvbS8iLCJleHRyYV9wYXJhbXMiOnt9fSwiY3JlYXRlZF9hdCI6MTU3OTIyMzQyNjk3NX0=","created_at":"2020-01-17T01:12:44.702913Z","ip":"191.243.204.179","email_lead":"fffff@gmail.com","Nome":"fffffffffff"},"created_at":"2020-01-16T22:12:44.702-03:00","cumulative_sum":"2","source":"5-fatores-estrategicos-de-persuasao-landingpage","conversion_origin":{"source":"Google","medium":"organic","value":null,"campaign":null,"channel":"Organic Search"}},"custom_fields":{},"website":null,"personal_phone":null,"mobile_phone":null,"city":null,"state":null,"tags":null,"lead_stage":"Lead","last_marked_opportunity_date":null,"uuid":"3e7377b2-6e7c-477a-8b92-2435920a4b7e","fit_score":"d","interest":30}]}
--------------------
DATA: 2020-01-17 as 08:27:39
IP: 35.239.128.187
URL: www.methodus.com.br/facix2/_php/rdstation/webhook.php
REFERER: 
fffff@gmail.com
--------------------
DATA: 2020-01-17 as 08:27:45
IP: 35.239.128.187
URL: www.methodus.com.br/facix2/_php/rdstation/webhook.php
REFERER: 
Observações: 
--------------------