
DATA: 2019-01-12 as 05:28:43
IP: 35.221.26.100
URL: www.methodus.com.br/facix2/_php/rdstation/webhook.php
REFERER: 
{"leads":[{"id":"456217555","email":"contatoml@live.com","name":"David","company":null,"job_title":null,"bio":null,"public_url":"http://rdstation.com.br/leads/public/6e830eda-57a6-47bf-9209-1d3bbc589bce","created_at":"2019-01-12T00:28:27.000-02:00","opportunity":"false","number_conversions":"1","user":null,"first_conversion":{"content":{"identificador":"guia-medo-de-falar-em-publico","_rd_experiment_content_id":"","traffic_source":"encoded_eyJmaXJzdF9zZXNzaW9uIjp7InZhbHVlIjoiaHR0cHM6Ly93d3cuZ29vZ2xlLmNvbS8iLCJleHRyYV9wYXJhbXMiOnt9fSwiY3VycmVudF9zZXNzaW9uIjp7InZhbHVlIjoiKG5vbmUpIiwiZXh0cmFfcGFyYW1zIjp7fX0sImNyZWF0ZWRfYXQiOjE1NDcyNjAwODc1MzR9","created_at":"2019-01-12 02:28:27 UTC","ip":"186.206.38.205","email_lead":"contatoml@live.com","Nome":"David"},"created_at":"2019-01-12T00:28:27.000-02:00","cumulative_sum":"1","source":"guia-medo-de-falar-em-publico","conversion_origin":{"source":"(direct)","medium":"(none)","value":null,"campaign":"(direct)","channel":"Direct"}},"last_conversion":{"content":{"identificador":"guia-medo-de-falar-em-publico","_rd_experiment_content_id":"","traffic_source":"encoded_eyJmaXJzdF9zZXNzaW9uIjp7InZhbHVlIjoiaHR0cHM6Ly93d3cuZ29vZ2xlLmNvbS8iLCJleHRyYV9wYXJhbXMiOnt9fSwiY3VycmVudF9zZXNzaW9uIjp7InZhbHVlIjoiKG5vbmUpIiwiZXh0cmFfcGFyYW1zIjp7fX0sImNyZWF0ZWRfYXQiOjE1NDcyNjAwODc1MzR9","created_at":"2019-01-12 02:28:27 UTC","ip":"186.206.38.205","email_lead":"contatoml@live.com","Nome":"David"},"created_at":"2019-01-12T00:28:27.000-02:00","cumulative_sum":"1","source":"guia-medo-de-falar-em-publico","conversion_origin":{"source":"(direct)","medium":"(none)","value":null,"campaign":"(direct)","channel":"Direct"}},"custom_fields":{},"website":null,"personal_phone":null,"mobile_phone":null,"city":null,"state":null,"tags":null,"lead_stage":"Lead","last_marked_opportunity_date":null,"uuid":"6e830eda-57a6-47bf-9209-1d3bbc589bce","fit_score":"d","interest":0}]}
--------------------
DATA: 2019-01-12 as 05:28:43
IP: 35.221.26.100
URL: www.methodus.com.br/facix2/_php/rdstation/webhook.php
REFERER: 
contatoml@live.com
--------------------
DATA: 2019-01-12 as 05:28:47
IP: 35.221.26.100
URL: www.methodus.com.br/facix2/_php/rdstation/webhook.php
REFERER: 
Observações: 
--------------------
DATA: 2019-01-12 as 05:29:08
IP: 35.188.227.242
URL: www.methodus.com.br/facix2/_php/rdstation/webhook.php
REFERER: 
{"leads":[{"id":"456217555","email":"contatoml@live.com","name":"David","company":null,"job_title":null,"bio":null,"public_url":"http://rdstation.com.br/leads/public/6e830eda-57a6-47bf-9209-1d3bbc589bce","created_at":"2019-01-12T00:28:27.000-02:00","opportunity":"false","number_conversions":"1","user":null,"first_conversion":{"content":{"identificador":"guia-medo-de-falar-em-publico","_rd_experiment_content_id":"","traffic_source":"encoded_eyJmaXJzdF9zZXNzaW9uIjp7InZhbHVlIjoiaHR0cHM6Ly93d3cuZ29vZ2xlLmNvbS8iLCJleHRyYV9wYXJhbXMiOnt9fSwiY3VycmVudF9zZXNzaW9uIjp7InZhbHVlIjoiKG5vbmUpIiwiZXh0cmFfcGFyYW1zIjp7fX0sImNyZWF0ZWRfYXQiOjE1NDcyNjAwODc1MzR9","created_at":"2019-01-12 02:28:27 UTC","ip":"186.206.38.205","email_lead":"contatoml@live.com","Nome":"David"},"created_at":"2019-01-12T00:28:27.000-02:00","cumulative_sum":"1","source":"guia-medo-de-falar-em-publico","conversion_origin":{"source":"(direct)","medium":"(none)","value":null,"campaign":"(direct)","channel":"Direct"}},"last_conversion":{"content":{"identificador":"guia-medo-de-falar-em-publico","_rd_experiment_content_id":"","traffic_source":"encoded_eyJmaXJzdF9zZXNzaW9uIjp7InZhbHVlIjoiaHR0cHM6Ly93d3cuZ29vZ2xlLmNvbS8iLCJleHRyYV9wYXJhbXMiOnt9fSwiY3VycmVudF9zZXNzaW9uIjp7InZhbHVlIjoiKG5vbmUpIiwiZXh0cmFfcGFyYW1zIjp7fX0sImNyZWF0ZWRfYXQiOjE1NDcyNjAwODc1MzR9","created_at":"2019-01-12 02:28:27 UTC","ip":"186.206.38.205","email_lead":"contatoml@live.com","Nome":"David"},"created_at":"2019-01-12T00:28:27.000-02:00","cumulative_sum":"1","source":"guia-medo-de-falar-em-publico","conversion_origin":{"source":"(direct)","medium":"(none)","value":null,"campaign":"(direct)","channel":"Direct"}},"custom_fields":{},"website":null,"personal_phone":null,"mobile_phone":null,"city":null,"state":null,"tags":null,"lead_stage":"Lead","last_marked_opportunity_date":null,"uuid":"6e830eda-57a6-47bf-9209-1d3bbc589bce","fit_score":"d","interest":15}]}
--------------------
DATA: 2019-01-12 as 05:29:08
IP: 35.188.227.242
URL: www.methodus.com.br/facix2/_php/rdstation/webhook.php
REFERER: 
contatoml@live.com
--------------------
DATA: 2019-01-12 as 05:29:12
IP: 35.188.227.242
URL: www.methodus.com.br/facix2/_php/rdstation/webhook.php
REFERER: 
Observações: 
--------------------
DATA: 2019-01-12 as 15:12:40
IP: 35.236.220.236
URL: www.methodus.com.br/facix2/_php/rdstation/webhook.php
REFERER: 
{"leads":[{"id":"456277666","email":"luciano-otero@hotmail.com","name":"Luciano","company":null,"job_title":null,"bio":null,"public_url":"http://rdstation.com.br/leads/public/460799a9-3dc7-443c-b1f4-ad8351be9e19","created_at":"2019-01-12T10:08:37.296-02:00","opportunity":"false","number_conversions":"3","user":null,"first_conversion":{"content":{"identificador":"investimento","traffic_source":"encoded_eyJmaXJzdF9zZXNzaW9uIjp7InZhbHVlIjoiaHR0cHM6Ly93d3cuZ29vZ2xlLmNvbS5ici8iLCJleHRyYV9wYXJhbXMiOnt9fSwiY3VycmVudF9zZXNzaW9uIjp7InZhbHVlIjoiaHR0cHM6Ly93d3cuZ29vZ2xlLmNvbS5ici8iLCJleHRyYV9wYXJhbXMiOnt9fSwiY3JlYXRlZF9hdCI6MTU0NzI5NDg5NzU3NX0=","a":"aluno","metodo":"cadastro","origem":"Investimento","curso":"5","nome":"Luciano","form_url":"https://www.methodus.com.br/oratoria/5-curso.html","page_title":"CURSO DE ORATÓRIA - Como falar em público bem e fazer apresentação","email_lead":"luciano-otero@hotmail.com"},"created_at":"2019-01-12T10:08:37.368-02:00","cumulative_sum":"1","source":"investimento","conversion_origin":{"source":"Google","medium":"organic","value":null,"campaign":null,"channel":"Organic Search"}},"last_conversion":{"content":{"identificador":"guia-medo-de-falar-em-publico","_rd_experiment_content_id":"","traffic_source":"encoded_eyJmaXJzdF9zZXNzaW9uIjp7InZhbHVlIjoiaHR0cHM6Ly93d3cuZ29vZ2xlLmNvbS5ici8iLCJleHRyYV9wYXJhbXMiOnt9fSwiY3VycmVudF9zZXNzaW9uIjp7InZhbHVlIjoiaHR0cHM6Ly93d3cuZ29vZ2xlLmNvbS5ici8iLCJleHRyYV9wYXJhbXMiOnt9fSwiY3JlYXRlZF9hdCI6MTU0NzI5NTEwMDc1Nn0=","created_at":"2019-01-12 12:12:28 UTC","ip":"186.223.165.75","email_lead":"luciano-otero@hotmail.com","Nome":"Luciano"},"created_at":"2019-01-12T10:12:28.000-02:00","cumulative_sum":"3","source":"guia-medo-de-falar-em-publico","conversion_origin":{"source":"Google","medium":"organic","value":null,"campaign":null,"channel":"Organic Search"}},"custom_fields":{"Interesse":"Curso de Oratória"},"website":null,"personal_phone":null,"mobile_phone":null,"city":null,"state":null,"tags":null,"lead_stage":"Lead","last_marked_opportunity_date":null,"uuid":"460799a9-3dc7-443c-b1f4-ad8351be9e19","fit_score":"d","interest":0}]}
--------------------
DATA: 2019-01-12 as 15:12:40
IP: 35.236.220.236
URL: www.methodus.com.br/facix2/_php/rdstation/webhook.php
REFERER: 
luciano-otero@hotmail.com
--------------------
DATA: 2019-01-12 as 15:12:43
IP: 35.236.220.236
URL: www.methodus.com.br/facix2/_php/rdstation/webhook.php
REFERER: 
Observações:  / Interesse: Curso de Oratória
--------------------
DATA: 2019-01-12 as 15:12:44
IP: 35.236.198.168
URL: www.methodus.com.br/facix2/_php/rdstation/webhook.php
REFERER: 
{"leads":[{"id":"456277666","email":"luciano-otero@hotmail.com","name":"Luciano","company":null,"job_title":null,"bio":null,"public_url":"http://rdstation.com.br/leads/public/460799a9-3dc7-443c-b1f4-ad8351be9e19","created_at":"2019-01-12T10:08:37.296-02:00","opportunity":"false","number_conversions":"3","user":null,"first_conversion":{"content":{"identificador":"investimento","traffic_source":"encoded_eyJmaXJzdF9zZXNzaW9uIjp7InZhbHVlIjoiaHR0cHM6Ly93d3cuZ29vZ2xlLmNvbS5ici8iLCJleHRyYV9wYXJhbXMiOnt9fSwiY3VycmVudF9zZXNzaW9uIjp7InZhbHVlIjoiaHR0cHM6Ly93d3cuZ29vZ2xlLmNvbS5ici8iLCJleHRyYV9wYXJhbXMiOnt9fSwiY3JlYXRlZF9hdCI6MTU0NzI5NDg5NzU3NX0=","a":"aluno","metodo":"cadastro","origem":"Investimento","curso":"5","nome":"Luciano","form_url":"https://www.methodus.com.br/oratoria/5-curso.html","page_title":"CURSO DE ORATÓRIA - Como falar em público bem e fazer apresentação","email_lead":"luciano-otero@hotmail.com"},"created_at":"2019-01-12T10:08:37.368-02:00","cumulative_sum":"1","source":"investimento","conversion_origin":{"source":"Google","medium":"organic","value":null,"campaign":null,"channel":"Organic Search"}},"last_conversion":{"content":{"identificador":"guia-medo-de-falar-em-publico","_rd_experiment_content_id":"","traffic_source":"encoded_eyJmaXJzdF9zZXNzaW9uIjp7InZhbHVlIjoiaHR0cHM6Ly93d3cuZ29vZ2xlLmNvbS5ici8iLCJleHRyYV9wYXJhbXMiOnt9fSwiY3VycmVudF9zZXNzaW9uIjp7InZhbHVlIjoiaHR0cHM6Ly93d3cuZ29vZ2xlLmNvbS5ici8iLCJleHRyYV9wYXJhbXMiOnt9fSwiY3JlYXRlZF9hdCI6MTU0NzI5NTEwMDc1Nn0=","created_at":"2019-01-12 12:12:28 UTC","ip":"186.223.165.75","email_lead":"luciano-otero@hotmail.com","Nome":"Luciano"},"created_at":"2019-01-12T10:12:28.000-02:00","cumulative_sum":"3","source":"guia-medo-de-falar-em-publico","conversion_origin":{"source":"Google","medium":"organic","value":null,"campaign":null,"channel":"Organic Search"}},"custom_fields":{"Interesse":"Curso de Oratória"},"website":null,"personal_phone":null,"mobile_phone":null,"city":null,"state":null,"tags":null,"lead_stage":"Lead","last_marked_opportunity_date":null,"uuid":"460799a9-3dc7-443c-b1f4-ad8351be9e19","fit_score":"d","interest":0}]}
--------------------
DATA: 2019-01-12 as 15:12:44
IP: 35.236.198.168
URL: www.methodus.com.br/facix2/_php/rdstation/webhook.php
REFERER: 
luciano-otero@hotmail.com
--------------------
DATA: 2019-01-12 as 15:12:47
IP: 35.236.198.168
URL: www.methodus.com.br/facix2/_php/rdstation/webhook.php
REFERER: 
Observações:  / Interesse: Curso de Oratória
--------------------