
DATA: 2019-09-13 as 01:48:26
IP: 34.69.53.254
URL: www.methodus.com.br/facix2/_php/rdstation/webhook.php
REFERER: 
{"leads":[{"id":"644362673","email":"parmanhe@gmail.com","name":"Patricia","company":null,"job_title":null,"bio":null,"public_url":"http://rdstation.com.br/leads/public/6865483f-acda-4827-96d6-111c2c1e158a","created_at":"2019-09-04T11:19:07.058-03:00","opportunity":"false","number_conversions":"2","user":null,"first_conversion":{"content":{"identificador":"curso-oratoria-pagina","traffic_source":"encoded_eyJmaXJzdF9zZXNzaW9uIjp7InZhbHVlIjoiaHR0cHM6Ly93d3cuZ29vZ2xlLmNvbS8iLCJleHRyYV9wYXJhbXMiOnt9fSwiY3VycmVudF9zZXNzaW9uIjp7InZhbHVlIjoiaHR0cHM6Ly93d3cuZ29vZ2xlLmNvbS8iLCJleHRyYV9wYXJhbXMiOnt9fSwiY3JlYXRlZF9hdCI6MTU2NzYwNjU4MDAwOX0=","_doe":"","created_at":"2019-09-04T14:19:07.058011Z","ip":"23.79.255.50","email_lead":"parmanhe@gmail.com","Nome":"Patricia"},"created_at":"2019-09-04T11:19:07.058-03:00","cumulative_sum":"1","source":"curso-oratoria-pagina","conversion_origin":{"source":"Google","medium":"organic","value":null,"campaign":null,"channel":"Organic Search"}},"last_conversion":{"content":{"identificador":"guia-medo-de-falar-em-publico","_rd_experiment_content_id":"","traffic_source":"encoded_eyJmaXJzdF9zZXNzaW9uIjp7InZhbHVlIjoiaHR0cHM6Ly93d3cuZ29vZ2xlLmNvbS8iLCJleHRyYV9wYXJhbXMiOnt9fSwiY3VycmVudF9zZXNzaW9uIjp7InZhbHVlIjoiaHR0cHM6Ly93d3cuZ29vZ2xlLmNvbS8iLCJleHRyYV9wYXJhbXMiOnt9fSwiY3JlYXRlZF9hdCI6MTU2NzYwNjcxODE5M30=","created_at":"2019-09-04T14:19:26.203912Z","ip":"205.185.195.171","email_lead":"parmanhe@gmail.com","Nome":"Patricia"},"created_at":"2019-09-04T11:19:26.203-03:00","cumulative_sum":"2","source":"guia-medo-de-falar-em-publico","conversion_origin":{"source":"Google","medium":"organic","value":null,"campaign":null,"channel":"Organic Search"}},"custom_fields":{},"website":null,"personal_phone":null,"mobile_phone":null,"city":null,"state":null,"tags":null,"lead_stage":"Lead","last_marked_opportunity_date":null,"uuid":"6865483f-acda-4827-96d6-111c2c1e158a","fit_score":"d","interest":15}]}
--------------------
DATA: 2019-09-13 as 01:48:26
IP: 34.69.53.254
URL: www.methodus.com.br/facix2/_php/rdstation/webhook.php
REFERER: 
parmanhe@gmail.com
--------------------
DATA: 2019-09-13 as 01:48:32
IP: 34.69.53.254
URL: www.methodus.com.br/facix2/_php/rdstation/webhook.php
REFERER: 
Observações: 
--------------------
DATA: 2019-09-13 as 04:52:17
IP: 34.69.53.254
URL: www.methodus.com.br/facix2/_php/rdstation/webhook.php
REFERER: 
{"leads":[{"id":"143418401","email":"agdastela@yahoo.com.br","name":"AGDA STELA OLIVEIRA DE LIMA","company":null,"job_title":null,"bio":null,"public_url":"http://rdstation.com.br/leads/public/3224b562-d71d-481d-8ae0-65e7c59f21a5","created_at":"2017-03-12T01:35:51.000-03:00","opportunity":"false","number_conversions":"5","user":null,"first_conversion":{"content":{"nome":"agda","perfil":"Sou um profissional e preciso fazer apresentações","interesse":"Curso de Oratória","identificador":"investimento","created_at":"2017-03-12 04:35:51 UTC","email_lead":"agdastela@yahoo.com.br"},"created_at":"2017-03-12T01:35:51.000-03:00","cumulative_sum":"1","source":"investimento","conversion_origin":{"source":"unknown","medium":"unknown","value":null,"campaign":"unknown","channel":"Unknown"}},"last_conversion":{"content":{"identificador":"guia-medo-de-falar-em-publico","_rd_experiment_content_id":"","traffic_source":"encoded_eyJmaXJzdF9zZXNzaW9uIjp7InZhbHVlIjoiaHR0cHM6Ly93d3cuZ29vZ2xlLmNvbS8iLCJleHRyYV9wYXJhbXMiOnt9fSwiY3VycmVudF9zZXNzaW9uIjp7InZhbHVlIjoiaHR0cHM6Ly93d3cuZ29vZ2xlLmNvbS8iLCJleHRyYV9wYXJhbXMiOnt9fSwiY3JlYXRlZF9hdCI6MTU2Nzg5NjYzODMwOX0=","created_at":"2019-09-07T22:50:51.062777Z","ip":"184.27.120.76","email_lead":"agdastela@yahoo.com.br","Nome":"AGDA STELA OLIVEIRA DE LIMA"},"created_at":"2019-09-07T19:50:51.062-03:00","cumulative_sum":"5","source":"guia-medo-de-falar-em-publico","conversion_origin":{"source":"Google","medium":"organic","value":null,"campaign":null,"channel":"Organic Search"}},"custom_fields":{"perfil":"Sou um profissional da área de comunicações"},"website":null,"personal_phone":null,"mobile_phone":null,"city":null,"state":null,"tags":null,"lead_stage":"Lead","last_marked_opportunity_date":null,"uuid":"3224b562-d71d-481d-8ae0-65e7c59f21a5","fit_score":"d","interest":15}]}
--------------------
DATA: 2019-09-13 as 04:52:17
IP: 34.69.53.254
URL: www.methodus.com.br/facix2/_php/rdstation/webhook.php
REFERER: 
agdastela@yahoo.com.br
--------------------
DATA: 2019-09-13 as 04:52:23
IP: 34.69.53.254
URL: www.methodus.com.br/facix2/_php/rdstation/webhook.php
REFERER: 
Observações:  / perfil: Sou um profissional da área de comunicações
--------------------
DATA: 2019-09-13 as 06:21:53
IP: 146.148.38.123
URL: www.methodus.com.br/facix2/_php/rdstation/webhook.php
REFERER: 
{"leads":[{"id":"652775696","email":"datafilms.sac@gmail.com","name":"Isaias","company":null,"job_title":null,"bio":null,"public_url":"http://rdstation.com.br/leads/public/b283bb25-6369-4038-bcaa-d12d6158da97","created_at":"2019-09-13T00:21:40.733-03:00","opportunity":"false","number_conversions":"1","user":null,"first_conversion":{"content":{"identificador":"guia-medo-de-falar-em-publico","_rd_experiment_content_id":"","traffic_source":"encoded_eyJmaXJzdF9zZXNzaW9uIjp7InZhbHVlIjoidXRtX3NvdXJjZT1nb29nbGUmdXRtX21lZGl1bT1jcGMmdXRtX2NhbXBhaWduPWN1cnNvLWRlLW9yYXRvcmlhLWFtcGxvJmdjbGlkPUNqMEtDUWp3MmVmckJSRDNBUklzQUVudDBlZ2lSd0FERnUwNzBKRUswNHZzVWZJNVFqODhCZ3o1a19RWHZYRTc3OXpkazZfdXR1TUpheEFhQXJRT0VBTHdfd2NCIiwiZXh0cmFfcGFyYW1zIjp7fX0sImN1cnJlbnRfc2Vzc2lvbiI6eyJ2YWx1ZSI6InV0bV9zb3VyY2U9Z29vZ2xlJnV0bV9tZWRpdW09Y3BjJnV0bV9jYW1wYWlnbj1jdXJzby1kZS1vcmF0b3JpYS1hbXBsbyZnY2xpZD1DajBLQ1FqdzJlZnJCUkQzQVJJc0FFbnQwZWdpUndBREZ1MDcwSkVLMDR2c1VmSTVRajg4Qmd6NWtfUVh2WEU3Nzl6ZGs2X3V0dU1KYXhBYUFyUU9FQUx3X3djQiIsImV4dHJhX3BhcmFtcyI6e319LCJjcmVhdGVkX2F0IjoxNTY4MzQ0ODc4ODA3fQ==","created_at":"2019-09-13T03:21:40.733233Z","ip":"184.27.120.58","email_lead":"datafilms.sac@gmail.com","Nome":"Isaias"},"created_at":"2019-09-13T00:21:40.733-03:00","cumulative_sum":"1","source":"guia-medo-de-falar-em-publico","conversion_origin":{"source":"google","medium":"cpc","value":null,"campaign":"curso-de-oratoria-amplo","channel":"Paid Search"}},"last_conversion":{"content":{"identificador":"guia-medo-de-falar-em-publico","_rd_experiment_content_id":"","traffic_source":"encoded_eyJmaXJzdF9zZXNzaW9uIjp7InZhbHVlIjoidXRtX3NvdXJjZT1nb29nbGUmdXRtX21lZGl1bT1jcGMmdXRtX2NhbXBhaWduPWN1cnNvLWRlLW9yYXRvcmlhLWFtcGxvJmdjbGlkPUNqMEtDUWp3MmVmckJSRDNBUklzQUVudDBlZ2lSd0FERnUwNzBKRUswNHZzVWZJNVFqODhCZ3o1a19RWHZYRTc3OXpkazZfdXR1TUpheEFhQXJRT0VBTHdfd2NCIiwiZXh0cmFfcGFyYW1zIjp7fX0sImN1cnJlbnRfc2Vzc2lvbiI6eyJ2YWx1ZSI6InV0bV9zb3VyY2U9Z29vZ2xlJnV0bV9tZWRpdW09Y3BjJnV0bV9jYW1wYWlnbj1jdXJzby1kZS1vcmF0b3JpYS1hbXBsbyZnY2xpZD1DajBLQ1FqdzJlZnJCUkQzQVJJc0FFbnQwZWdpUndBREZ1MDcwSkVLMDR2c1VmSTVRajg4Qmd6NWtfUVh2WEU3Nzl6ZGs2X3V0dU1KYXhBYUFyUU9FQUx3X3djQiIsImV4dHJhX3BhcmFtcyI6e319LCJjcmVhdGVkX2F0IjoxNTY4MzQ0ODc4ODA3fQ==","created_at":"2019-09-13T03:21:40.733233Z","ip":"184.27.120.58","email_lead":"datafilms.sac@gmail.com","Nome":"Isaias"},"created_at":"2019-09-13T00:21:40.733-03:00","cumulative_sum":"1","source":"guia-medo-de-falar-em-publico","conversion_origin":{"source":"google","medium":"cpc","value":null,"campaign":"curso-de-oratoria-amplo","channel":"Paid Search"}},"custom_fields":{},"website":null,"personal_phone":null,"mobile_phone":null,"city":null,"state":null,"tags":null,"lead_stage":"Lead","last_marked_opportunity_date":null,"uuid":"b283bb25-6369-4038-bcaa-d12d6158da97","fit_score":"d","interest":0}]}
--------------------
DATA: 2019-09-13 as 06:21:53
IP: 146.148.38.123
URL: www.methodus.com.br/facix2/_php/rdstation/webhook.php
REFERER: 
datafilms.sac@gmail.com
--------------------
DATA: 2019-09-13 as 06:21:59
IP: 146.148.38.123
URL: www.methodus.com.br/facix2/_php/rdstation/webhook.php
REFERER: 
Observações: 
--------------------
DATA: 2019-09-13 as 06:40:42
IP: 34.68.110.127
URL: www.methodus.com.br/facix2/_php/rdstation/webhook.php
REFERER: 
{"leads":[{"id":"644993202","email":"alvesmota941@gmail.com","name":"stefany","company":null,"job_title":null,"bio":null,"public_url":"http://rdstation.com.br/leads/public/100c89be-536a-43bb-b2eb-6c95e8de2e57","created_at":"2019-09-04T20:20:29.624-03:00","opportunity":"false","number_conversions":"2","user":null,"first_conversion":{"content":{"identificador":"guia-medo-de-falar-em-publico","_rd_experiment_content_id":"","traffic_source":"encoded_eyJmaXJzdF9zZXNzaW9uIjp7InZhbHVlIjoiaHR0cHM6Ly93d3cuZ29vZ2xlLmNvbS8iLCJleHRyYV9wYXJhbXMiOnt9fSwiY3VycmVudF9zZXNzaW9uIjp7InZhbHVlIjoiaHR0cHM6Ly93d3cuZ29vZ2xlLmNvbS8iLCJleHRyYV9wYXJhbXMiOnt9fSwiY3JlYXRlZF9hdCI6MTU2NzYzOTA4NTEyNX0=","created_at":"2019-09-04T23:20:29.624795Z","ip":"184.26.95.45","email_lead":"alvesmota941@gmail.com","Nome":"stefany"},"created_at":"2019-09-04T20:20:29.624-03:00","cumulative_sum":"1","source":"guia-medo-de-falar-em-publico","conversion_origin":{"source":"Google","medium":"organic","value":null,"campaign":null,"channel":"Organic Search"}},"last_conversion":{"content":{"identificador":"5-fatores-estrategicos-de-persuasao-landingpage","_rd_experiment_content_id":"","traffic_source":"encoded_eyJmaXJzdF9zZXNzaW9uIjp7InZhbHVlIjoiaHR0cHM6Ly93d3cuZ29vZ2xlLmNvbS8iLCJleHRyYV9wYXJhbXMiOnt9fSwiY3VycmVudF9zZXNzaW9uIjp7InZhbHVlIjoiaHR0cHM6Ly93d3cuZ29vZ2xlLmNvbS8iLCJleHRyYV9wYXJhbXMiOnt9fSwiY3JlYXRlZF9hdCI6MTU2NzYzOTE5MDE4MX0=","created_at":"2019-09-04T23:21:37.852399Z","ip":"184.26.95.39","email_lead":"alvesmota941@gmail.com","Nome":"stefany"},"created_at":"2019-09-04T20:21:37.852-03:00","cumulative_sum":"2","source":"5-fatores-estrategicos-de-persuasao-landingpage","conversion_origin":{"source":"Google","medium":"organic","value":null,"campaign":null,"channel":"Organic Search"}},"custom_fields":{},"website":null,"personal_phone":null,"mobile_phone":null,"city":null,"state":null,"tags":null,"lead_stage":"Lead","last_marked_opportunity_date":null,"uuid":"100c89be-536a-43bb-b2eb-6c95e8de2e57","fit_score":"d","interest":30}]}
--------------------
DATA: 2019-09-13 as 06:40:42
IP: 34.68.110.127
URL: www.methodus.com.br/facix2/_php/rdstation/webhook.php
REFERER: 
alvesmota941@gmail.com
--------------------
DATA: 2019-09-13 as 06:40:49
IP: 34.68.110.127
URL: www.methodus.com.br/facix2/_php/rdstation/webhook.php
REFERER: 
Observações: 
--------------------
DATA: 2019-09-13 as 11:00:52
IP: 34.69.53.254
URL: www.methodus.com.br/facix2/_php/rdstation/webhook.php
REFERER: 
{"leads":[{"id":"645055409","email":"fasolo.web@gmail.com","name":"Fah","company":null,"job_title":null,"bio":null,"public_url":"http://rdstation.com.br/leads/public/a99261df-ced2-468f-9ab5-8da7418f4568","created_at":"2019-09-04T22:40:00.217-03:00","opportunity":"false","number_conversions":"4","user":null,"first_conversion":{"content":{"identificador":"form_ebook","traffic_source":"encoded_eyJmaXJzdF9zZXNzaW9uIjp7InZhbHVlIjoiaHR0cHM6Ly93d3cuZ29vZ2xlLmNvbS8iLCJleHRyYV9wYXJhbXMiOnt9fSwiY3VycmVudF9zZXNzaW9uIjp7InZhbHVlIjoiaHR0cHM6Ly93d3cuZ29vZ2xlLmNvbS8iLCJleHRyYV9wYXJhbXMiOnt9fSwiY3JlYXRlZF9hdCI6MTU2NzY0NzU3NzEzMH0=","destino":"https://d335luupugsy2.cloudfront.net/cms%2Ffiles%2F16878%2F14661812711+Guia+Medo+falar+em+p%C3%BAblico+%28ebook%29.pdf","a":"aluno","metodo":"cadastro","origem":"Ebook_Medo_Falar","curso":"5","nome":"Fasolo","form_url":"https://www.methodus.com.br/oratoria/5-curso.html","page_title":"CURSO DE ORATÓRIA - Como falar em público bem e fazer apresentação","email_lead":"fasolo.web@gmail.com"},"created_at":"2019-09-04T22:40:00.295-03:00","cumulative_sum":"1","source":"form_ebook","conversion_origin":{"source":"Google","medium":"organic","value":null,"campaign":null,"channel":"Organic Search"}},"last_conversion":{"content":{"identificador":"guia-medo-de-falar-em-publico","_rd_experiment_content_id":"","traffic_source":"encoded_eyJmaXJzdF9zZXNzaW9uIjp7InZhbHVlIjoiaHR0cHM6Ly93d3cuZ29vZ2xlLmNvbS8iLCJleHRyYV9wYXJhbXMiOnt9fSwiY3VycmVudF9zZXNzaW9uIjp7InZhbHVlIjoiaHR0cHM6Ly93d3cuZ29vZ2xlLmNvbS8iLCJleHRyYV9wYXJhbXMiOnt9fSwiY3JlYXRlZF9hdCI6MTU2NzY0NzU3NzEzMH0=","created_at":"2019-09-05T01:40:52.464354Z","ip":"104.91.167.69","email_lead":"fasolo.web@gmail.com","Nome":"Fah"},"created_at":"2019-09-04T22:40:52.464-03:00","cumulative_sum":"4","source":"guia-medo-de-falar-em-publico","conversion_origin":{"source":"Google","medium":"organic","value":null,"campaign":null,"channel":"Organic Search"}},"custom_fields":{"Interesse":"Curso de Oratória"},"website":null,"personal_phone":null,"mobile_phone":null,"city":null,"state":null,"tags":null,"lead_stage":"Lead","last_marked_opportunity_date":null,"uuid":"a99261df-ced2-468f-9ab5-8da7418f4568","fit_score":"d","interest":15}]}
--------------------
DATA: 2019-09-13 as 11:00:52
IP: 34.69.53.254
URL: www.methodus.com.br/facix2/_php/rdstation/webhook.php
REFERER: 
fasolo.web@gmail.com
--------------------
DATA: 2019-09-13 as 11:00:58
IP: 34.69.53.254
URL: www.methodus.com.br/facix2/_php/rdstation/webhook.php
REFERER: 
Observações:  / Interesse: Curso de Oratória
--------------------
DATA: 2019-09-13 as 12:50:44
IP: 34.69.53.254
URL: www.methodus.com.br/facix2/_php/rdstation/webhook.php
REFERER: 
{"leads":[{"id":"649583127","email":"carolinalperez@outlook.com","name":"Carolina Lopes Perez","company":null,"job_title":null,"bio":null,"public_url":"http://rdstation.com.br/leads/public/8b7692d2-b80a-4ae4-9b3f-0ba481fc23f4","created_at":"2019-09-10T13:20:11.638-03:00","opportunity":"false","number_conversions":"5","user":null,"first_conversion":{"content":{"identificador":"guia-medo-de-falar-em-publico","_rd_experiment_content_id":"","traffic_source":"encoded_eyJmaXJzdF9zZXNzaW9uIjp7InZhbHVlIjoiaHR0cHM6Ly93d3cuZ29vZ2xlLmNvbS8iLCJleHRyYV9wYXJhbXMiOnt9fSwiY3VycmVudF9zZXNzaW9uIjp7InZhbHVlIjoiaHR0cHM6Ly93d3cubWV0aG9kdXMuY29tLmJyL29yYXRvcmlhLzUtY3Vyc28uaHRtbCIsImV4dHJhX3BhcmFtcyI6e319LCJjcmVhdGVkX2F0IjoxNTY4MTMyMTI1MzcwfQ==","created_at":"2019-09-10T16:20:11.638953Z","ip":"23.56.175.141","email_lead":"carolinalperez@outlook.com","Nome":"Carolina Lopes Perez"},"created_at":"2019-09-10T13:20:11.638-03:00","cumulative_sum":"1","source":"guia-medo-de-falar-em-publico","conversion_origin":{"source":"methodus.com.br","medium":"referral","value":null,"campaign":"(referral)","channel":"Referral"}},"last_conversion":{"content":{"identificador":"testes_form","traffic_source":"encoded_eyJmaXJzdF9zZXNzaW9uIjp7InZhbHVlIjoiaHR0cHM6Ly93d3cuZ29vZ2xlLmNvbS8iLCJleHRyYV9wYXJhbXMiOnt9fSwiY3VycmVudF9zZXNzaW9uIjp7InZhbHVlIjoiaHR0cHM6Ly93d3cubWV0aG9kdXMuY29tLmJyL29yYXRvcmlhLzUtY3Vyc28uaHRtbCIsImV4dHJhX3BhcmFtcyI6e319LCJjcmVhdGVkX2F0IjoxNTY4MTMyMjM1ODQ2fQ==","a":"aluno","metodo":"cadastro","origem":"Testes","curso":"4","nome":"Carolina Lopes Perez","form_url":"https://www.methodus.com.br/testes.html","page_title":"Methodus - Leitura dinâmica, Administração do tempo e Oratória","email_lead":"carolinalperez@outlook.com"},"created_at":"2019-09-10T13:22:21.266-03:00","cumulative_sum":"5","source":"testes_form","conversion_origin":{"source":"methodus.com.br","medium":"referral","value":null,"campaign":"(referral)","channel":"Referral"}},"custom_fields":{"Interesse":"Curso de Leitura Dinâmica e Memorização"},"website":null,"personal_phone":null,"mobile_phone":null,"city":null,"state":null,"tags":null,"lead_stage":"Lead","last_marked_opportunity_date":null,"uuid":"8b7692d2-b80a-4ae4-9b3f-0ba481fc23f4","fit_score":"d","interest":15}]}
--------------------
DATA: 2019-09-13 as 12:50:44
IP: 34.69.53.254
URL: www.methodus.com.br/facix2/_php/rdstation/webhook.php
REFERER: 
carolinalperez@outlook.com
--------------------
DATA: 2019-09-13 as 12:50:50
IP: 34.69.53.254
URL: www.methodus.com.br/facix2/_php/rdstation/webhook.php
REFERER: 
Observações:  / Interesse: Curso de Leitura Dinâmica e Memorização
--------------------
DATA: 2019-09-13 as 15:42:46
IP: 104.197.147.132
URL: www.methodus.com.br/facix2/_php/rdstation/webhook.php
REFERER: 
{"leads":[{"id":"648320315","email":"naorsales@hotmail.com","name":"Naor Sales","company":null,"job_title":null,"bio":null,"public_url":"http://rdstation.com.br/leads/public/9c823c3f-339d-45bc-b43f-beed67ef7f09","created_at":"2019-09-09T11:00:02.258-03:00","opportunity":"false","number_conversions":"1","user":null,"first_conversion":{"content":{"identificador":"guia-medo-de-falar-em-publico","_rd_experiment_content_id":"","traffic_source":"encoded_eyJmaXJzdF9zZXNzaW9uIjp7InZhbHVlIjoiaHR0cHM6Ly93d3cuZ29vZ2xlLmNvbS8iLCJleHRyYV9wYXJhbXMiOnt9fSwiY3VycmVudF9zZXNzaW9uIjp7InZhbHVlIjoiaHR0cHM6Ly93d3cuZ29vZ2xlLmNvbS8iLCJleHRyYV9wYXJhbXMiOnt9fSwiY3JlYXRlZF9hdCI6MTU2ODAzNzU4MTkxNX0=","created_at":"2019-09-09T14:00:02.258881Z","ip":"184.28.51.63","email_lead":"naorsales@hotmail.com","Nome":"Naor Sales"},"created_at":"2019-09-09T11:00:02.258-03:00","cumulative_sum":"1","source":"guia-medo-de-falar-em-publico","conversion_origin":{"source":"Google","medium":"organic","value":null,"campaign":null,"channel":"Organic Search"}},"last_conversion":{"content":{"identificador":"guia-medo-de-falar-em-publico","_rd_experiment_content_id":"","traffic_source":"encoded_eyJmaXJzdF9zZXNzaW9uIjp7InZhbHVlIjoiaHR0cHM6Ly93d3cuZ29vZ2xlLmNvbS8iLCJleHRyYV9wYXJhbXMiOnt9fSwiY3VycmVudF9zZXNzaW9uIjp7InZhbHVlIjoiaHR0cHM6Ly93d3cuZ29vZ2xlLmNvbS8iLCJleHRyYV9wYXJhbXMiOnt9fSwiY3JlYXRlZF9hdCI6MTU2ODAzNzU4MTkxNX0=","created_at":"2019-09-09T14:00:02.258881Z","ip":"184.28.51.63","email_lead":"naorsales@hotmail.com","Nome":"Naor Sales"},"created_at":"2019-09-09T11:00:02.258-03:00","cumulative_sum":"1","source":"guia-medo-de-falar-em-publico","conversion_origin":{"source":"Google","medium":"organic","value":null,"campaign":null,"channel":"Organic Search"}},"custom_fields":{},"website":null,"personal_phone":null,"mobile_phone":null,"city":null,"state":null,"tags":null,"lead_stage":"Lead","last_marked_opportunity_date":null,"uuid":"9c823c3f-339d-45bc-b43f-beed67ef7f09","fit_score":"d","interest":15}]}
--------------------
DATA: 2019-09-13 as 15:42:46
IP: 104.197.147.132
URL: www.methodus.com.br/facix2/_php/rdstation/webhook.php
REFERER: 
naorsales@hotmail.com
--------------------
DATA: 2019-09-13 as 15:42:52
IP: 104.197.147.132
URL: www.methodus.com.br/facix2/_php/rdstation/webhook.php
REFERER: 
Observações: 
--------------------