
DATA: 2019-12-03 as 18:14:51
IP: 35.239.183.220
URL: www.methodus.com.br/facix2/_php/rdstation/webhook.php
REFERER: 
{"leads":[{"id":"732864595","email":"jessica.mr.silva11@gmail.com","name":"Jessica Maria","company":null,"job_title":null,"bio":null,"public_url":"http://rdstation.com.br/leads/public/50d4ec83-b545-4f3b-8550-ce0dd05d663e","created_at":"2019-12-03T12:14:38.732-03:00","opportunity":"false","number_conversions":"1","user":null,"first_conversion":{"content":{"identificador":"guia-medo-de-falar-em-publico","_rd_experiment_content_id":"","traffic_source":"encoded_eyJmaXJzdF9zZXNzaW9uIjp7InZhbHVlIjoiaHR0cHM6Ly93d3cuZ29vZ2xlLmNvbS8iLCJleHRyYV9wYXJhbXMiOnt9fSwiY3VycmVudF9zZXNzaW9uIjp7InZhbHVlIjoiaHR0cHM6Ly93d3cuZ29vZ2xlLmNvbS8iLCJleHRyYV9wYXJhbXMiOnt9fSwiY3JlYXRlZF9hdCI6MTU3NTM4NjA1NzMxMX0=","created_at":"2019-12-03T15:14:38.732761Z","ip":"201.159.153.240","email_lead":"jessica.mr.silva11@gmail.com","Nome":"Jessica Maria"},"created_at":"2019-12-03T12:14:38.732-03:00","cumulative_sum":"1","source":"guia-medo-de-falar-em-publico","conversion_origin":{"source":"Google","medium":"organic","value":null,"campaign":null,"channel":"Organic Search"}},"last_conversion":{"content":{"identificador":"guia-medo-de-falar-em-publico","_rd_experiment_content_id":"","traffic_source":"encoded_eyJmaXJzdF9zZXNzaW9uIjp7InZhbHVlIjoiaHR0cHM6Ly93d3cuZ29vZ2xlLmNvbS8iLCJleHRyYV9wYXJhbXMiOnt9fSwiY3VycmVudF9zZXNzaW9uIjp7InZhbHVlIjoiaHR0cHM6Ly93d3cuZ29vZ2xlLmNvbS8iLCJleHRyYV9wYXJhbXMiOnt9fSwiY3JlYXRlZF9hdCI6MTU3NTM4NjA1NzMxMX0=","created_at":"2019-12-03T15:14:38.732761Z","ip":"201.159.153.240","email_lead":"jessica.mr.silva11@gmail.com","Nome":"Jessica Maria"},"created_at":"2019-12-03T12:14:38.732-03:00","cumulative_sum":"1","source":"guia-medo-de-falar-em-publico","conversion_origin":{"source":"Google","medium":"organic","value":null,"campaign":null,"channel":"Organic Search"}},"custom_fields":{},"website":null,"personal_phone":null,"mobile_phone":null,"city":null,"state":null,"tags":null,"lead_stage":"Lead","last_marked_opportunity_date":null,"uuid":"50d4ec83-b545-4f3b-8550-ce0dd05d663e","fit_score":"d","interest":0}]}
--------------------
DATA: 2019-12-03 as 18:14:51
IP: 35.239.183.220
URL: www.methodus.com.br/facix2/_php/rdstation/webhook.php
REFERER: 
jessica.mr.silva11@gmail.com
--------------------
DATA: 2019-12-03 as 18:14:57
IP: 35.239.183.220
URL: www.methodus.com.br/facix2/_php/rdstation/webhook.php
REFERER: 
Observações: 
--------------------
DATA: 2019-12-03 as 18:54:30
IP: 35.223.136.130
URL: www.methodus.com.br/facix2/_php/rdstation/webhook.php
REFERER: 
{"leads":[{"id":"732864595","email":"jessica.mr.silva11@gmail.com","name":"Jessica Maria","company":null,"job_title":null,"bio":null,"public_url":"http://rdstation.com.br/leads/public/50d4ec83-b545-4f3b-8550-ce0dd05d663e","created_at":"2019-12-03T12:14:38.732-03:00","opportunity":"false","number_conversions":"2","user":null,"first_conversion":{"content":{"identificador":"guia-medo-de-falar-em-publico","_rd_experiment_content_id":"","traffic_source":"encoded_eyJmaXJzdF9zZXNzaW9uIjp7InZhbHVlIjoiaHR0cHM6Ly93d3cuZ29vZ2xlLmNvbS8iLCJleHRyYV9wYXJhbXMiOnt9fSwiY3VycmVudF9zZXNzaW9uIjp7InZhbHVlIjoiaHR0cHM6Ly93d3cuZ29vZ2xlLmNvbS8iLCJleHRyYV9wYXJhbXMiOnt9fSwiY3JlYXRlZF9hdCI6MTU3NTM4NjA1NzMxMX0=","created_at":"2019-12-03T15:14:38.732761Z","ip":"201.159.153.240","email_lead":"jessica.mr.silva11@gmail.com","Nome":"Jessica Maria"},"created_at":"2019-12-03T12:14:38.732-03:00","cumulative_sum":"1","source":"guia-medo-de-falar-em-publico","conversion_origin":{"source":"Google","medium":"organic","value":null,"campaign":null,"channel":"Organic Search"}},"last_conversion":{"content":{"identificador":"5-fatores-estrategicos-de-persuasao-landingpage","_rd_experiment_content_id":"","traffic_source":"encoded_eyJmaXJzdF9zZXNzaW9uIjp7InZhbHVlIjoiaHR0cHM6Ly93d3cuZ29vZ2xlLmNvbS8iLCJleHRyYV9wYXJhbXMiOnt9fSwiY3VycmVudF9zZXNzaW9uIjp7InZhbHVlIjoiKG5vbmUpIiwiZXh0cmFfcGFyYW1zIjp7fX0sImNyZWF0ZWRfYXQiOjE1NzUzODY1MTM4NDB9","created_at":"2019-12-03T15:23:36.749529Z","ip":"201.159.153.240","email_lead":"jessica.mr.silva11@gmail.com","Nome":"Jessica Maria"},"created_at":"2019-12-03T12:23:36.749-03:00","cumulative_sum":"2","source":"5-fatores-estrategicos-de-persuasao-landingpage","conversion_origin":{"source":"(direct)","medium":"(none)","value":null,"campaign":"(direct)","channel":"Direct"}},"custom_fields":{},"website":null,"personal_phone":null,"mobile_phone":null,"city":null,"state":null,"tags":null,"lead_stage":"Lead","last_marked_opportunity_date":null,"uuid":"50d4ec83-b545-4f3b-8550-ce0dd05d663e","fit_score":"d","interest":30}]}
--------------------
DATA: 2019-12-03 as 18:54:30
IP: 35.223.136.130
URL: www.methodus.com.br/facix2/_php/rdstation/webhook.php
REFERER: 
jessica.mr.silva11@gmail.com
--------------------
DATA: 2019-12-03 as 18:54:39
IP: 35.223.136.130
URL: www.methodus.com.br/facix2/_php/rdstation/webhook.php
REFERER: 
Observações: 
--------------------
DATA: 2019-12-03 as 19:38:48
IP: 35.225.36.28
URL: www.methodus.com.br/facix2/_php/rdstation/webhook.php
REFERER: 
{"leads":[{"id":"732864595","email":"jessica.mr.silva11@gmail.com","name":"Jessica Maria","company":null,"job_title":null,"bio":null,"public_url":"http://rdstation.com.br/leads/public/50d4ec83-b545-4f3b-8550-ce0dd05d663e","created_at":"2019-12-03T12:14:38.732-03:00","opportunity":"false","number_conversions":"4","user":null,"first_conversion":{"content":{"identificador":"guia-medo-de-falar-em-publico","_rd_experiment_content_id":"","traffic_source":"encoded_eyJmaXJzdF9zZXNzaW9uIjp7InZhbHVlIjoiaHR0cHM6Ly93d3cuZ29vZ2xlLmNvbS8iLCJleHRyYV9wYXJhbXMiOnt9fSwiY3VycmVudF9zZXNzaW9uIjp7InZhbHVlIjoiaHR0cHM6Ly93d3cuZ29vZ2xlLmNvbS8iLCJleHRyYV9wYXJhbXMiOnt9fSwiY3JlYXRlZF9hdCI6MTU3NTM4NjA1NzMxMX0=","created_at":"2019-12-03T15:14:38.732761Z","ip":"201.159.153.240","email_lead":"jessica.mr.silva11@gmail.com","Nome":"Jessica Maria"},"created_at":"2019-12-03T12:14:38.732-03:00","cumulative_sum":"1","source":"guia-medo-de-falar-em-publico","conversion_origin":{"source":"Google","medium":"organic","value":null,"campaign":null,"channel":"Organic Search"}},"last_conversion":{"content":{"nome":"Jessica Maria","perfil":"","Interesse":"Curso de Leitura Dinâmica e Memorização","identificador":"ebook_7_teses_leitura","interesse":"Curso de Leitura Dinâmica e Memorização","created_at":"2019-12-03T16:17:10.725035Z","email_lead":"jessica.mr.silva11@gmail.com"},"created_at":"2019-12-03T13:17:10.725-03:00","cumulative_sum":"4","source":"ebook_7_teses_leitura","conversion_origin":{"source":"unknown","medium":"unknown","value":null,"campaign":"unknown","channel":"Unknown"}},"custom_fields":{"Interesse":"Curso de Leitura Dinâmica e Memorização"},"website":null,"personal_phone":null,"mobile_phone":null,"city":null,"state":null,"tags":null,"lead_stage":"Lead","last_marked_opportunity_date":null,"uuid":"50d4ec83-b545-4f3b-8550-ce0dd05d663e","fit_score":"d","interest":30}]}
--------------------
DATA: 2019-12-03 as 19:38:48
IP: 35.225.36.28
URL: www.methodus.com.br/facix2/_php/rdstation/webhook.php
REFERER: 
jessica.mr.silva11@gmail.com
--------------------
DATA: 2019-12-03 as 19:38:54
IP: 35.225.36.28
URL: www.methodus.com.br/facix2/_php/rdstation/webhook.php
REFERER: 
Observações:  / Interesse: Curso de Leitura Dinâmica e Memorização
--------------------
DATA: 2019-12-03 as 20:47:57
IP: 35.223.237.152
URL: www.methodus.com.br/facix2/_php/rdstation/webhook.php
REFERER: 
{"leads":[{"id":"732864595","email":"jessica.mr.silva11@gmail.com","name":"Jessica Maria","company":null,"job_title":null,"bio":null,"public_url":"http://rdstation.com.br/leads/public/50d4ec83-b545-4f3b-8550-ce0dd05d663e","created_at":"2019-12-03T12:14:38.732-03:00","opportunity":"false","number_conversions":"4","user":null,"first_conversion":{"content":{"identificador":"guia-medo-de-falar-em-publico","_rd_experiment_content_id":"","traffic_source":"encoded_eyJmaXJzdF9zZXNzaW9uIjp7InZhbHVlIjoiaHR0cHM6Ly93d3cuZ29vZ2xlLmNvbS8iLCJleHRyYV9wYXJhbXMiOnt9fSwiY3VycmVudF9zZXNzaW9uIjp7InZhbHVlIjoiaHR0cHM6Ly93d3cuZ29vZ2xlLmNvbS8iLCJleHRyYV9wYXJhbXMiOnt9fSwiY3JlYXRlZF9hdCI6MTU3NTM4NjA1NzMxMX0=","created_at":"2019-12-03T15:14:38.732761Z","ip":"201.159.153.240","email_lead":"jessica.mr.silva11@gmail.com","Nome":"Jessica Maria"},"created_at":"2019-12-03T12:14:38.732-03:00","cumulative_sum":"1","source":"guia-medo-de-falar-em-publico","conversion_origin":{"source":"Google","medium":"organic","value":null,"campaign":null,"channel":"Organic Search"}},"last_conversion":{"content":{"nome":"Jessica Maria","perfil":"","Interesse":"Curso de Leitura Dinâmica e Memorização","identificador":"ebook_7_teses_leitura","interesse":"Curso de Leitura Dinâmica e Memorização","created_at":"2019-12-03T16:17:10.725035Z","email_lead":"jessica.mr.silva11@gmail.com"},"created_at":"2019-12-03T13:17:10.725-03:00","cumulative_sum":"4","source":"ebook_7_teses_leitura","conversion_origin":{"source":"unknown","medium":"unknown","value":null,"campaign":"unknown","channel":"Unknown"}},"custom_fields":{"Interesse":"Curso de Leitura Dinâmica e Memorização"},"website":null,"personal_phone":null,"mobile_phone":null,"city":null,"state":null,"tags":null,"lead_stage":"Lead","last_marked_opportunity_date":null,"uuid":"50d4ec83-b545-4f3b-8550-ce0dd05d663e","fit_score":"d","interest":30}]}
--------------------
DATA: 2019-12-03 as 20:47:57
IP: 35.223.237.152
URL: www.methodus.com.br/facix2/_php/rdstation/webhook.php
REFERER: 
jessica.mr.silva11@gmail.com
--------------------
DATA: 2019-12-03 as 20:48:04
IP: 35.223.237.152
URL: www.methodus.com.br/facix2/_php/rdstation/webhook.php
REFERER: 
Observações:  / Interesse: Curso de Leitura Dinâmica e Memorização
--------------------
DATA: 2019-12-03 as 21:42:21
IP: 35.239.183.220
URL: www.methodus.com.br/facix2/_php/rdstation/webhook.php
REFERER: 
{"leads":[{"id":"732864595","email":"jessica.mr.silva11@gmail.com","name":"Jessica Maria","company":null,"job_title":null,"bio":null,"public_url":"http://rdstation.com.br/leads/public/50d4ec83-b545-4f3b-8550-ce0dd05d663e","created_at":"2019-12-03T12:14:38.732-03:00","opportunity":"false","number_conversions":"4","user":null,"first_conversion":{"content":{"identificador":"guia-medo-de-falar-em-publico","_rd_experiment_content_id":"","traffic_source":"encoded_eyJmaXJzdF9zZXNzaW9uIjp7InZhbHVlIjoiaHR0cHM6Ly93d3cuZ29vZ2xlLmNvbS8iLCJleHRyYV9wYXJhbXMiOnt9fSwiY3VycmVudF9zZXNzaW9uIjp7InZhbHVlIjoiaHR0cHM6Ly93d3cuZ29vZ2xlLmNvbS8iLCJleHRyYV9wYXJhbXMiOnt9fSwiY3JlYXRlZF9hdCI6MTU3NTM4NjA1NzMxMX0=","created_at":"2019-12-03T15:14:38.732761Z","ip":"201.159.153.240","email_lead":"jessica.mr.silva11@gmail.com","Nome":"Jessica Maria"},"created_at":"2019-12-03T12:14:38.732-03:00","cumulative_sum":"1","source":"guia-medo-de-falar-em-publico","conversion_origin":{"source":"Google","medium":"organic","value":null,"campaign":null,"channel":"Organic Search"}},"last_conversion":{"content":{"nome":"Jessica Maria","perfil":"","Interesse":"Curso de Leitura Dinâmica e Memorização","identificador":"ebook_7_teses_leitura","interesse":"Curso de Leitura Dinâmica e Memorização","created_at":"2019-12-03T16:17:10.725035Z","email_lead":"jessica.mr.silva11@gmail.com"},"created_at":"2019-12-03T13:17:10.725-03:00","cumulative_sum":"4","source":"ebook_7_teses_leitura","conversion_origin":{"source":"unknown","medium":"unknown","value":null,"campaign":"unknown","channel":"Unknown"}},"custom_fields":{"Interesse":"Curso de Leitura Dinâmica e Memorização"},"website":null,"personal_phone":null,"mobile_phone":null,"city":null,"state":null,"tags":null,"lead_stage":"Lead","last_marked_opportunity_date":null,"uuid":"50d4ec83-b545-4f3b-8550-ce0dd05d663e","fit_score":"d","interest":30}]}
--------------------
DATA: 2019-12-03 as 21:42:21
IP: 35.239.183.220
URL: www.methodus.com.br/facix2/_php/rdstation/webhook.php
REFERER: 
jessica.mr.silva11@gmail.com
--------------------
DATA: 2019-12-03 as 21:42:28
IP: 35.239.183.220
URL: www.methodus.com.br/facix2/_php/rdstation/webhook.php
REFERER: 
Observações:  / Interesse: Curso de Leitura Dinâmica e Memorização
--------------------
DATA: 2019-12-03 as 22:38:05
IP: 35.225.36.28
URL: www.methodus.com.br/facix2/_php/rdstation/webhook.php
REFERER: 
{"leads":[{"id":"732864595","email":"jessica.mr.silva11@gmail.com","name":"Jessica Maria","company":null,"job_title":null,"bio":null,"public_url":"http://rdstation.com.br/leads/public/50d4ec83-b545-4f3b-8550-ce0dd05d663e","created_at":"2019-12-03T12:14:38.732-03:00","opportunity":"false","number_conversions":"4","user":null,"first_conversion":{"content":{"identificador":"guia-medo-de-falar-em-publico","_rd_experiment_content_id":"","traffic_source":"encoded_eyJmaXJzdF9zZXNzaW9uIjp7InZhbHVlIjoiaHR0cHM6Ly93d3cuZ29vZ2xlLmNvbS8iLCJleHRyYV9wYXJhbXMiOnt9fSwiY3VycmVudF9zZXNzaW9uIjp7InZhbHVlIjoiaHR0cHM6Ly93d3cuZ29vZ2xlLmNvbS8iLCJleHRyYV9wYXJhbXMiOnt9fSwiY3JlYXRlZF9hdCI6MTU3NTM4NjA1NzMxMX0=","created_at":"2019-12-03T15:14:38.732761Z","ip":"201.159.153.240","email_lead":"jessica.mr.silva11@gmail.com","Nome":"Jessica Maria"},"created_at":"2019-12-03T12:14:38.732-03:00","cumulative_sum":"1","source":"guia-medo-de-falar-em-publico","conversion_origin":{"source":"Google","medium":"organic","value":null,"campaign":null,"channel":"Organic Search"}},"last_conversion":{"content":{"nome":"Jessica Maria","perfil":"","Interesse":"Curso de Leitura Dinâmica e Memorização","identificador":"ebook_7_teses_leitura","interesse":"Curso de Leitura Dinâmica e Memorização","created_at":"2019-12-03T16:17:10.725035Z","email_lead":"jessica.mr.silva11@gmail.com"},"created_at":"2019-12-03T13:17:10.725-03:00","cumulative_sum":"4","source":"ebook_7_teses_leitura","conversion_origin":{"source":"unknown","medium":"unknown","value":null,"campaign":"unknown","channel":"Unknown"}},"custom_fields":{"Interesse":"Curso de Leitura Dinâmica e Memorização"},"website":null,"personal_phone":null,"mobile_phone":null,"city":null,"state":null,"tags":null,"lead_stage":"Lead","last_marked_opportunity_date":null,"uuid":"50d4ec83-b545-4f3b-8550-ce0dd05d663e","fit_score":"d","interest":30}]}
--------------------
DATA: 2019-12-03 as 22:38:05
IP: 35.225.36.28
URL: www.methodus.com.br/facix2/_php/rdstation/webhook.php
REFERER: 
jessica.mr.silva11@gmail.com
--------------------
DATA: 2019-12-03 as 22:38:08
IP: 35.225.36.28
URL: www.methodus.com.br/facix2/_php/rdstation/webhook.php
REFERER: 
Observações:  / Interesse: Curso de Leitura Dinâmica e Memorização
--------------------
DATA: 2019-12-03 as 23:02:47
IP: 35.232.198.210
URL: www.methodus.com.br/facix2/_php/rdstation/webhook.php
REFERER: 
{"leads":[{"id":"731310916","email":"andressacapelasso@gmail.com","name":"Andressa Capelasso","company":null,"job_title":null,"bio":null,"public_url":"http://rdstation.com.br/leads/public/23eb9287-b238-41b8-b744-0c9799c890b4","created_at":"2019-12-02T10:28:12.536-03:00","opportunity":"false","number_conversions":"2","user":null,"first_conversion":{"content":{"identificador":"guia-medo-de-falar-em-publico","_rd_experiment_content_id":"","traffic_source":"encoded_eyJmaXJzdF9zZXNzaW9uIjp7InZhbHVlIjoidXRtX3NvdXJjZT1nb29nbGUmdXRtX21lZGl1bT1jcGMmdXRtX2NhbXBhaWduPWN1cnNvLWRlLW9yYXRvcmlhJmdjbGlkPUVBSWFJUW9iQ2hNSXJwVzFvb2lYNWdJVkVBeVJDaDNSb1FzRUVBQVlBeUFBRWdMMzlQRF9Cd0UiLCJleHRyYV9wYXJhbXMiOnt9fSwiY3VycmVudF9zZXNzaW9uIjp7InZhbHVlIjoidXRtX3NvdXJjZT1nb29nbGUmdXRtX21lZGl1bT1jcGMmdXRtX2NhbXBhaWduPWN1cnNvLWRlLW9yYXRvcmlhJmdjbGlkPUVBSWFJUW9iQ2hNSXJwVzFvb2lYNWdJVkVBeVJDaDNSb1FzRUVBQVlBeUFBRWdMMzlQRF9Cd0UiLCJleHRyYV9wYXJhbXMiOnt9fSwiY3JlYXRlZF9hdCI6MTU3NTI5MzM1NjM1Mn0=","created_at":"2019-12-02T13:28:12.536868Z","ip":"200.170.251.154","email_lead":"andressacapelasso@gmail.com","Nome":"Andressa Capelasso"},"created_at":"2019-12-02T10:28:12.536-03:00","cumulative_sum":"1","source":"guia-medo-de-falar-em-publico","conversion_origin":{"source":"google","medium":"cpc","value":null,"campaign":"curso-de-oratoria","channel":"Paid Search"}},"last_conversion":{"content":{"identificador":"guia-medo-de-falar-em-publico","_rd_experiment_content_id":"","traffic_source":"encoded_eyJmaXJzdF9zZXNzaW9uIjp7InZhbHVlIjoidXRtX3NvdXJjZT1nb29nbGUmdXRtX21lZGl1bT1jcGMmdXRtX2NhbXBhaWduPWN1cnNvLWRlLW9yYXRvcmlhJmdjbGlkPUVBSWFJUW9iQ2hNSXJwVzFvb2lYNWdJVkVBeVJDaDNSb1FzRUVBQVlBeUFBRWdMMzlQRF9Cd0UiLCJleHRyYV9wYXJhbXMiOnt9fSwiY3VycmVudF9zZXNzaW9uIjp7InZhbHVlIjoidXRtX3NvdXJjZT1nb29nbGUmdXRtX21lZGl1bT1jcGMmdXRtX2NhbXBhaWduPWN1cnNvLWRlLW9yYXRvcmlhJmdjbGlkPUVBSWFJUW9iQ2hNSXJwVzFvb2lYNWdJVkVBeVJDaDNSb1FzRUVBQVlBeUFBRWdMMzlQRF9Cd0UiLCJleHRyYV9wYXJhbXMiOnt9fSwiY3JlYXRlZF9hdCI6MTU3NTI5MzM1NjM1Mn0=","created_at":"2019-12-03T20:02:38.739731Z","ip":"168.90.121.228","email_lead":"andressacapelasso@gmail.com","Nome":"Andressa Capelasso"},"created_at":"2019-12-03T17:02:38.739-03:00","cumulative_sum":"2","source":"guia-medo-de-falar-em-publico","conversion_origin":{"source":"google","medium":"cpc","value":null,"campaign":"curso-de-oratoria","channel":"Paid Search"}},"custom_fields":{},"website":null,"personal_phone":null,"mobile_phone":null,"city":null,"state":null,"tags":null,"lead_stage":"Lead","last_marked_opportunity_date":null,"uuid":"23eb9287-b238-41b8-b744-0c9799c890b4","fit_score":"d","interest":15}]}
--------------------
DATA: 2019-12-03 as 23:02:47
IP: 35.232.198.210
URL: www.methodus.com.br/facix2/_php/rdstation/webhook.php
REFERER: 
andressacapelasso@gmail.com
--------------------
DATA: 2019-12-03 as 23:02:51
IP: 35.232.198.210
URL: www.methodus.com.br/facix2/_php/rdstation/webhook.php
REFERER: 
Observações: 
--------------------
DATA: 2019-12-03 as 23:04:16
IP: 35.222.71.161
URL: www.methodus.com.br/facix2/_php/rdstation/webhook.php
REFERER: 
{"leads":[{"id":"731310916","email":"andressacapelasso@gmail.com","name":"Andressa Capelasso","company":null,"job_title":null,"bio":null,"public_url":"http://rdstation.com.br/leads/public/23eb9287-b238-41b8-b744-0c9799c890b4","created_at":"2019-12-02T10:28:12.536-03:00","opportunity":"false","number_conversions":"3","user":null,"first_conversion":{"content":{"identificador":"guia-medo-de-falar-em-publico","_rd_experiment_content_id":"","traffic_source":"encoded_eyJmaXJzdF9zZXNzaW9uIjp7InZhbHVlIjoidXRtX3NvdXJjZT1nb29nbGUmdXRtX21lZGl1bT1jcGMmdXRtX2NhbXBhaWduPWN1cnNvLWRlLW9yYXRvcmlhJmdjbGlkPUVBSWFJUW9iQ2hNSXJwVzFvb2lYNWdJVkVBeVJDaDNSb1FzRUVBQVlBeUFBRWdMMzlQRF9Cd0UiLCJleHRyYV9wYXJhbXMiOnt9fSwiY3VycmVudF9zZXNzaW9uIjp7InZhbHVlIjoidXRtX3NvdXJjZT1nb29nbGUmdXRtX21lZGl1bT1jcGMmdXRtX2NhbXBhaWduPWN1cnNvLWRlLW9yYXRvcmlhJmdjbGlkPUVBSWFJUW9iQ2hNSXJwVzFvb2lYNWdJVkVBeVJDaDNSb1FzRUVBQVlBeUFBRWdMMzlQRF9Cd0UiLCJleHRyYV9wYXJhbXMiOnt9fSwiY3JlYXRlZF9hdCI6MTU3NTI5MzM1NjM1Mn0=","created_at":"2019-12-02T13:28:12.536868Z","ip":"200.170.251.154","email_lead":"andressacapelasso@gmail.com","Nome":"Andressa Capelasso"},"created_at":"2019-12-02T10:28:12.536-03:00","cumulative_sum":"1","source":"guia-medo-de-falar-em-publico","conversion_origin":{"source":"google","medium":"cpc","value":null,"campaign":"curso-de-oratoria","channel":"Paid Search"}},"last_conversion":{"content":{"identificador":"guia-medo-de-falar-em-publico","_rd_experiment_content_id":"","traffic_source":"encoded_eyJmaXJzdF9zZXNzaW9uIjp7InZhbHVlIjoidXRtX3NvdXJjZT1nb29nbGUmdXRtX21lZGl1bT1jcGMmdXRtX2NhbXBhaWduPWN1cnNvLWRlLW9yYXRvcmlhJmdjbGlkPUVBSWFJUW9iQ2hNSXJwVzFvb2lYNWdJVkVBeVJDaDNSb1FzRUVBQVlBeUFBRWdMMzlQRF9Cd0UiLCJleHRyYV9wYXJhbXMiOnt9fSwiY3VycmVudF9zZXNzaW9uIjp7InZhbHVlIjoidXRtX3NvdXJjZT1nb29nbGUmdXRtX21lZGl1bT1jcGMmdXRtX2NhbXBhaWduPWN1cnNvLWRlLW9yYXRvcmlhJmdjbGlkPUVBSWFJUW9iQ2hNSXJwVzFvb2lYNWdJVkVBeVJDaDNSb1FzRUVBQVlBeUFBRWdMMzlQRF9Cd0UiLCJleHRyYV9wYXJhbXMiOnt9fSwiY3JlYXRlZF9hdCI6MTU3NTI5MzM1NjM1Mn0=","created_at":"2019-12-03T20:04:06.396968Z","ip":"168.90.121.228","email_lead":"andressacapelasso@gmail.com","Nome":"Andressa Capelasso"},"created_at":"2019-12-03T17:04:06.396-03:00","cumulative_sum":"3","source":"guia-medo-de-falar-em-publico","conversion_origin":{"source":"google","medium":"cpc","value":null,"campaign":"curso-de-oratoria","channel":"Paid Search"}},"custom_fields":{},"website":null,"personal_phone":null,"mobile_phone":null,"city":null,"state":null,"tags":null,"lead_stage":"Lead","last_marked_opportunity_date":null,"uuid":"23eb9287-b238-41b8-b744-0c9799c890b4","fit_score":"d","interest":15}]}
--------------------
DATA: 2019-12-03 as 23:04:16
IP: 35.222.71.161
URL: www.methodus.com.br/facix2/_php/rdstation/webhook.php
REFERER: 
andressacapelasso@gmail.com
--------------------
DATA: 2019-12-03 as 23:04:19
IP: 35.222.71.161
URL: www.methodus.com.br/facix2/_php/rdstation/webhook.php
REFERER: 
Observações: 
--------------------
DATA: 2019-12-03 as 23:05:14
IP: 35.222.71.161
URL: www.methodus.com.br/facix2/_php/rdstation/webhook.php
REFERER: 
{"leads":[{"id":"731310916","email":"andressacapelasso@gmail.com","name":"Andressa Capelasso","company":null,"job_title":null,"bio":null,"public_url":"http://rdstation.com.br/leads/public/23eb9287-b238-41b8-b744-0c9799c890b4","created_at":"2019-12-02T10:28:12.536-03:00","opportunity":"false","number_conversions":"4","user":null,"first_conversion":{"content":{"identificador":"guia-medo-de-falar-em-publico","_rd_experiment_content_id":"","traffic_source":"encoded_eyJmaXJzdF9zZXNzaW9uIjp7InZhbHVlIjoidXRtX3NvdXJjZT1nb29nbGUmdXRtX21lZGl1bT1jcGMmdXRtX2NhbXBhaWduPWN1cnNvLWRlLW9yYXRvcmlhJmdjbGlkPUVBSWFJUW9iQ2hNSXJwVzFvb2lYNWdJVkVBeVJDaDNSb1FzRUVBQVlBeUFBRWdMMzlQRF9Cd0UiLCJleHRyYV9wYXJhbXMiOnt9fSwiY3VycmVudF9zZXNzaW9uIjp7InZhbHVlIjoidXRtX3NvdXJjZT1nb29nbGUmdXRtX21lZGl1bT1jcGMmdXRtX2NhbXBhaWduPWN1cnNvLWRlLW9yYXRvcmlhJmdjbGlkPUVBSWFJUW9iQ2hNSXJwVzFvb2lYNWdJVkVBeVJDaDNSb1FzRUVBQVlBeUFBRWdMMzlQRF9Cd0UiLCJleHRyYV9wYXJhbXMiOnt9fSwiY3JlYXRlZF9hdCI6MTU3NTI5MzM1NjM1Mn0=","created_at":"2019-12-02T13:28:12.536868Z","ip":"200.170.251.154","email_lead":"andressacapelasso@gmail.com","Nome":"Andressa Capelasso"},"created_at":"2019-12-02T10:28:12.536-03:00","cumulative_sum":"1","source":"guia-medo-de-falar-em-publico","conversion_origin":{"source":"google","medium":"cpc","value":null,"campaign":"curso-de-oratoria","channel":"Paid Search"}},"last_conversion":{"content":{"identificador":"guia-medo-de-falar-em-publico","_rd_experiment_content_id":"","traffic_source":"encoded_eyJmaXJzdF9zZXNzaW9uIjp7InZhbHVlIjoidXRtX3NvdXJjZT1nb29nbGUmdXRtX21lZGl1bT1jcGMmdXRtX2NhbXBhaWduPWN1cnNvLWRlLW9yYXRvcmlhJmdjbGlkPUVBSWFJUW9iQ2hNSXJwVzFvb2lYNWdJVkVBeVJDaDNSb1FzRUVBQVlBeUFBRWdMMzlQRF9Cd0UiLCJleHRyYV9wYXJhbXMiOnt9fSwiY3VycmVudF9zZXNzaW9uIjp7InZhbHVlIjoidXRtX3NvdXJjZT1nb29nbGUmdXRtX21lZGl1bT1jcGMmdXRtX2NhbXBhaWduPWN1cnNvLWRlLW9yYXRvcmlhJmdjbGlkPUVBSWFJUW9iQ2hNSXJwVzFvb2lYNWdJVkVBeVJDaDNSb1FzRUVBQVlBeUFBRWdMMzlQRF9Cd0UiLCJleHRyYV9wYXJhbXMiOnt9fSwiY3JlYXRlZF9hdCI6MTU3NTI5MzM1NjM1Mn0=","created_at":"2019-12-03T20:05:02.719955Z","ip":"168.90.121.228","email_lead":"andressacapelasso@gmail.com","Nome":"Andressa Capelasso"},"created_at":"2019-12-03T17:05:02.719-03:00","cumulative_sum":"4","source":"guia-medo-de-falar-em-publico","conversion_origin":{"source":"google","medium":"cpc","value":null,"campaign":"curso-de-oratoria","channel":"Paid Search"}},"custom_fields":{},"website":null,"personal_phone":null,"mobile_phone":null,"city":null,"state":null,"tags":null,"lead_stage":"Lead","last_marked_opportunity_date":null,"uuid":"23eb9287-b238-41b8-b744-0c9799c890b4","fit_score":"d","interest":15}]}
--------------------
DATA: 2019-12-03 as 23:05:14
IP: 35.222.71.161
URL: www.methodus.com.br/facix2/_php/rdstation/webhook.php
REFERER: 
andressacapelasso@gmail.com
--------------------
DATA: 2019-12-03 as 23:05:18
IP: 35.222.71.161
URL: www.methodus.com.br/facix2/_php/rdstation/webhook.php
REFERER: 
Observações: 
--------------------