
DATA: 2017-11-20 as 02:48:33
IP: 40.76.45.85
URL: www.methodus.com.br/facix2/_php/rdstation/webhook.php
REFERER: 
{"leads":[{"id":"232053779","email":"haroldobatisti@gmail.com","name":"Haroldo Batisti","company":null,"job_title":null,"bio":null,"public_url":"http://rdstation.com.br/leads/public/ab4c1339-b813-43a6-aa6e-dc8b361b9b45","created_at":"2017-11-19T21:48:21.000-02:00","opportunity":"false","number_conversions":"1","user":null,"first_conversion":{"content":{"identificador":"guia-medo-de-falar-em-publico","_rd_experiment_content_id":"","traffic_source":"encoded_eyJmaXJzdF9zZXNzaW9uIjp7InZhbHVlIjoiaHR0cHM6Ly93d3cuZ29vZ2xlLmNvbS5ici8iLCJleHRyYV9wYXJhbXMiOnt9fSwiY3VycmVudF9zZXNzaW9uIjp7InZhbHVlIjoiKG5vbmUpIiwiZXh0cmFfcGFyYW1zIjp7fX0sImNyZWF0ZWRfYXQiOjE1MTExMzUyNzc1Njl9","created_at":"2017-11-19 23:48:21 UTC","email_lead":"haroldobatisti@gmail.com","nome":"Haroldo Batisti "},"created_at":"2017-11-19T21:48:21.000-02:00","cumulative_sum":"1","source":"guia-medo-de-falar-em-publico","conversion_origin":{"source":"Google","medium":"organic","value":null,"campaign":null,"channel":"Organic Search"}},"last_conversion":{"content":{"identificador":"guia-medo-de-falar-em-publico","_rd_experiment_content_id":"","traffic_source":"encoded_eyJmaXJzdF9zZXNzaW9uIjp7InZhbHVlIjoiaHR0cHM6Ly93d3cuZ29vZ2xlLmNvbS5ici8iLCJleHRyYV9wYXJhbXMiOnt9fSwiY3VycmVudF9zZXNzaW9uIjp7InZhbHVlIjoiKG5vbmUpIiwiZXh0cmFfcGFyYW1zIjp7fX0sImNyZWF0ZWRfYXQiOjE1MTExMzUyNzc1Njl9","created_at":"2017-11-19 23:48:21 UTC","email_lead":"haroldobatisti@gmail.com","nome":"Haroldo Batisti "},"created_at":"2017-11-19T21:48:21.000-02:00","cumulative_sum":"1","source":"guia-medo-de-falar-em-publico","conversion_origin":{"source":"Google","medium":"organic","value":null,"campaign":null,"channel":"Organic Search"}},"custom_fields":{},"website":null,"personal_phone":null,"mobile_phone":null,"city":null,"state":null,"tags":null,"lead_stage":"Lead","last_marked_opportunity_date":null,"uuid":"ab4c1339-b813-43a6-aa6e-dc8b361b9b45","fit_score":"d","interest":0}]}
--------------------
DATA: 2017-11-20 as 02:48:33
IP: 40.76.45.85
URL: www.methodus.com.br/facix2/_php/rdstation/webhook.php
REFERER: 
haroldobatisti@gmail.com
--------------------
DATA: 2017-11-20 as 02:48:37
IP: 40.76.45.85
URL: www.methodus.com.br/facix2/_php/rdstation/webhook.php
REFERER: 
Observações: 
--------------------
DATA: 2017-11-20 as 02:54:36
IP: 40.76.45.85
URL: www.methodus.com.br/facix2/_php/rdstation/webhook.php
REFERER: 
{"leads":[{"id":"232054578","email":"fernandacjesus@hotmail.com","name":"Fernanda C Jesus","company":null,"job_title":null,"bio":null,"public_url":"http://rdstation.com.br/leads/public/c6b45208-c604-4236-8b19-697326e550c1","created_at":"2017-11-19T21:54:10.000-02:00","opportunity":"false","number_conversions":"1","user":null,"first_conversion":{"content":{"identificador":"guia-medo-de-falar-em-publico","_rd_experiment_content_id":"","traffic_source":"encoded_eyJmaXJzdF9zZXNzaW9uIjp7InZhbHVlIjoiaHR0cHM6Ly93d3cuZ29vZ2xlLmNvbS5ici8iLCJleHRyYV9wYXJhbXMiOnt9fSwiY3VycmVudF9zZXNzaW9uIjp7InZhbHVlIjoiKG5vbmUpIiwiZXh0cmFfcGFyYW1zIjp7fX0sImNyZWF0ZWRfYXQiOjE1MTExMzU2Mzg1MTl9","created_at":"2017-11-19 23:54:10 UTC","email_lead":"fernandacjesus@hotmail.com","nome":"Fernanda C Jesus"},"created_at":"2017-11-19T21:54:10.000-02:00","cumulative_sum":"1","source":"guia-medo-de-falar-em-publico","conversion_origin":{"source":"Google","medium":"organic","value":null,"campaign":null,"channel":"Organic Search"}},"last_conversion":{"content":{"identificador":"guia-medo-de-falar-em-publico","_rd_experiment_content_id":"","traffic_source":"encoded_eyJmaXJzdF9zZXNzaW9uIjp7InZhbHVlIjoiaHR0cHM6Ly93d3cuZ29vZ2xlLmNvbS5ici8iLCJleHRyYV9wYXJhbXMiOnt9fSwiY3VycmVudF9zZXNzaW9uIjp7InZhbHVlIjoiKG5vbmUpIiwiZXh0cmFfcGFyYW1zIjp7fX0sImNyZWF0ZWRfYXQiOjE1MTExMzU2Mzg1MTl9","created_at":"2017-11-19 23:54:10 UTC","email_lead":"fernandacjesus@hotmail.com","nome":"Fernanda C Jesus"},"created_at":"2017-11-19T21:54:10.000-02:00","cumulative_sum":"1","source":"guia-medo-de-falar-em-publico","conversion_origin":{"source":"Google","medium":"organic","value":null,"campaign":null,"channel":"Organic Search"}},"custom_fields":{},"website":null,"personal_phone":null,"mobile_phone":null,"city":null,"state":null,"tags":null,"lead_stage":"Lead","last_marked_opportunity_date":null,"uuid":"c6b45208-c604-4236-8b19-697326e550c1","fit_score":"d","interest":15}]}
--------------------
DATA: 2017-11-20 as 02:54:36
IP: 40.76.45.85
URL: www.methodus.com.br/facix2/_php/rdstation/webhook.php
REFERER: 
fernandacjesus@hotmail.com
--------------------
DATA: 2017-11-20 as 02:54:39
IP: 40.76.45.85
URL: www.methodus.com.br/facix2/_php/rdstation/webhook.php
REFERER: 
Observações: 
--------------------
DATA: 2017-11-20 as 04:57:34
IP: 40.76.33.121
URL: www.methodus.com.br/facix2/_php/rdstation/webhook.php
REFERER: 
{"leads":[{"id":"232069760","email":"silveirahigor@gmail.com","name":"hg","company":null,"job_title":null,"bio":null,"public_url":"http://rdstation.com.br/leads/public/0ed49919-7fb8-450d-814b-453479ab8de0","created_at":"2017-11-19T23:42:16.000-02:00","opportunity":"false","number_conversions":"3","user":null,"first_conversion":{"content":{"nome":"h","perfil":"","interesse":"Curso de Leitura Dinâmica à Distância","identificador":"investimento","created_at":"2017-11-20 01:42:16 UTC","email_lead":"silveirahigor@gmail.com"},"created_at":"2017-11-19T23:42:16.000-02:00","cumulative_sum":"1","source":"investimento","conversion_origin":{"source":"unknown","medium":"unknown","value":null,"campaign":"unknown","channel":"Unknown"}},"last_conversion":{"content":{"identificador":"guia-medo-de-falar-em-publico","_rd_experiment_content_id":"","traffic_source":"encoded_eyJmaXJzdF9zZXNzaW9uIjp7InZhbHVlIjoiaHR0cDovL3Iuc2VhcmNoLnlhaG9vLmNvbS9feWx0PUEwTEVWdlFJTWhKYXd5b0F0NnRrdGlFNSIsImV4dHJhX3BhcmFtcyI6e319LCJjdXJyZW50X3Nlc3Npb24iOnsidmFsdWUiOiIobm9uZSkiLCJleHRyYV9wYXJhbXMiOnt9fSwiY3JlYXRlZF9hdCI6MTUxMTE0Mjk2NDEzOH0=","created_at":"2017-11-20 01:56:57 UTC","email_lead":"silveirahigor@gmail.com","nome":"hg"},"created_at":"2017-11-19T23:56:57.000-02:00","cumulative_sum":"3","source":"guia-medo-de-falar-em-publico","conversion_origin":{"source":"(direct)","medium":"(none)","value":null,"campaign":"(direct)","channel":"Direct"}},"custom_fields":{},"website":null,"personal_phone":null,"mobile_phone":null,"city":null,"state":null,"tags":null,"lead_stage":"Lead","last_marked_opportunity_date":null,"uuid":"0ed49919-7fb8-450d-814b-453479ab8de0","fit_score":"d","interest":15}]}
--------------------
DATA: 2017-11-20 as 04:57:34
IP: 40.76.33.121
URL: www.methodus.com.br/facix2/_php/rdstation/webhook.php
REFERER: 
silveirahigor@gmail.com
--------------------
DATA: 2017-11-20 as 04:57:38
IP: 40.76.33.121
URL: www.methodus.com.br/facix2/_php/rdstation/webhook.php
REFERER: 
Observações: 
--------------------
DATA: 2017-11-20 as 17:00:24
IP: 40.76.45.85
URL: www.methodus.com.br/facix2/_php/rdstation/webhook.php
REFERER: 
{"leads":[{"id":"129351251","email":"silvio.gyl@gmail.com","name":"Silvio Gil Pinto","company":null,"job_title":null,"bio":null,"public_url":"http://rdstation.com.br/leads/public/eedd6b0c-a737-4f43-bc41-13cbe4463845","created_at":"2017-01-17T17:21:41.000-02:00","opportunity":"false","number_conversions":"3","user":null,"first_conversion":{"content":{"nome":"Silvio Gil Pinto","perfil":"Sou um profissional de vendas","interesse":"Curso de Oratória","identificador":"investimento","created_at":"2017-01-17 19:21:41 UTC","email_lead":"silvio.gyl@gmail.com"},"created_at":"2017-01-17T17:21:41.000-02:00","cumulative_sum":"1","source":"investimento","conversion_origin":{"source":"unknown","medium":"unknown","value":null,"campaign":"unknown","channel":"Unknown"}},"last_conversion":{"content":{"identificador":"guia-medo-de-falar-em-publico","_rd_experiment_content_id":"","traffic_source":"encoded_eyJmaXJzdF9zZXNzaW9uIjp7InZhbHVlIjoiMTIxNjkwMTM1LjE1MTExODYyOTAuMS4xLnV0bWNzcj1SRCUyMFN0YXRpb258dXRtY2NuPW9yYXRvcmlhXzVfZS1tYWlsX3Bvc192ZXJfaW52ZXN0aW1lbnRvX2UtYm9va19ndWlhX21lZG9fZGVfZmFsYXJfZW1fcHVibGljb3x1dG1jbWQ9ZW1haWwiLCJleHRyYV9wYXJhbXMiOnt9fSwiY3VycmVudF9zZXNzaW9uIjp7InZhbHVlIjoiMTIxNjkwMTM1LjE1MTExODYyOTAuMS4xLnV0bWNzcj1SRCUyMFN0YXRpb258dXRtY2NuPW9yYXRvcmlhXzVfZS1tYWlsX3Bvc192ZXJfaW52ZXN0aW1lbnRvX2UtYm9va19ndWlhX21lZG9fZGVfZmFsYXJfZW1fcHVibGljb3x1dG1jbWQ9ZW1haWwiLCJleHRyYV9wYXJhbXMiOnt9fSwiY3JlYXRlZF9hdCI6MTUxMTE4NjI5MzgwOX0=","utm_medium":"email","utm_source":"RD Station","created_at":"2017-11-20 13:59:38 UTC","email_lead":"silvio.gyl@gmail.com","nome":"Silvio Gil Pinto"},"created_at":"2017-11-20T11:59:38.000-02:00","cumulative_sum":"3","source":"guia-medo-de-falar-em-publico","conversion_origin":{"source":"RD Station","medium":"email","value":null,"campaign":"oratoria_5_e-mail_pos_ver_investimento_e-book_guia_medo_de_falar_em_publico","channel":"Email"}},"custom_fields":{"perfil":"Sou um profissional de vendas"},"website":null,"personal_phone":null,"mobile_phone":null,"city":null,"state":null,"tags":null,"lead_stage":"Lead","last_marked_opportunity_date":null,"uuid":"eedd6b0c-a737-4f43-bc41-13cbe4463845","fit_score":"d","interest":0}]}
--------------------
DATA: 2017-11-20 as 17:00:24
IP: 40.76.45.85
URL: www.methodus.com.br/facix2/_php/rdstation/webhook.php
REFERER: 
silvio.gyl@gmail.com
--------------------
DATA: 2017-11-20 as 17:00:28
IP: 40.76.45.85
URL: www.methodus.com.br/facix2/_php/rdstation/webhook.php
REFERER: 
Observações:  / perfil: Sou um profissional de vendas
--------------------
DATA: 2017-11-20 as 17:01:31
IP: 40.76.45.85
URL: www.methodus.com.br/facix2/_php/rdstation/webhook.php
REFERER: 
{"leads":[{"id":"129351251","email":"silvio.gyl@gmail.com","name":"Silvio Gil Pinto","company":null,"job_title":null,"bio":null,"public_url":"http://rdstation.com.br/leads/public/eedd6b0c-a737-4f43-bc41-13cbe4463845","created_at":"2017-01-17T17:21:41.000-02:00","opportunity":"false","number_conversions":"3","user":null,"first_conversion":{"content":{"nome":"Silvio Gil Pinto","perfil":"Sou um profissional de vendas","interesse":"Curso de Oratória","identificador":"investimento","created_at":"2017-01-17 19:21:41 UTC","email_lead":"silvio.gyl@gmail.com"},"created_at":"2017-01-17T17:21:41.000-02:00","cumulative_sum":"1","source":"investimento","conversion_origin":{"source":"unknown","medium":"unknown","value":null,"campaign":"unknown","channel":"Unknown"}},"last_conversion":{"content":{"identificador":"guia-medo-de-falar-em-publico","_rd_experiment_content_id":"","traffic_source":"encoded_eyJmaXJzdF9zZXNzaW9uIjp7InZhbHVlIjoiMTIxNjkwMTM1LjE1MTExODYyOTAuMS4xLnV0bWNzcj1SRCUyMFN0YXRpb258dXRtY2NuPW9yYXRvcmlhXzVfZS1tYWlsX3Bvc192ZXJfaW52ZXN0aW1lbnRvX2UtYm9va19ndWlhX21lZG9fZGVfZmFsYXJfZW1fcHVibGljb3x1dG1jbWQ9ZW1haWwiLCJleHRyYV9wYXJhbXMiOnt9fSwiY3VycmVudF9zZXNzaW9uIjp7InZhbHVlIjoiMTIxNjkwMTM1LjE1MTExODYyOTAuMS4xLnV0bWNzcj1SRCUyMFN0YXRpb258dXRtY2NuPW9yYXRvcmlhXzVfZS1tYWlsX3Bvc192ZXJfaW52ZXN0aW1lbnRvX2UtYm9va19ndWlhX21lZG9fZGVfZmFsYXJfZW1fcHVibGljb3x1dG1jbWQ9ZW1haWwiLCJleHRyYV9wYXJhbXMiOnt9fSwiY3JlYXRlZF9hdCI6MTUxMTE4NjI5MzgwOX0=","utm_medium":"email","utm_source":"RD Station","created_at":"2017-11-20 13:59:38 UTC","email_lead":"silvio.gyl@gmail.com","nome":"Silvio Gil Pinto"},"created_at":"2017-11-20T11:59:38.000-02:00","cumulative_sum":"3","source":"guia-medo-de-falar-em-publico","conversion_origin":{"source":"RD Station","medium":"email","value":null,"campaign":"oratoria_5_e-mail_pos_ver_investimento_e-book_guia_medo_de_falar_em_publico","channel":"Email"}},"custom_fields":{"perfil":"Sou um profissional de vendas"},"website":null,"personal_phone":null,"mobile_phone":null,"city":null,"state":null,"tags":null,"lead_stage":"Lead","last_marked_opportunity_date":null,"uuid":"eedd6b0c-a737-4f43-bc41-13cbe4463845","fit_score":"d","interest":15}]}
--------------------
DATA: 2017-11-20 as 17:01:31
IP: 40.76.45.85
URL: www.methodus.com.br/facix2/_php/rdstation/webhook.php
REFERER: 
silvio.gyl@gmail.com
--------------------
DATA: 2017-11-20 as 17:01:34
IP: 40.76.45.85
URL: www.methodus.com.br/facix2/_php/rdstation/webhook.php
REFERER: 
Observações:  / perfil: Sou um profissional de vendas
--------------------