
DATA: 2018-11-28 as 23:41:25
IP: 35.221.20.102
URL: www.methodus.com.br/facix2/_php/rdstation/webhook.php
REFERER: 
{"leads":[{"id":"431594841","email":"becca.janeli@gmail.com","name":"Rebecca J Santos","company":null,"job_title":null,"bio":null,"public_url":"http://rdstation.com.br/leads/public/5f7ae011-1de4-4693-852f-ef0a3d87c2e2","created_at":"2018-11-28T13:25:42.000-02:00","opportunity":"false","number_conversions":"4","user":null,"first_conversion":{"content":{"nome":"rebecca","perfil":"","Interesse":"Curso de Administração do Tempo","identificador":"investimento","interesse":"Curso de Administração do Tempo","created_at":"2018-11-28 15:25:42 UTC","email_lead":"becca.janeli@gmail.com"},"created_at":"2018-11-28T13:25:42.000-02:00","cumulative_sum":"1","source":"investimento","conversion_origin":{"source":"unknown","medium":"unknown","value":null,"campaign":"unknown","channel":"Unknown"}},"last_conversion":{"content":{"identificador":"administracao-do-tempo-infografico-5-passos-infaliveis-para-realizar-grandes-sonhos","_rd_experiment_content_id":"","traffic_source":"encoded_eyJmaXJzdF9zZXNzaW9uIjp7InZhbHVlIjoiaHR0cHM6Ly93d3cuZ29vZ2xlLmNvbS8iLCJleHRyYV9wYXJhbXMiOnt9fSwiY3VycmVudF9zZXNzaW9uIjp7InZhbHVlIjoiaHR0cHM6Ly93d3cuZ29vZ2xlLmNvbS8iLCJleHRyYV9wYXJhbXMiOnt9fSwiY3JlYXRlZF9hdCI6MTU0MzQzNzU3MzYyNn0=","created_at":"2018-11-28 20:40:11 UTC","ip":"189.33.213.227","email_lead":"becca.janeli@gmail.com","Nome":"Rebecca J Santos"},"created_at":"2018-11-28T18:40:11.000-02:00","cumulative_sum":"4","source":"administracao-do-tempo-infografico-5-passos-infaliveis-para-realizar-grandes-sonhos","conversion_origin":{"source":"Google","medium":"organic","value":null,"campaign":null,"channel":"Organic Search"}},"custom_fields":{"Interesse":"Curso de Administração do Tempo"},"website":null,"personal_phone":null,"mobile_phone":null,"city":null,"state":null,"tags":null,"lead_stage":"Lead","last_marked_opportunity_date":null,"uuid":"5f7ae011-1de4-4693-852f-ef0a3d87c2e2","fit_score":"d","interest":0}]}
--------------------
DATA: 2018-11-28 as 23:41:25
IP: 35.221.20.102
URL: www.methodus.com.br/facix2/_php/rdstation/webhook.php
REFERER: 
becca.janeli@gmail.com
--------------------
DATA: 2018-11-28 as 23:41:28
IP: 35.221.20.102
URL: www.methodus.com.br/facix2/_php/rdstation/webhook.php
REFERER: 
Observações:  / Interesse: Curso de Administração do Tempo
--------------------
DATA: 2018-11-28 as 23:43:38
IP: 35.230.163.214
URL: www.methodus.com.br/facix2/_php/rdstation/webhook.php
REFERER: 
{"leads":[{"id":"431594841","email":"becca.janeli@gmail.com","name":"Rebecca J Santos","company":null,"job_title":null,"bio":null,"public_url":"http://rdstation.com.br/leads/public/5f7ae011-1de4-4693-852f-ef0a3d87c2e2","created_at":"2018-11-28T13:25:42.000-02:00","opportunity":"false","number_conversions":"4","user":null,"first_conversion":{"content":{"nome":"rebecca","perfil":"","Interesse":"Curso de Administração do Tempo","identificador":"investimento","interesse":"Curso de Administração do Tempo","created_at":"2018-11-28 15:25:42 UTC","email_lead":"becca.janeli@gmail.com"},"created_at":"2018-11-28T13:25:42.000-02:00","cumulative_sum":"1","source":"investimento","conversion_origin":{"source":"unknown","medium":"unknown","value":null,"campaign":"unknown","channel":"Unknown"}},"last_conversion":{"content":{"identificador":"administracao-do-tempo-infografico-5-passos-infaliveis-para-realizar-grandes-sonhos","_rd_experiment_content_id":"","traffic_source":"encoded_eyJmaXJzdF9zZXNzaW9uIjp7InZhbHVlIjoiaHR0cHM6Ly93d3cuZ29vZ2xlLmNvbS8iLCJleHRyYV9wYXJhbXMiOnt9fSwiY3VycmVudF9zZXNzaW9uIjp7InZhbHVlIjoiaHR0cHM6Ly93d3cuZ29vZ2xlLmNvbS8iLCJleHRyYV9wYXJhbXMiOnt9fSwiY3JlYXRlZF9hdCI6MTU0MzQzNzU3MzYyNn0=","created_at":"2018-11-28 20:40:11 UTC","ip":"189.33.213.227","email_lead":"becca.janeli@gmail.com","Nome":"Rebecca J Santos"},"created_at":"2018-11-28T18:40:11.000-02:00","cumulative_sum":"4","source":"administracao-do-tempo-infografico-5-passos-infaliveis-para-realizar-grandes-sonhos","conversion_origin":{"source":"Google","medium":"organic","value":null,"campaign":null,"channel":"Organic Search"}},"custom_fields":{"Interesse":"Curso de Administração do Tempo"},"website":null,"personal_phone":null,"mobile_phone":null,"city":null,"state":null,"tags":null,"lead_stage":"Lead","last_marked_opportunity_date":null,"uuid":"5f7ae011-1de4-4693-852f-ef0a3d87c2e2","fit_score":"d","interest":15}]}
--------------------
DATA: 2018-11-28 as 23:43:38
IP: 35.230.163.214
URL: www.methodus.com.br/facix2/_php/rdstation/webhook.php
REFERER: 
becca.janeli@gmail.com
--------------------
DATA: 2018-11-28 as 23:43:42
IP: 35.230.163.214
URL: www.methodus.com.br/facix2/_php/rdstation/webhook.php
REFERER: 
Observações:  / Interesse: Curso de Administração do Tempo
--------------------
DATA: 2018-11-28 as 23:51:32
IP: 35.230.163.214
URL: www.methodus.com.br/facix2/_php/rdstation/webhook.php
REFERER: 
{"leads":[{"id":"431594841","email":"becca.janeli@gmail.com","name":"Rebecca J Santos","company":null,"job_title":null,"bio":null,"public_url":"http://rdstation.com.br/leads/public/5f7ae011-1de4-4693-852f-ef0a3d87c2e2","created_at":"2018-11-28T13:25:42.000-02:00","opportunity":"false","number_conversions":"4","user":null,"first_conversion":{"content":{"nome":"rebecca","perfil":"","Interesse":"Curso de Administração do Tempo","identificador":"investimento","interesse":"Curso de Administração do Tempo","created_at":"2018-11-28 15:25:42 UTC","email_lead":"becca.janeli@gmail.com"},"created_at":"2018-11-28T13:25:42.000-02:00","cumulative_sum":"1","source":"investimento","conversion_origin":{"source":"unknown","medium":"unknown","value":null,"campaign":"unknown","channel":"Unknown"}},"last_conversion":{"content":{"identificador":"administracao-do-tempo-infografico-5-passos-infaliveis-para-realizar-grandes-sonhos","_rd_experiment_content_id":"","traffic_source":"encoded_eyJmaXJzdF9zZXNzaW9uIjp7InZhbHVlIjoiaHR0cHM6Ly93d3cuZ29vZ2xlLmNvbS8iLCJleHRyYV9wYXJhbXMiOnt9fSwiY3VycmVudF9zZXNzaW9uIjp7InZhbHVlIjoiaHR0cHM6Ly93d3cuZ29vZ2xlLmNvbS8iLCJleHRyYV9wYXJhbXMiOnt9fSwiY3JlYXRlZF9hdCI6MTU0MzQzNzU3MzYyNn0=","created_at":"2018-11-28 20:40:11 UTC","ip":"189.33.213.227","email_lead":"becca.janeli@gmail.com","Nome":"Rebecca J Santos"},"created_at":"2018-11-28T18:40:11.000-02:00","cumulative_sum":"4","source":"administracao-do-tempo-infografico-5-passos-infaliveis-para-realizar-grandes-sonhos","conversion_origin":{"source":"Google","medium":"organic","value":null,"campaign":null,"channel":"Organic Search"}},"custom_fields":{"Interesse":"Curso de Administração do Tempo"},"website":null,"personal_phone":null,"mobile_phone":null,"city":null,"state":null,"tags":null,"lead_stage":"Lead","last_marked_opportunity_date":null,"uuid":"5f7ae011-1de4-4693-852f-ef0a3d87c2e2","fit_score":"d","interest":15}]}
--------------------
DATA: 2018-11-28 as 23:51:32
IP: 35.230.163.214
URL: www.methodus.com.br/facix2/_php/rdstation/webhook.php
REFERER: 
becca.janeli@gmail.com
--------------------
DATA: 2018-11-28 as 23:51:36
IP: 35.230.163.214
URL: www.methodus.com.br/facix2/_php/rdstation/webhook.php
REFERER: 
Observações:  / Interesse: Curso de Administração do Tempo
--------------------