
DATA: 2019-08-04 as 03:13:57
IP: 104.154.186.67
URL: www.methodus.com.br/facix2/_php/rdstation/webhook.php
REFERER: 
{"leads":[{"id":"613732440","email":"luana.fisioterapia95@gmail.com","name":"Luana Rodrigues","company":null,"job_title":null,"bio":null,"public_url":"http://rdstation.com.br/leads/public/f803dd86-8c5b-424e-942c-0566626a8a39","created_at":"2019-08-03T21:12:57.597-03:00","opportunity":"false","number_conversions":"3","user":null,"first_conversion":{"content":{"identificador":"investimento","traffic_source":"encoded_eyJmaXJzdF9zZXNzaW9uIjp7InZhbHVlIjoiaHR0cHM6Ly93d3cuZ29vZ2xlLmNvbS8iLCJleHRyYV9wYXJhbXMiOnt9fSwiY3VycmVudF9zZXNzaW9uIjp7InZhbHVlIjoiaHR0cHM6Ly93d3cuZ29vZ2xlLmNvbS8iLCJleHRyYV9wYXJhbXMiOnt9fSwiY3JlYXRlZF9hdCI6MTU2NDg3NzI5MDA3M30=","a":"aluno","metodo":"cadastro","origem":"Investimento","curso":"5","nome":"Luana de Lima Rodrigues","form_url":"https://www.methodus.com.br/oratoria/5-curso.html","page_title":"CURSO DE ORATÓRIA - Como falar em público bem e fazer apresentação","email_lead":"luana.fisioterapia95@gmail.com"},"created_at":"2019-08-03T21:12:57.617-03:00","cumulative_sum":"1","source":"investimento","conversion_origin":{"source":"Google","medium":"organic","value":null,"campaign":null,"channel":"Organic Search"}},"last_conversion":{"content":{"identificador":"guia-medo-de-falar-em-publico","_rd_experiment_content_id":"","traffic_source":"encoded_eyJmaXJzdF9zZXNzaW9uIjp7InZhbHVlIjoiaHR0cHM6Ly93d3cuZ29vZ2xlLmNvbS8iLCJleHRyYV9wYXJhbXMiOnt9fSwiY3VycmVudF9zZXNzaW9uIjp7InZhbHVlIjoiaHR0cHM6Ly93d3cuZ29vZ2xlLmNvbS8iLCJleHRyYV9wYXJhbXMiOnt9fSwiY3JlYXRlZF9hdCI6MTU2NDg3NzU4NTI2NH0=","created_at":"2019-08-04T00:13:44.778602Z","ip":"201.0.222.78","email_lead":"luana.fisioterapia95@gmail.com","Nome":"Luana Rodrigues"},"created_at":"2019-08-03T21:13:44.778-03:00","cumulative_sum":"3","source":"guia-medo-de-falar-em-publico","conversion_origin":{"source":"Google","medium":"organic","value":null,"campaign":null,"channel":"Organic Search"}},"custom_fields":{"Interesse":"Curso de Oratória"},"website":null,"personal_phone":null,"mobile_phone":null,"city":null,"state":null,"tags":null,"lead_stage":"Lead","last_marked_opportunity_date":null,"uuid":"f803dd86-8c5b-424e-942c-0566626a8a39","fit_score":"d","interest":0}]}
--------------------
DATA: 2019-08-04 as 03:13:57
IP: 104.154.186.67
URL: www.methodus.com.br/facix2/_php/rdstation/webhook.php
REFERER: 
luana.fisioterapia95@gmail.com
--------------------
DATA: 2019-08-04 as 03:14:01
IP: 104.154.186.67
URL: www.methodus.com.br/facix2/_php/rdstation/webhook.php
REFERER: 
Observações:  / Interesse: Curso de Oratória
--------------------