
DATA: 2017-10-22 as 15:56:53
IP: 13.90.205.227
URL: www.methodus.com.br/facix2/_php/rdstation/webhook.php
REFERER: 
{"leads":[{"id":"220302391","email":"matheus.massaaki.niwa@gmail.com","name":"matheus","company":null,"job_title":null,"bio":null,"public_url":"http://rdstation.com.br/leads/public/e1063eaa-8fd3-41bb-a678-43e6964cc455","created_at":"2017-10-22T10:56:46.000-02:00","opportunity":"false","number_conversions":"1","user":null,"first_conversion":{"content":{"identificador":"estudar-so-e-dificil-para-quem-nao-tem-tecnica","_rd_experiment_content_id":"","traffic_source":"encoded_eyJmaXJzdF9zZXNzaW9uIjp7InZhbHVlIjoiaHR0cHM6Ly93d3cuZ29vZ2xlLmNvbS5ici8iLCJleHRyYV9wYXJhbXMiOnt9fSwiY3VycmVudF9zZXNzaW9uIjp7InZhbHVlIjoiKG5vbmUpIiwiZXh0cmFfcGFyYW1zIjp7fX0sImNyZWF0ZWRfYXQiOjE1MDg2NzY5ODAxMTh9","created_at":"2017-10-22 12:56:46 UTC","email_lead":"matheus.massaaki.niwa@gmail.com","nome":"matheus"},"created_at":"2017-10-22T10:56:46.000-02:00","cumulative_sum":"1","source":"estudar-so-e-dificil-para-quem-nao-tem-tecnica","conversion_origin":{"source":"Google","medium":"organic","value":null,"campaign":null,"channel":"Organic Search"}},"last_conversion":{"content":{"identificador":"estudar-so-e-dificil-para-quem-nao-tem-tecnica","_rd_experiment_content_id":"","traffic_source":"encoded_eyJmaXJzdF9zZXNzaW9uIjp7InZhbHVlIjoiaHR0cHM6Ly93d3cuZ29vZ2xlLmNvbS5ici8iLCJleHRyYV9wYXJhbXMiOnt9fSwiY3VycmVudF9zZXNzaW9uIjp7InZhbHVlIjoiKG5vbmUpIiwiZXh0cmFfcGFyYW1zIjp7fX0sImNyZWF0ZWRfYXQiOjE1MDg2NzY5ODAxMTh9","created_at":"2017-10-22 12:56:46 UTC","email_lead":"matheus.massaaki.niwa@gmail.com","nome":"matheus"},"created_at":"2017-10-22T10:56:46.000-02:00","cumulative_sum":"1","source":"estudar-so-e-dificil-para-quem-nao-tem-tecnica","conversion_origin":{"source":"Google","medium":"organic","value":null,"campaign":null,"channel":"Organic Search"}},"custom_fields":{},"website":null,"personal_phone":null,"mobile_phone":null,"city":null,"state":null,"tags":null,"lead_stage":"Lead","last_marked_opportunity_date":null,"uuid":"e1063eaa-8fd3-41bb-a678-43e6964cc455","fit_score":"d","interest":0}]}
--------------------
DATA: 2017-10-22 as 15:56:53
IP: 13.90.205.227
URL: www.methodus.com.br/facix2/_php/rdstation/webhook.php
REFERER: 
matheus.massaaki.niwa@gmail.com
--------------------
DATA: 2017-10-22 as 15:56:57
IP: 13.90.205.227
URL: www.methodus.com.br/facix2/_php/rdstation/webhook.php
REFERER: 
Observações: 
--------------------