
DATA: 2019-05-14 as 23:32:23
IP: 35.232.161.21
URL: www.methodus.com.br/facix2/_php/rdstation/webhook.php
REFERER: 
{"leads":[{"id":"543478070","email":"jordanacfpinto@gmail.com","name":"Jordana Pinto","company":null,"job_title":null,"bio":null,"public_url":"http://rdstation.com.br/leads/public/59f26803-5382-42a6-8a2a-cd1a85e83fec","created_at":"2019-05-14T16:05:18.060-03:00","opportunity":"false","number_conversions":"3","user":null,"first_conversion":{"content":{"identificador":"as-7-teses-da-leitura-dinamica-imagem-1","_rd_experiment_content_id":"","traffic_source":"encoded_eyJmaXJzdF9zZXNzaW9uIjp7InZhbHVlIjoiaHR0cHM6Ly93d3cuZ29vZ2xlLmNvbS8iLCJleHRyYV9wYXJhbXMiOnt9fSwiY3VycmVudF9zZXNzaW9uIjp7InZhbHVlIjoiaHR0cHM6Ly93d3cuZ29vZ2xlLmNvbS8iLCJleHRyYV9wYXJhbXMiOnt9fSwiY3JlYXRlZF9hdCI6MTU1Nzg2MDY4NDgzMH0=","created_at":"2019-05-14T19:05:18.060717Z","ip":"23.62.239.149","email_lead":"jordanacfpinto@gmail.com","Nome":"Jordana Pinto"},"created_at":"2019-05-14T16:05:18.060-03:00","cumulative_sum":"1","source":"as-7-teses-da-leitura-dinamica-imagem-1","conversion_origin":{"source":"Google","medium":"organic","value":null,"campaign":null,"channel":"Organic Search"}},"last_conversion":{"content":{"identificador":"administracao-do-tempo-infografico-5-passos-infaliveis-para-realizar-grandes-sonhos","_rd_experiment_content_id":"","traffic_source":"encoded_eyJmaXJzdF9zZXNzaW9uIjp7InZhbHVlIjoiaHR0cHM6Ly93d3cuZ29vZ2xlLmNvbS8iLCJleHRyYV9wYXJhbXMiOnt9fSwiY3VycmVudF9zZXNzaW9uIjp7InZhbHVlIjoiaHR0cHM6Ly93d3cubWV0aG9kdXMuY29tLmJyL2MvMjE3L0FzLTEwLXRlc2VzLWRhLUxlaXR1cmEtRGluYW1pY2EuaHRtbCIsImV4dHJhX3BhcmFtcyI6e319LCJjcmVhdGVkX2F0IjoxNTU3ODY1ODg4NTY3fQ==","created_at":"2019-05-14T20:32:18.170570Z","ip":"23.215.15.113","email_lead":"jordanacfpinto@gmail.com","Nome":"Jordana Pinto"},"created_at":"2019-05-14T17:32:18.170-03:00","cumulative_sum":"3","source":"administracao-do-tempo-infografico-5-passos-infaliveis-para-realizar-grandes-sonhos","conversion_origin":{"source":"methodus.com.br","medium":"referral","value":null,"campaign":"(referral)","channel":"Referral"}},"custom_fields":{},"website":null,"personal_phone":null,"mobile_phone":null,"city":null,"state":null,"tags":null,"lead_stage":"Lead","last_marked_opportunity_date":null,"uuid":"59f26803-5382-42a6-8a2a-cd1a85e83fec","fit_score":"d","interest":30}]}
--------------------
DATA: 2019-05-14 as 23:32:23
IP: 35.232.161.21
URL: www.methodus.com.br/facix2/_php/rdstation/webhook.php
REFERER: 
jordanacfpinto@gmail.com
--------------------
DATA: 2019-05-14 as 23:32:29
IP: 35.232.161.21
URL: www.methodus.com.br/facix2/_php/rdstation/webhook.php
REFERER: 
Observações: 
--------------------
DATA: 2019-05-14 as 23:33:27
IP: 35.238.132.130
URL: www.methodus.com.br/facix2/_php/rdstation/webhook.php
REFERER: 
{"leads":[{"id":"543478070","email":"jordanacfpinto@gmail.com","name":"Jordana Pinto","company":null,"job_title":null,"bio":null,"public_url":"http://rdstation.com.br/leads/public/59f26803-5382-42a6-8a2a-cd1a85e83fec","created_at":"2019-05-14T16:05:18.060-03:00","opportunity":"false","number_conversions":"4","user":null,"first_conversion":{"content":{"identificador":"as-7-teses-da-leitura-dinamica-imagem-1","_rd_experiment_content_id":"","traffic_source":"encoded_eyJmaXJzdF9zZXNzaW9uIjp7InZhbHVlIjoiaHR0cHM6Ly93d3cuZ29vZ2xlLmNvbS8iLCJleHRyYV9wYXJhbXMiOnt9fSwiY3VycmVudF9zZXNzaW9uIjp7InZhbHVlIjoiaHR0cHM6Ly93d3cuZ29vZ2xlLmNvbS8iLCJleHRyYV9wYXJhbXMiOnt9fSwiY3JlYXRlZF9hdCI6MTU1Nzg2MDY4NDgzMH0=","created_at":"2019-05-14T19:05:18.060717Z","ip":"23.62.239.149","email_lead":"jordanacfpinto@gmail.com","Nome":"Jordana Pinto"},"created_at":"2019-05-14T16:05:18.060-03:00","cumulative_sum":"1","source":"as-7-teses-da-leitura-dinamica-imagem-1","conversion_origin":{"source":"Google","medium":"organic","value":null,"campaign":null,"channel":"Organic Search"}},"last_conversion":{"content":{"identificador":"curso-leitura-dinamica-infografico-leitura-dinamica-aprenda-a-ler-raciocinios","_rd_experiment_content_id":"","traffic_source":"encoded_eyJmaXJzdF9zZXNzaW9uIjp7InZhbHVlIjoiaHR0cHM6Ly93d3cuZ29vZ2xlLmNvbS8iLCJleHRyYV9wYXJhbXMiOnt9fSwiY3VycmVudF9zZXNzaW9uIjp7InZhbHVlIjoiaHR0cHM6Ly93d3cubWV0aG9kdXMuY29tLmJyL2MvMjE3L0FzLTEwLXRlc2VzLWRhLUxlaXR1cmEtRGluYW1pY2EuaHRtbCIsImV4dHJhX3BhcmFtcyI6e319LCJjcmVhdGVkX2F0IjoxNTU3ODY1ODg4NTY3fQ==","created_at":"2019-05-14T20:33:16.269998Z","ip":"23.43.60.37","email_lead":"jordanacfpinto@gmail.com","Nome":"Jordana Pinto"},"created_at":"2019-05-14T17:33:16.269-03:00","cumulative_sum":"4","source":"curso-leitura-dinamica-infografico-leitura-dinamica-aprenda-a-ler-raciocinios","conversion_origin":{"source":"methodus.com.br","medium":"referral","value":null,"campaign":"(referral)","channel":"Referral"}},"custom_fields":{},"website":null,"personal_phone":null,"mobile_phone":null,"city":null,"state":null,"tags":null,"lead_stage":"Lead","last_marked_opportunity_date":null,"uuid":"59f26803-5382-42a6-8a2a-cd1a85e83fec","fit_score":"d","interest":45}]}
--------------------
DATA: 2019-05-14 as 23:33:27
IP: 35.238.132.130
URL: www.methodus.com.br/facix2/_php/rdstation/webhook.php
REFERER: 
jordanacfpinto@gmail.com
--------------------
DATA: 2019-05-14 as 23:33:30
IP: 35.238.132.130
URL: www.methodus.com.br/facix2/_php/rdstation/webhook.php
REFERER: 
Observações: 
--------------------