
DATA: 2019-02-16 as 00:00:53
IP: 35.221.26.100
URL: www.methodus.com.br/facix2/_php/rdstation/webhook.php
REFERER: 
{"leads":[{"id":"344233190","email":"leticiaqbastos@hotmail.com","name":"Letícia","company":null,"job_title":null,"bio":null,"public_url":"http://rdstation.com.br/leads/public/d76e2468-ea6a-4d63-9946-02ac6ec1d72b","created_at":"2018-07-16T17:45:03.000-03:00","opportunity":"false","number_conversions":"14","user":null,"first_conversion":{"content":{"nome":"LetÃ_cia bastos","perfil":"","Interesse":"Curso de Oratória","identificador":"ebook_medo_falar","interesse":"Curso de Oratória","created_at":"2018-07-16 20:45:03 UTC","email_lead":"leticiaqbastos@hotmail.com"},"created_at":"2018-07-16T17:45:03.000-03:00","cumulative_sum":"1","source":"ebook_medo_falar","conversion_origin":{"source":"unknown","medium":"unknown","value":null,"campaign":"unknown","channel":"Unknown"}},"last_conversion":{"content":{"identificador":"guia-medo-de-falar-em-publico","_rd_experiment_content_id":"","traffic_source":"encoded_eyJmaXJzdF9zZXNzaW9uIjp7InZhbHVlIjoiaHR0cHM6Ly93d3cuZ29vZ2xlLmNvbS8iLCJleHRyYV9wYXJhbXMiOnt9fSwiY3VycmVudF9zZXNzaW9uIjp7InZhbHVlIjoiaHR0cHM6Ly93d3cuZ29vZ2xlLmNvbS8iLCJleHRyYV9wYXJhbXMiOnt9fSwiY3JlYXRlZF9hdCI6MTU1MDI2MzU5Nzc3Mn0=","created_at":"2019-02-15T20:46:43.387246Z","ip":"189.125.201.210","email_lead":"leticiaqbastos@hotmail.com","Nome":"Letícia"},"created_at":"2019-02-15T18:46:43.387-02:00","cumulative_sum":"14","source":"guia-medo-de-falar-em-publico","conversion_origin":{"source":"Google","medium":"organic","value":null,"campaign":null,"channel":"Organic Search"}},"custom_fields":{"Interesse":"Curso de Oratória"},"website":null,"personal_phone":null,"mobile_phone":null,"city":null,"state":null,"tags":null,"lead_stage":"Lead","last_marked_opportunity_date":null,"uuid":"d76e2468-ea6a-4d63-9946-02ac6ec1d72b","fit_score":"d","interest":15}]}
--------------------
DATA: 2019-02-16 as 00:00:53
IP: 35.221.26.100
URL: www.methodus.com.br/facix2/_php/rdstation/webhook.php
REFERER: 
leticiaqbastos@hotmail.com
--------------------
DATA: 2019-02-16 as 00:00:57
IP: 35.221.26.100
URL: www.methodus.com.br/facix2/_php/rdstation/webhook.php
REFERER: 
Observações:  / Interesse: Curso de Oratória
--------------------
DATA: 2019-02-16 as 00:05:11
IP: 35.236.255.213
URL: www.methodus.com.br/facix2/_php/rdstation/webhook.php
REFERER: 
{"leads":[{"id":"480388893","email":"pradarci@ig.com.br","name":"darci lourenção","company":null,"job_title":null,"bio":null,"public_url":"http://rdstation.com.br/leads/public/f9d784bd-81b0-4c86-bade-5440d90d575e","created_at":"2019-02-15T19:03:52.174-02:00","opportunity":"false","number_conversions":"1","user":null,"first_conversion":{"content":{"identificador":"guia-medo-de-falar-em-publico","_rd_experiment_content_id":"","traffic_source":"encoded_eyJmaXJzdF9zZXNzaW9uIjp7InZhbHVlIjoiaHR0cHM6Ly93d3cuZ29vZ2xlLmNvbS8iLCJleHRyYV9wYXJhbXMiOnt9fSwiY3VycmVudF9zZXNzaW9uIjp7InZhbHVlIjoiaHR0cHM6Ly93d3cuZ29vZ2xlLmNvbS8iLCJleHRyYV9wYXJhbXMiOnt9fSwiY3JlYXRlZF9hdCI6MTU1MDI2NDYwOTc3NH0=","created_at":"2019-02-15T21:03:52.174683Z","ip":"201.6.131.202","email_lead":"pradarci@ig.com.br","Nome":"darci lourenção"},"created_at":"2019-02-15T19:03:52.174-02:00","cumulative_sum":"1","source":"guia-medo-de-falar-em-publico","conversion_origin":{"source":"Google","medium":"organic","value":null,"campaign":null,"channel":"Organic Search"}},"last_conversion":{"content":{"identificador":"guia-medo-de-falar-em-publico","_rd_experiment_content_id":"","traffic_source":"encoded_eyJmaXJzdF9zZXNzaW9uIjp7InZhbHVlIjoiaHR0cHM6Ly93d3cuZ29vZ2xlLmNvbS8iLCJleHRyYV9wYXJhbXMiOnt9fSwiY3VycmVudF9zZXNzaW9uIjp7InZhbHVlIjoiaHR0cHM6Ly93d3cuZ29vZ2xlLmNvbS8iLCJleHRyYV9wYXJhbXMiOnt9fSwiY3JlYXRlZF9hdCI6MTU1MDI2NDYwOTc3NH0=","created_at":"2019-02-15T21:03:52.174683Z","ip":"201.6.131.202","email_lead":"pradarci@ig.com.br","Nome":"darci lourenção"},"created_at":"2019-02-15T19:03:52.174-02:00","cumulative_sum":"1","source":"guia-medo-de-falar-em-publico","conversion_origin":{"source":"Google","medium":"organic","value":null,"campaign":null,"channel":"Organic Search"}},"custom_fields":{},"website":null,"personal_phone":null,"mobile_phone":null,"city":null,"state":null,"tags":null,"lead_stage":"Lead","last_marked_opportunity_date":null,"uuid":"f9d784bd-81b0-4c86-bade-5440d90d575e","fit_score":"d","interest":15}]}
--------------------
DATA: 2019-02-16 as 00:05:11
IP: 35.236.255.213
URL: www.methodus.com.br/facix2/_php/rdstation/webhook.php
REFERER: 
pradarci@ig.com.br
--------------------
DATA: 2019-02-16 as 00:05:14
IP: 35.236.255.213
URL: www.methodus.com.br/facix2/_php/rdstation/webhook.php
REFERER: 
Observações: 
--------------------