
DATA: 2019-12-07 as 16:42:55
IP: 35.222.50.250
URL: www.methodus.com.br/facix2/_php/rdstation/webhook.php
REFERER: 
{"leads":[{"id":"739164395","email":"eder@cafecomimoveis.com.br","name":"Eder Francisco","company":null,"job_title":null,"bio":null,"public_url":"http://rdstation.com.br/leads/public/91499f47-061d-4eb2-8174-0aaf34499fdf","created_at":"2019-12-07T10:42:41.436-03:00","opportunity":"false","number_conversions":"1","user":null,"first_conversion":{"content":{"identificador":"guia-medo-de-falar-em-publico","_rd_experiment_content_id":"","traffic_source":"encoded_eyJmaXJzdF9zZXNzaW9uIjp7InZhbHVlIjoiKG5vbmUpIiwiZXh0cmFfcGFyYW1zIjp7fX0sImN1cnJlbnRfc2Vzc2lvbiI6eyJ2YWx1ZSI6Iihub25lKSIsImV4dHJhX3BhcmFtcyI6e319LCJjcmVhdGVkX2F0IjoxNTc1NzI2MTMyNjc1fQ==","created_at":"2019-12-07T13:42:41.436153Z","ip":"177.74.253.250","email_lead":"eder@cafecomimoveis.com.br","Nome":"Eder Francisco"},"created_at":"2019-12-07T10:42:41.436-03:00","cumulative_sum":"1","source":"guia-medo-de-falar-em-publico","conversion_origin":{"source":"(direct)","medium":"(none)","value":null,"campaign":"(direct)","channel":"Direct"}},"last_conversion":{"content":{"identificador":"guia-medo-de-falar-em-publico","_rd_experiment_content_id":"","traffic_source":"encoded_eyJmaXJzdF9zZXNzaW9uIjp7InZhbHVlIjoiKG5vbmUpIiwiZXh0cmFfcGFyYW1zIjp7fX0sImN1cnJlbnRfc2Vzc2lvbiI6eyJ2YWx1ZSI6Iihub25lKSIsImV4dHJhX3BhcmFtcyI6e319LCJjcmVhdGVkX2F0IjoxNTc1NzI2MTMyNjc1fQ==","created_at":"2019-12-07T13:42:41.436153Z","ip":"177.74.253.250","email_lead":"eder@cafecomimoveis.com.br","Nome":"Eder Francisco"},"created_at":"2019-12-07T10:42:41.436-03:00","cumulative_sum":"1","source":"guia-medo-de-falar-em-publico","conversion_origin":{"source":"(direct)","medium":"(none)","value":null,"campaign":"(direct)","channel":"Direct"}},"custom_fields":{},"website":null,"personal_phone":null,"mobile_phone":null,"city":null,"state":null,"tags":null,"lead_stage":"Lead","last_marked_opportunity_date":null,"uuid":"91499f47-061d-4eb2-8174-0aaf34499fdf","fit_score":"d","interest":0}]}
--------------------
DATA: 2019-12-07 as 16:42:55
IP: 35.222.50.250
URL: www.methodus.com.br/facix2/_php/rdstation/webhook.php
REFERER: 
eder@cafecomimoveis.com.br
--------------------
DATA: 2019-12-07 as 16:43:01
IP: 35.222.50.250
URL: www.methodus.com.br/facix2/_php/rdstation/webhook.php
REFERER: 
Observações: 
--------------------
DATA: 2019-12-07 as 21:02:22
IP: 35.224.244.25
URL: www.methodus.com.br/facix2/_php/rdstation/webhook.php
REFERER: 
{"leads":[{"id":"739164395","email":"eder@cafecomimoveis.com.br","name":"Eder Francisco","company":null,"job_title":null,"bio":null,"public_url":"http://rdstation.com.br/leads/public/91499f47-061d-4eb2-8174-0aaf34499fdf","created_at":"2019-12-07T10:42:41.436-03:00","opportunity":"false","number_conversions":"1","user":null,"first_conversion":{"content":{"identificador":"guia-medo-de-falar-em-publico","_rd_experiment_content_id":"","traffic_source":"encoded_eyJmaXJzdF9zZXNzaW9uIjp7InZhbHVlIjoiKG5vbmUpIiwiZXh0cmFfcGFyYW1zIjp7fX0sImN1cnJlbnRfc2Vzc2lvbiI6eyJ2YWx1ZSI6Iihub25lKSIsImV4dHJhX3BhcmFtcyI6e319LCJjcmVhdGVkX2F0IjoxNTc1NzI2MTMyNjc1fQ==","created_at":"2019-12-07T13:42:41.436153Z","ip":"177.74.253.250","email_lead":"eder@cafecomimoveis.com.br","Nome":"Eder Francisco"},"created_at":"2019-12-07T10:42:41.436-03:00","cumulative_sum":"1","source":"guia-medo-de-falar-em-publico","conversion_origin":{"source":"(direct)","medium":"(none)","value":null,"campaign":"(direct)","channel":"Direct"}},"last_conversion":{"content":{"identificador":"guia-medo-de-falar-em-publico","_rd_experiment_content_id":"","traffic_source":"encoded_eyJmaXJzdF9zZXNzaW9uIjp7InZhbHVlIjoiKG5vbmUpIiwiZXh0cmFfcGFyYW1zIjp7fX0sImN1cnJlbnRfc2Vzc2lvbiI6eyJ2YWx1ZSI6Iihub25lKSIsImV4dHJhX3BhcmFtcyI6e319LCJjcmVhdGVkX2F0IjoxNTc1NzI2MTMyNjc1fQ==","created_at":"2019-12-07T13:42:41.436153Z","ip":"177.74.253.250","email_lead":"eder@cafecomimoveis.com.br","Nome":"Eder Francisco"},"created_at":"2019-12-07T10:42:41.436-03:00","cumulative_sum":"1","source":"guia-medo-de-falar-em-publico","conversion_origin":{"source":"(direct)","medium":"(none)","value":null,"campaign":"(direct)","channel":"Direct"}},"custom_fields":{},"website":null,"personal_phone":null,"mobile_phone":null,"city":null,"state":null,"tags":null,"lead_stage":"Lead","last_marked_opportunity_date":null,"uuid":"91499f47-061d-4eb2-8174-0aaf34499fdf","fit_score":"d","interest":15}]}
--------------------
DATA: 2019-12-07 as 21:02:22
IP: 35.224.244.25
URL: www.methodus.com.br/facix2/_php/rdstation/webhook.php
REFERER: 
eder@cafecomimoveis.com.br
--------------------
DATA: 2019-12-07 as 21:02:28
IP: 35.224.244.25
URL: www.methodus.com.br/facix2/_php/rdstation/webhook.php
REFERER: 
Observações: 
--------------------