
DATA: 2018-12-11 as 03:11:36
IP: 35.221.20.102
URL: www.methodus.com.br/facix2/_php/rdstation/webhook.php
REFERER: 
{"leads":[{"id":"440138886","email":"laudiceia.cortonesi@hotmail.com","name":"Laudiceia Cortonesi Ferreira","company":null,"job_title":null,"bio":null,"public_url":"http://rdstation.com.br/leads/public/a31fa90f-9530-4bcb-8a44-449a38750090","created_at":"2018-12-10T22:11:25.000-02:00","opportunity":"false","number_conversions":"1","user":null,"first_conversion":{"content":{"identificador":"guia-medo-de-falar-em-publico","_rd_experiment_content_id":"","traffic_source":"encoded_eyJmaXJzdF9zZXNzaW9uIjp7InZhbHVlIjoiaHR0cHM6Ly93d3cuZ29vZ2xlLmNvbS5ici8iLCJleHRyYV9wYXJhbXMiOnt9fSwiY3VycmVudF9zZXNzaW9uIjp7InZhbHVlIjoiaHR0cHM6Ly93d3cuZ29vZ2xlLmNvbS5ici8iLCJleHRyYV9wYXJhbXMiOnt9fSwiY3JlYXRlZF9hdCI6MTU0NDQ4NzA3NjUxNX0=","created_at":"2018-12-11 00:11:25 UTC","ip":"152.250.82.39","email_lead":"laudiceia.cortonesi@hotmail.com","Nome":"Laudiceia Cortonesi Ferreira"},"created_at":"2018-12-10T22:11:25.000-02:00","cumulative_sum":"1","source":"guia-medo-de-falar-em-publico","conversion_origin":{"source":"Google","medium":"organic","value":null,"campaign":null,"channel":"Organic Search"}},"last_conversion":{"content":{"identificador":"guia-medo-de-falar-em-publico","_rd_experiment_content_id":"","traffic_source":"encoded_eyJmaXJzdF9zZXNzaW9uIjp7InZhbHVlIjoiaHR0cHM6Ly93d3cuZ29vZ2xlLmNvbS5ici8iLCJleHRyYV9wYXJhbXMiOnt9fSwiY3VycmVudF9zZXNzaW9uIjp7InZhbHVlIjoiaHR0cHM6Ly93d3cuZ29vZ2xlLmNvbS5ici8iLCJleHRyYV9wYXJhbXMiOnt9fSwiY3JlYXRlZF9hdCI6MTU0NDQ4NzA3NjUxNX0=","created_at":"2018-12-11 00:11:25 UTC","ip":"152.250.82.39","email_lead":"laudiceia.cortonesi@hotmail.com","Nome":"Laudiceia Cortonesi Ferreira"},"created_at":"2018-12-10T22:11:25.000-02:00","cumulative_sum":"1","source":"guia-medo-de-falar-em-publico","conversion_origin":{"source":"Google","medium":"organic","value":null,"campaign":null,"channel":"Organic Search"}},"custom_fields":{},"website":null,"personal_phone":null,"mobile_phone":null,"city":null,"state":null,"tags":null,"lead_stage":"Lead","last_marked_opportunity_date":null,"uuid":"a31fa90f-9530-4bcb-8a44-449a38750090","fit_score":"d","interest":0}]}
--------------------
DATA: 2018-12-11 as 03:11:36
IP: 35.221.20.102
URL: www.methodus.com.br/facix2/_php/rdstation/webhook.php
REFERER: 
laudiceia.cortonesi@hotmail.com
--------------------
DATA: 2018-12-11 as 03:11:40
IP: 35.221.20.102
URL: www.methodus.com.br/facix2/_php/rdstation/webhook.php
REFERER: 
Observações: 
--------------------
DATA: 2018-12-11 as 03:12:00
IP: 35.186.165.123
URL: www.methodus.com.br/facix2/_php/rdstation/webhook.php
REFERER: 
{"leads":[{"id":"440138886","email":"laudiceia.cortonesi@hotmail.com","name":"Laudiceia Cortonesi Ferreira","company":null,"job_title":null,"bio":null,"public_url":"http://rdstation.com.br/leads/public/a31fa90f-9530-4bcb-8a44-449a38750090","created_at":"2018-12-10T22:11:25.000-02:00","opportunity":"false","number_conversions":"1","user":null,"first_conversion":{"content":{"identificador":"guia-medo-de-falar-em-publico","_rd_experiment_content_id":"","traffic_source":"encoded_eyJmaXJzdF9zZXNzaW9uIjp7InZhbHVlIjoiaHR0cHM6Ly93d3cuZ29vZ2xlLmNvbS5ici8iLCJleHRyYV9wYXJhbXMiOnt9fSwiY3VycmVudF9zZXNzaW9uIjp7InZhbHVlIjoiaHR0cHM6Ly93d3cuZ29vZ2xlLmNvbS5ici8iLCJleHRyYV9wYXJhbXMiOnt9fSwiY3JlYXRlZF9hdCI6MTU0NDQ4NzA3NjUxNX0=","created_at":"2018-12-11 00:11:25 UTC","ip":"152.250.82.39","email_lead":"laudiceia.cortonesi@hotmail.com","Nome":"Laudiceia Cortonesi Ferreira"},"created_at":"2018-12-10T22:11:25.000-02:00","cumulative_sum":"1","source":"guia-medo-de-falar-em-publico","conversion_origin":{"source":"Google","medium":"organic","value":null,"campaign":null,"channel":"Organic Search"}},"last_conversion":{"content":{"identificador":"guia-medo-de-falar-em-publico","_rd_experiment_content_id":"","traffic_source":"encoded_eyJmaXJzdF9zZXNzaW9uIjp7InZhbHVlIjoiaHR0cHM6Ly93d3cuZ29vZ2xlLmNvbS5ici8iLCJleHRyYV9wYXJhbXMiOnt9fSwiY3VycmVudF9zZXNzaW9uIjp7InZhbHVlIjoiaHR0cHM6Ly93d3cuZ29vZ2xlLmNvbS5ici8iLCJleHRyYV9wYXJhbXMiOnt9fSwiY3JlYXRlZF9hdCI6MTU0NDQ4NzA3NjUxNX0=","created_at":"2018-12-11 00:11:25 UTC","ip":"152.250.82.39","email_lead":"laudiceia.cortonesi@hotmail.com","Nome":"Laudiceia Cortonesi Ferreira"},"created_at":"2018-12-10T22:11:25.000-02:00","cumulative_sum":"1","source":"guia-medo-de-falar-em-publico","conversion_origin":{"source":"Google","medium":"organic","value":null,"campaign":null,"channel":"Organic Search"}},"custom_fields":{},"website":null,"personal_phone":null,"mobile_phone":null,"city":null,"state":null,"tags":null,"lead_stage":"Lead","last_marked_opportunity_date":null,"uuid":"a31fa90f-9530-4bcb-8a44-449a38750090","fit_score":"d","interest":15}]}
--------------------
DATA: 2018-12-11 as 03:12:00
IP: 35.186.165.123
URL: www.methodus.com.br/facix2/_php/rdstation/webhook.php
REFERER: 
laudiceia.cortonesi@hotmail.com
--------------------
DATA: 2018-12-11 as 03:12:04
IP: 35.186.165.123
URL: www.methodus.com.br/facix2/_php/rdstation/webhook.php
REFERER: 
Observações: 
--------------------