
DATA: 2019-06-11 as 01:07:54
IP: 35.194.45.16
URL: www.methodus.com.br/facix2/_php/rdstation/webhook.php
REFERER: 
{"leads":[{"id":"564632688","email":"crislainezuca@gmail.com","name":"CRISLAINE ZUCA POLVERE DE MELO","company":null,"job_title":null,"bio":null,"public_url":"http://rdstation.com.br/leads/public/c11151de-c69a-488f-af81-b9fd6b68dc59","created_at":"2019-06-10T19:07:36.869-03:00","opportunity":"false","number_conversions":"1","user":null,"first_conversion":{"content":{"identificador":"guia-medo-de-falar-em-publico","_rd_experiment_content_id":"","traffic_source":"encoded_eyJmaXJzdF9zZXNzaW9uIjp7InZhbHVlIjoiaHR0cHM6Ly93d3cuZ29vZ2xlLmNvbS8iLCJleHRyYV9wYXJhbXMiOnt9fSwiY3VycmVudF9zZXNzaW9uIjp7InZhbHVlIjoiaHR0cHM6Ly93d3cuZ29vZ2xlLmNvbS8iLCJleHRyYV9wYXJhbXMiOnt9fSwiY3JlYXRlZF9hdCI6MTU2MDIwNDQ0MzQwNn0=","created_at":"2019-06-10T22:07:36.869215Z","ip":"23.56.175.172","email_lead":"crislainezuca@gmail.com","Nome":"CRISLAINE ZUCA POLVERE DE MELO"},"created_at":"2019-06-10T19:07:36.869-03:00","cumulative_sum":"1","source":"guia-medo-de-falar-em-publico","conversion_origin":{"source":"Google","medium":"organic","value":null,"campaign":null,"channel":"Organic Search"}},"last_conversion":{"content":{"identificador":"guia-medo-de-falar-em-publico","_rd_experiment_content_id":"","traffic_source":"encoded_eyJmaXJzdF9zZXNzaW9uIjp7InZhbHVlIjoiaHR0cHM6Ly93d3cuZ29vZ2xlLmNvbS8iLCJleHRyYV9wYXJhbXMiOnt9fSwiY3VycmVudF9zZXNzaW9uIjp7InZhbHVlIjoiaHR0cHM6Ly93d3cuZ29vZ2xlLmNvbS8iLCJleHRyYV9wYXJhbXMiOnt9fSwiY3JlYXRlZF9hdCI6MTU2MDIwNDQ0MzQwNn0=","created_at":"2019-06-10T22:07:36.869215Z","ip":"23.56.175.172","email_lead":"crislainezuca@gmail.com","Nome":"CRISLAINE ZUCA POLVERE DE MELO"},"created_at":"2019-06-10T19:07:36.869-03:00","cumulative_sum":"1","source":"guia-medo-de-falar-em-publico","conversion_origin":{"source":"Google","medium":"organic","value":null,"campaign":null,"channel":"Organic Search"}},"custom_fields":{},"website":null,"personal_phone":null,"mobile_phone":null,"city":null,"state":null,"tags":null,"lead_stage":"Lead","last_marked_opportunity_date":null,"uuid":"c11151de-c69a-488f-af81-b9fd6b68dc59","fit_score":"d","interest":0}]}
--------------------
DATA: 2019-06-11 as 01:07:54
IP: 35.194.45.16
URL: www.methodus.com.br/facix2/_php/rdstation/webhook.php
REFERER: 
crislainezuca@gmail.com
--------------------
DATA: 2019-06-11 as 01:08:00
IP: 35.194.45.16
URL: www.methodus.com.br/facix2/_php/rdstation/webhook.php
REFERER: 
Observações: 
--------------------
DATA: 2019-06-11 as 01:08:01
IP: 34.66.107.195
URL: www.methodus.com.br/facix2/_php/rdstation/webhook.php
REFERER: 
{"leads":[{"id":"564632688","email":"crislainezuca@gmail.com","name":"CRISLAINE ZUCA POLVERE DE MELO","company":null,"job_title":null,"bio":null,"public_url":"http://rdstation.com.br/leads/public/c11151de-c69a-488f-af81-b9fd6b68dc59","created_at":"2019-06-10T19:07:36.869-03:00","opportunity":"false","number_conversions":"1","user":null,"first_conversion":{"content":{"identificador":"guia-medo-de-falar-em-publico","_rd_experiment_content_id":"","traffic_source":"encoded_eyJmaXJzdF9zZXNzaW9uIjp7InZhbHVlIjoiaHR0cHM6Ly93d3cuZ29vZ2xlLmNvbS8iLCJleHRyYV9wYXJhbXMiOnt9fSwiY3VycmVudF9zZXNzaW9uIjp7InZhbHVlIjoiaHR0cHM6Ly93d3cuZ29vZ2xlLmNvbS8iLCJleHRyYV9wYXJhbXMiOnt9fSwiY3JlYXRlZF9hdCI6MTU2MDIwNDQ0MzQwNn0=","created_at":"2019-06-10T22:07:36.869215Z","ip":"23.56.175.172","email_lead":"crislainezuca@gmail.com","Nome":"CRISLAINE ZUCA POLVERE DE MELO"},"created_at":"2019-06-10T19:07:36.869-03:00","cumulative_sum":"1","source":"guia-medo-de-falar-em-publico","conversion_origin":{"source":"Google","medium":"organic","value":null,"campaign":null,"channel":"Organic Search"}},"last_conversion":{"content":{"identificador":"guia-medo-de-falar-em-publico","_rd_experiment_content_id":"","traffic_source":"encoded_eyJmaXJzdF9zZXNzaW9uIjp7InZhbHVlIjoiaHR0cHM6Ly93d3cuZ29vZ2xlLmNvbS8iLCJleHRyYV9wYXJhbXMiOnt9fSwiY3VycmVudF9zZXNzaW9uIjp7InZhbHVlIjoiaHR0cHM6Ly93d3cuZ29vZ2xlLmNvbS8iLCJleHRyYV9wYXJhbXMiOnt9fSwiY3JlYXRlZF9hdCI6MTU2MDIwNDQ0MzQwNn0=","created_at":"2019-06-10T22:07:36.869215Z","ip":"23.56.175.172","email_lead":"crislainezuca@gmail.com","Nome":"CRISLAINE ZUCA POLVERE DE MELO"},"created_at":"2019-06-10T19:07:36.869-03:00","cumulative_sum":"1","source":"guia-medo-de-falar-em-publico","conversion_origin":{"source":"Google","medium":"organic","value":null,"campaign":null,"channel":"Organic Search"}},"custom_fields":{},"website":null,"personal_phone":null,"mobile_phone":null,"city":null,"state":null,"tags":null,"lead_stage":"Lead","last_marked_opportunity_date":null,"uuid":"c11151de-c69a-488f-af81-b9fd6b68dc59","fit_score":"d","interest":0}]}
--------------------
DATA: 2019-06-11 as 01:08:01
IP: 34.66.107.195
URL: www.methodus.com.br/facix2/_php/rdstation/webhook.php
REFERER: 
crislainezuca@gmail.com
--------------------
DATA: 2019-06-11 as 01:08:04
IP: 34.66.107.195
URL: www.methodus.com.br/facix2/_php/rdstation/webhook.php
REFERER: 
Observações: 
--------------------