
DATA: 2017-04-25 as 20:56:52
IP: 179.209.115.28
URL: www.methodus.com.br/facix2/_php/rdstation/webhook.php
REFERER: 

--------------------
DATA: 2017-04-25 as 20:57:17
IP: 179.209.115.28
URL: www.methodus.com.br/facix2/_php/rdstation/webhook.php
REFERER: 

--------------------
DATA: 2017-04-25 as 21:14:14
IP: 13.90.97.3
URL: www.methodus.com.br/facix2/_php/rdstation/webhook.php
REFERER: 
{"leads":[{"id":"139873478","email":"renan_pensa@hotmail.com","name":"Renan Teste do Webhook","company":null,"job_title":null,"bio":null,"public_url":"http://rdstation.com.br/leads/public/91fd0754-a351-4054-a7c3-7298b48edee2","created_at":"2017-02-23T14:23:42.000-03:00","opportunity":"false","number_conversions":"10","user":null,"first_conversion":{"content":{"nome":"Fulano","perfil":"","interesse":"Curso de Oratória","identificador":"alunos","created_at":"2017-02-23 17:23:42 UTC","email_lead":"renan_pensa@hotmail.com"},"created_at":"2017-02-23T14:23:42.000-03:00","cumulative_sum":"1","source":"alunos","conversion_origin":{"source":"unknown","medium":"unknown","value":null,"campaign":"unknown","channel":"Unknown"}},"last_conversion":{"content":{"identificador":"guia-medo-de-falar-em-publico","traffic_source":"encoded_eyJmaXJzdF9zZXNzaW9uIjp7InZhbHVlIjoiMTIxNjkwMTM1LjE0NjM2NzUwNzguNjcuNy51dG1jc3I9bWV0aG9kdXMuY29tLmJyfHV0bWNjbj0ocmVmZXJyYWwpfHV0bWNtZD1yZWZlcnJhbHx1dG1jY3Q9L3NpdGUvaG9tZS8ifSwiY3VycmVudF9zZXNzaW9uIjp7InZhbHVlIjoiKG5vbmUpIiwiZXh0cmFfcGFyYW1zIjp7fX0sImNyZWF0ZWRfYXQiOjE0OTMxNDMxMTc2MjV9","created_at":"2017-04-25 18:07:38 UTC","email_lead":"renan_pensa@hotmail.com","nome":"Renan Teste do Webhook","Quem é Você - Oratória":"Sou um profissional de vendas"},"created_at":"2017-04-25T15:07:38.000-03:00","cumulative_sum":"10","source":"guia-medo-de-falar-em-publico","conversion_origin":{"source":"(direct)","medium":"(none)","value":null,"campaign":"(direct)","channel":"Direct"}},"custom_fields":{"Quem é Você - Oratória":"Sou um profissional de vendas","perfil":"Sou um profissional e preciso fazer apresentações"},"website":null,"personal_phone":null,"mobile_phone":null,"city":null,"state":null,"tags":null,"lead_stage":"Cliente","last_marked_opportunity_date":null,"fit_score":"d","interest":15}]}
--------------------
DATA: 2017-04-25 as 21:14:14
IP: 13.90.97.3
URL: www.methodus.com.br/facix2/_php/rdstation/webhook.php
REFERER: 
renan_pensa@hotmail.com
--------------------
DATA: 2017-04-25 as 21:18:04
IP: 13.90.97.3
URL: www.methodus.com.br/facix2/_php/rdstation/webhook.php
REFERER: 
{"leads":[{"id":"156988453","email":"renanwebhook@pensadigital.com.br","name":"Renan Teste 2 do Webhook","company":null,"job_title":null,"bio":null,"public_url":"http://rdstation.com.br/leads/public/4a3fa5fd-1089-4205-bef9-20db9df6dec0","created_at":"2017-04-25T15:11:08.000-03:00","opportunity":"false","number_conversions":"1","user":null,"first_conversion":{"content":{"identificador":"estudar-so-e-dificil-para-quem-nao-tem-tecnica","traffic_source":"encoded_eyJmaXJzdF9zZXNzaW9uIjp7InZhbHVlIjoiMTIxNjkwMTM1LjE0NjM2NzUwNzguNjcuNy51dG1jc3I9bWV0aG9kdXMuY29tLmJyfHV0bWNjbj0ocmVmZXJyYWwpfHV0bWNtZD1yZWZlcnJhbHx1dG1jY3Q9L3NpdGUvaG9tZS8ifSwiY3VycmVudF9zZXNzaW9uIjp7InZhbHVlIjoiKG5vbmUpIiwiZXh0cmFfcGFyYW1zIjp7fX0sImNyZWF0ZWRfYXQiOjE0OTMxNDMxMTc2MjV9","created_at":"2017-04-25 18:11:08 UTC","email_lead":"renanwebhook@pensadigital.com.br","nome":"Renan Teste 2 do Webhook","Quem é Você - Leitura e Memória":"Sou universitário"},"created_at":"2017-04-25T15:11:08.000-03:00","cumulative_sum":"1","source":"estudar-so-e-dificil-para-quem-nao-tem-tecnica","conversion_origin":{"source":"methodus.com.br","medium":"referral","value":"/site/home/","campaign":"(referral)","channel":"Referral"}},"last_conversion":{"content":{"identificador":"estudar-so-e-dificil-para-quem-nao-tem-tecnica","traffic_source":"encoded_eyJmaXJzdF9zZXNzaW9uIjp7InZhbHVlIjoiMTIxNjkwMTM1LjE0NjM2NzUwNzguNjcuNy51dG1jc3I9bWV0aG9kdXMuY29tLmJyfHV0bWNjbj0ocmVmZXJyYWwpfHV0bWNtZD1yZWZlcnJhbHx1dG1jY3Q9L3NpdGUvaG9tZS8ifSwiY3VycmVudF9zZXNzaW9uIjp7InZhbHVlIjoiKG5vbmUpIiwiZXh0cmFfcGFyYW1zIjp7fX0sImNyZWF0ZWRfYXQiOjE0OTMxNDMxMTc2MjV9","created_at":"2017-04-25 18:11:08 UTC","email_lead":"renanwebhook@pensadigital.com.br","nome":"Renan Teste 2 do Webhook","Quem é Você - Leitura e Memória":"Sou universitário"},"created_at":"2017-04-25T15:11:08.000-03:00","cumulative_sum":"1","source":"estudar-so-e-dificil-para-quem-nao-tem-tecnica","conversion_origin":{"source":"methodus.com.br","medium":"referral","value":"/site/home/","campaign":"(referral)","channel":"Referral"}},"custom_fields":{"Quem é Você - Leitura e Memória":"Sou universitário"},"website":null,"personal_phone":null,"mobile_phone":null,"city":null,"state":null,"tags":null,"lead_stage":"Lead","last_marked_opportunity_date":null,"fit_score":"d","interest":0}]}
--------------------
DATA: 2017-04-25 as 21:18:04
IP: 13.90.97.3
URL: www.methodus.com.br/facix2/_php/rdstation/webhook.php
REFERER: 
renanwebhook@pensadigital.com.br
--------------------
DATA: 2017-04-25 as 22:24:25
IP: 179.209.115.28
URL: www.methodus.com.br/facix2/_php/rdstation/webhook.php
REFERER: 

--------------------
DATA: 2017-04-25 as 22:33:18
IP: 179.209.115.28
URL: www.methodus.com.br/facix2/_php/rdstation/webhook.php
REFERER: 

--------------------
DATA: 2017-04-25 as 22:57:44
IP: 40.71.80.232
URL: www.methodus.com.br/facix2/_php/rdstation/webhook.php
REFERER: 
{"leads":[{"id":"81169643","email":"renan@pensadigital.com.br","name":"Renan Hoffmann","company":null,"job_title":null,"bio":null,"public_url":"http://rdstation.com.br/leads/public/56d10ad5-ba09-4d59-b2e7-19c3d15b3867","created_at":"2016-06-15T17:24:11.477-03:00","opportunity":"false","number_conversions":"38","user":null,"first_conversion":{"content":{"ID_curso":"4","nome":"Renan Hoffmann","perfil":"3","robo":"-8","identificador":"Newsletter","traffic_source":"http://www.methodus.com.br/site/testes/\u003e\u003e121690135.1463675078.67.7.utmcsr=methodus.com.br|utmccn=(referral)|utmcmd=referral|utmcct=/site/home/","email_lead":"renan@pensadigital.com.br"},"created_at":"2016-06-15T17:24:11.848-03:00","cumulative_sum":"1","source":"Newsletter","conversion_origin":{"source":"methodus.com.br","medium":"referral","value":"/site/home/","campaign":"(referral)","channel":"Referral"}},"last_conversion":{"content":{"identificador":"administracao-do-tempo-infografico-5-passos-infaliveis-para-realizar-grandes-sonhos","traffic_source":"encoded_eyJmaXJzdF9zZXNzaW9uIjp7InZhbHVlIjoiMTIxNjkwMTM1LjE0NjM2NzUwNzguNjcuNy51dG1jc3I9bWV0aG9kdXMuY29tLmJyfHV0bWNjbj0ocmVmZXJyYWwpfHV0bWNtZD1yZWZlcnJhbHx1dG1jY3Q9L3NpdGUvaG9tZS8ifSwiY3VycmVudF9zZXNzaW9uIjp7InZhbHVlIjoiKG5vbmUpIiwiZXh0cmFfcGFyYW1zIjp7fX0sImNyZWF0ZWRfYXQiOjE0OTMxNDM4Njc0Njd9","created_at":"2017-04-25 19:27:07 UTC","email_lead":"renan@pensadigital.com.br","nome":"Renan Hoffmann","Quem é você - administração do tempo 1":"Sou profissional e preciso administrar o tempo"},"created_at":"2017-04-25T16:27:07.000-03:00","cumulative_sum":"38","source":"administracao-do-tempo-infografico-5-passos-infaliveis-para-realizar-grandes-sonhos","conversion_origin":{"source":"(direct)","medium":"(none)","value":null,"campaign":"(direct)","channel":"Direct"}},"custom_fields":{"Interesse":"Curso de Oratória","perfil":"Sou formado curso superior e hoje apenas trabalho","Quem é você - administração do tempo 1":"Sou profissional e preciso administrar o tempo"},"website":null,"personal_phone":null,"mobile_phone":null,"city":null,"state":null,"tags":[],"lead_stage":"Cliente","last_marked_opportunity_date":null,"fit_score":"d","interest":15}]}
--------------------
DATA: 2017-04-25 as 22:57:44
IP: 40.71.80.232
URL: www.methodus.com.br/facix2/_php/rdstation/webhook.php
REFERER: 
renan@pensadigital.com.br
--------------------
DATA: 2017-04-25 as 22:57:44
IP: 40.71.80.232
URL: www.methodus.com.br/facix2/_php/rdstation/webhook.php
REFERER: 
ID_curso: 6
--------------------
DATA: 2017-04-25 as 22:57:47
IP: 40.71.80.232
URL: www.methodus.com.br/facix2/_php/rdstation/webhook.php
REFERER: 
Observações:  / Interesse: Curso de Oratória / perfil: Sou formado curso superior e hoje apenas trabalho / Perfil: Sou profissional e preciso administrar o tempo
--------------------
DATA: 2017-04-25 as 23:47:39
IP: 13.90.97.3
URL: www.methodus.com.br/facix2/_php/rdstation/webhook.php
REFERER: 
{"leads":[{"id":"157088206","email":"talitallona@yahoo.com.br","name":"talita","company":null,"job_title":null,"bio":null,"public_url":"http://rdstation.com.br/leads/public/077b177f-a650-450e-9dcf-a280e58ac6e6","created_at":"2017-04-25T17:47:10.000-03:00","opportunity":"false","number_conversions":"1","user":null,"first_conversion":{"content":{"identificador":"estudar-so-e-dificil-para-quem-nao-tem-tecnica","traffic_source":"encoded_eyJmaXJzdF9zZXNzaW9uIjp7InZhbHVlIjoiMTIxNjkwMTM1LjE0OTMxNTMyMDYuMS4xLnV0bWNzcj0oZGlyZWN0KXx1dG1jY249KGRpcmVjdCl8dXRtY21kPShub25lKSIsImV4dHJhX3BhcmFtcyI6e319LCJjdXJyZW50X3Nlc3Npb24iOnsidmFsdWUiOiIxMjE2OTAxMzUuMTQ5MzE1MzIwNi4xLjEudXRtY3NyPShkaXJlY3QpfHV0bWNjbj0oZGlyZWN0KXx1dG1jbWQ9KG5vbmUpIiwiZXh0cmFfcGFyYW1zIjp7fX0sImNyZWF0ZWRfYXQiOjE0OTMxNTMyMDU4OTN9","created_at":"2017-04-25 20:47:10 UTC","email_lead":"talitallona@yahoo.com.br","nome":"talita","Quem é Você - Leitura e Memória":"Sou profissional / faço faculdade / especializações"},"created_at":"2017-04-25T17:47:10.000-03:00","cumulative_sum":"1","source":"estudar-so-e-dificil-para-quem-nao-tem-tecnica","conversion_origin":{"source":"(direct)","medium":"(none)","value":null,"campaign":"(direct)","channel":"Direct"}},"last_conversion":{"content":{"identificador":"estudar-so-e-dificil-para-quem-nao-tem-tecnica","traffic_source":"encoded_eyJmaXJzdF9zZXNzaW9uIjp7InZhbHVlIjoiMTIxNjkwMTM1LjE0OTMxNTMyMDYuMS4xLnV0bWNzcj0oZGlyZWN0KXx1dG1jY249KGRpcmVjdCl8dXRtY21kPShub25lKSIsImV4dHJhX3BhcmFtcyI6e319LCJjdXJyZW50X3Nlc3Npb24iOnsidmFsdWUiOiIxMjE2OTAxMzUuMTQ5MzE1MzIwNi4xLjEudXRtY3NyPShkaXJlY3QpfHV0bWNjbj0oZGlyZWN0KXx1dG1jbWQ9KG5vbmUpIiwiZXh0cmFfcGFyYW1zIjp7fX0sImNyZWF0ZWRfYXQiOjE0OTMxNTMyMDU4OTN9","created_at":"2017-04-25 20:47:10 UTC","email_lead":"talitallona@yahoo.com.br","nome":"talita","Quem é Você - Leitura e Memória":"Sou profissional / faço faculdade / especializações"},"created_at":"2017-04-25T17:47:10.000-03:00","cumulative_sum":"1","source":"estudar-so-e-dificil-para-quem-nao-tem-tecnica","conversion_origin":{"source":"(direct)","medium":"(none)","value":null,"campaign":"(direct)","channel":"Direct"}},"custom_fields":{"Quem é Você - Leitura e Memória":"Sou profissional / faço faculdade / especializações"},"website":null,"personal_phone":null,"mobile_phone":null,"city":null,"state":null,"tags":null,"lead_stage":"Lead","last_marked_opportunity_date":null,"fit_score":"d","interest":0}]}
--------------------
DATA: 2017-04-25 as 23:47:39
IP: 13.90.97.3
URL: www.methodus.com.br/facix2/_php/rdstation/webhook.php
REFERER: 
talitallona@yahoo.com.br
--------------------
DATA: 2017-04-25 as 23:47:39
IP: 13.90.97.3
URL: www.methodus.com.br/facix2/_php/rdstation/webhook.php
REFERER: 
ID_curso: 4
--------------------
DATA: 2017-04-25 as 23:47:43
IP: 13.90.97.3
URL: www.methodus.com.br/facix2/_php/rdstation/webhook.php
REFERER: 
Observações:  / Perfil: Sou profissional / faço faculdade / especializações
--------------------