
DATA: 2019-07-02 as 13:54:36
IP: 35.224.84.150
URL: www.methodus.com.br/facix2/_php/rdstation/webhook.php
REFERER: 
{"leads":[{"id":"582212991","email":"ilza84048@gmail.com","name":"Maria ilza da Silva","company":null,"job_title":null,"bio":null,"public_url":"http://rdstation.com.br/leads/public/451d2a59-59c9-42ed-bf8b-bb582d77ab49","created_at":"2019-07-02T07:54:26.213-03:00","opportunity":"false","number_conversions":"1","user":null,"first_conversion":{"content":{"identificador":"guia-medo-de-falar-em-publico","_rd_experiment_content_id":"","traffic_source":"encoded_eyJmaXJzdF9zZXNzaW9uIjp7InZhbHVlIjoiKG5vbmUpIiwiZXh0cmFfcGFyYW1zIjp7fX0sImN1cnJlbnRfc2Vzc2lvbiI6eyJ2YWx1ZSI6Iihub25lKSIsImV4dHJhX3BhcmFtcyI6e319LCJjcmVhdGVkX2F0IjoxNTYyMDY0NjcwMTM0fQ==","created_at":"2019-07-02T10:54:26.213204Z","ip":"204.237.173.190","email_lead":"ilza84048@gmail.com","Nome":"Maria ilza da Silva "},"created_at":"2019-07-02T07:54:26.213-03:00","cumulative_sum":"1","source":"guia-medo-de-falar-em-publico","conversion_origin":{"source":"(direct)","medium":"(none)","value":null,"campaign":"(direct)","channel":"Direct"}},"last_conversion":{"content":{"identificador":"guia-medo-de-falar-em-publico","_rd_experiment_content_id":"","traffic_source":"encoded_eyJmaXJzdF9zZXNzaW9uIjp7InZhbHVlIjoiKG5vbmUpIiwiZXh0cmFfcGFyYW1zIjp7fX0sImN1cnJlbnRfc2Vzc2lvbiI6eyJ2YWx1ZSI6Iihub25lKSIsImV4dHJhX3BhcmFtcyI6e319LCJjcmVhdGVkX2F0IjoxNTYyMDY0NjcwMTM0fQ==","created_at":"2019-07-02T10:54:26.213204Z","ip":"204.237.173.190","email_lead":"ilza84048@gmail.com","Nome":"Maria ilza da Silva "},"created_at":"2019-07-02T07:54:26.213-03:00","cumulative_sum":"1","source":"guia-medo-de-falar-em-publico","conversion_origin":{"source":"(direct)","medium":"(none)","value":null,"campaign":"(direct)","channel":"Direct"}},"custom_fields":{},"website":null,"personal_phone":null,"mobile_phone":null,"city":null,"state":null,"tags":null,"lead_stage":"Lead","last_marked_opportunity_date":null,"uuid":"451d2a59-59c9-42ed-bf8b-bb582d77ab49","fit_score":"d","interest":0}]}
--------------------
DATA: 2019-07-02 as 13:54:36
IP: 35.224.84.150
URL: www.methodus.com.br/facix2/_php/rdstation/webhook.php
REFERER: 
ilza84048@gmail.com
--------------------
DATA: 2019-07-02 as 13:54:41
IP: 104.154.240.198
URL: www.methodus.com.br/facix2/_php/rdstation/webhook.php
REFERER: 
{"leads":[{"id":"582212991","email":"ilza84048@gmail.com","name":"Maria ilza da Silva","company":null,"job_title":null,"bio":null,"public_url":"http://rdstation.com.br/leads/public/451d2a59-59c9-42ed-bf8b-bb582d77ab49","created_at":"2019-07-02T07:54:26.213-03:00","opportunity":"false","number_conversions":"1","user":null,"first_conversion":{"content":{"identificador":"guia-medo-de-falar-em-publico","_rd_experiment_content_id":"","traffic_source":"encoded_eyJmaXJzdF9zZXNzaW9uIjp7InZhbHVlIjoiKG5vbmUpIiwiZXh0cmFfcGFyYW1zIjp7fX0sImN1cnJlbnRfc2Vzc2lvbiI6eyJ2YWx1ZSI6Iihub25lKSIsImV4dHJhX3BhcmFtcyI6e319LCJjcmVhdGVkX2F0IjoxNTYyMDY0NjcwMTM0fQ==","created_at":"2019-07-02T10:54:26.213204Z","ip":"204.237.173.190","email_lead":"ilza84048@gmail.com","Nome":"Maria ilza da Silva "},"created_at":"2019-07-02T07:54:26.213-03:00","cumulative_sum":"1","source":"guia-medo-de-falar-em-publico","conversion_origin":{"source":"(direct)","medium":"(none)","value":null,"campaign":"(direct)","channel":"Direct"}},"last_conversion":{"content":{"identificador":"guia-medo-de-falar-em-publico","_rd_experiment_content_id":"","traffic_source":"encoded_eyJmaXJzdF9zZXNzaW9uIjp7InZhbHVlIjoiKG5vbmUpIiwiZXh0cmFfcGFyYW1zIjp7fX0sImN1cnJlbnRfc2Vzc2lvbiI6eyJ2YWx1ZSI6Iihub25lKSIsImV4dHJhX3BhcmFtcyI6e319LCJjcmVhdGVkX2F0IjoxNTYyMDY0NjcwMTM0fQ==","created_at":"2019-07-02T10:54:26.213204Z","ip":"204.237.173.190","email_lead":"ilza84048@gmail.com","Nome":"Maria ilza da Silva "},"created_at":"2019-07-02T07:54:26.213-03:00","cumulative_sum":"1","source":"guia-medo-de-falar-em-publico","conversion_origin":{"source":"(direct)","medium":"(none)","value":null,"campaign":"(direct)","channel":"Direct"}},"custom_fields":{},"website":null,"personal_phone":null,"mobile_phone":null,"city":null,"state":null,"tags":null,"lead_stage":"Lead","last_marked_opportunity_date":null,"uuid":"451d2a59-59c9-42ed-bf8b-bb582d77ab49","fit_score":"d","interest":0}]}
--------------------
DATA: 2019-07-02 as 13:54:41
IP: 104.154.240.198
URL: www.methodus.com.br/facix2/_php/rdstation/webhook.php
REFERER: 
ilza84048@gmail.com
--------------------
DATA: 2019-07-02 as 13:54:42
IP: 35.224.84.150
URL: www.methodus.com.br/facix2/_php/rdstation/webhook.php
REFERER: 
Observações: 
--------------------
DATA: 2019-07-02 as 13:54:45
IP: 104.154.240.198
URL: www.methodus.com.br/facix2/_php/rdstation/webhook.php
REFERER: 
Observações: 
--------------------
DATA: 2019-07-02 as 21:05:03
IP: 35.232.161.21
URL: www.methodus.com.br/facix2/_php/rdstation/webhook.php
REFERER: 
{"leads":[{"id":"582865712","email":"elizanabarros@yahoo.com.br","name":"Elizana Oliveira Praciano Barros","company":null,"job_title":null,"bio":null,"public_url":"http://rdstation.com.br/leads/public/69c3295a-b4e2-4e26-b6d5-9c557e4a41cf","created_at":"2019-07-02T14:59:10.286-03:00","opportunity":"false","number_conversions":"5","user":null,"first_conversion":{"content":{"nome":"Elizana Oliveira Praciano Barros","perfil":"","Interesse":"Curso de Oratória","identificador":"investimento","interesse":"Curso de Oratória","created_at":"2019-07-02T17:59:05.991801Z","email_lead":"elizanabarros@yahoo.com.br"},"created_at":"2019-07-02T14:59:05.991-03:00","cumulative_sum":"1","source":"investimento","conversion_origin":{"source":"unknown","medium":"unknown","value":null,"campaign":"unknown","channel":"Unknown"}},"last_conversion":{"content":{"identificador":"guia-medo-de-falar-em-publico","_rd_experiment_content_id":"","traffic_source":"encoded_eyJmaXJzdF9zZXNzaW9uIjp7InZhbHVlIjoiaHR0cHM6Ly93d3cuZ29vZ2xlLmNvbS5ici91cmw/c2E9dCZyY3Q9aiZxPSZlc3JjPXMmc291cmNlPXdlYiZjZD0xMCZjYWQ9cmphJnVhY3Q9OCZ2ZWQ9MmFoVUtFd2pzd3NxaTU1YmpBaFhpSDdrR0hYT2ZBSUFRRmpBSmVnUUlCaEFCJnVybD1odHRwczovL3d3dy5tZXRob2R1cy5jb20uYnIvb3JhdG9yaWEvNS1jdXJzby5odG1sJnVzZz1BT3ZWYXcxQmhLdk91eTFkd0ZhcENVQUpqcUlPIiwiZXh0cmFfcGFyYW1zIjp7fX0sImN1cnJlbnRfc2Vzc2lvbiI6eyJ2YWx1ZSI6Iihub25lKSIsImV4dHJhX3BhcmFtcyI6e319LCJjcmVhdGVkX2F0IjoxNTYyMDkwNTIwNzA0fQ==","created_at":"2019-07-02T18:04:42.159091Z","ip":"23.56.175.28","email_lead":"elizanabarros@yahoo.com.br","Nome":"Elizana Oliveira Praciano Barros"},"created_at":"2019-07-02T15:04:42.159-03:00","cumulative_sum":"5","source":"guia-medo-de-falar-em-publico","conversion_origin":{"source":"(direct)","medium":"(none)","value":null,"campaign":"(direct)","channel":"Direct"}},"custom_fields":{"Interesse":"Curso de Oratória"},"website":null,"personal_phone":null,"mobile_phone":null,"city":null,"state":null,"tags":null,"lead_stage":"Lead","last_marked_opportunity_date":null,"uuid":"69c3295a-b4e2-4e26-b6d5-9c557e4a41cf","fit_score":"d","interest":30}]}
--------------------
DATA: 2019-07-02 as 21:05:03
IP: 35.232.161.21
URL: www.methodus.com.br/facix2/_php/rdstation/webhook.php
REFERER: 
elizanabarros@yahoo.com.br
--------------------
DATA: 2019-07-02 as 21:05:06
IP: 35.232.161.21
URL: www.methodus.com.br/facix2/_php/rdstation/webhook.php
REFERER: 
Observações:  / Interesse: Curso de Oratória
--------------------