
DATA: 2019-03-29 as 00:06:57
IP: 35.245.172.80
URL: www.methodus.com.br/facix2/_php/rdstation/webhook.php
REFERER: 
{"leads":[{"id":"508053517","email":"francaroberto48@rotmail.com","name":"Roberto","company":null,"job_title":null,"bio":null,"public_url":"http://rdstation.com.br/leads/public/78802eca-1f5b-4f3f-bfd1-88934fec9d43","created_at":"2019-03-28T15:55:14.502-03:00","opportunity":"false","number_conversions":"2","user":null,"first_conversion":{"content":{"identificador":"simulados-o-segredo-matador-enem-vestibular-e-concurso","_rd_experiment_content_id":"","traffic_source":"encoded_eyJmaXJzdF9zZXNzaW9uIjp7InZhbHVlIjoiaHR0cHM6Ly93d3cuZ29vZ2xlLmNvbS8iLCJleHRyYV9wYXJhbXMiOnt9fSwiY3VycmVudF9zZXNzaW9uIjp7InZhbHVlIjoiaHR0cHM6Ly9tLmZhY2Vib29rLmNvbS8iLCJleHRyYV9wYXJhbXMiOnt9fSwiY3JlYXRlZF9hdCI6MTU1Mzc5OTk1NTA2OH0=","created_at":"2019-03-28T18:55:14.502720Z","ip":"208.185.118.180","email_lead":"francaroberto48@rotmail.com","Nome":"Roberto"},"created_at":"2019-03-28T15:55:14.502-03:00","cumulative_sum":"1","source":"simulados-o-segredo-matador-enem-vestibular-e-concurso","conversion_origin":{"source":"Facebook","medium":"social","value":null,"campaign":null,"channel":"Social"}},"last_conversion":{"content":{"identificador":"estudar-so-e-dificil-para-quem-nao-tem-tecnica","_rd_experiment_content_id":"","traffic_source":"","created_at":"2019-03-28T21:06:34.701583Z","ip":"208.37.9.140","email_lead":"francaroberto48@rotmail.com","Nome":"Roberto"},"created_at":"2019-03-28T18:06:34.701-03:00","cumulative_sum":"2","source":"estudar-so-e-dificil-para-quem-nao-tem-tecnica","conversion_origin":{"source":"unknown","medium":"unknown","value":null,"campaign":"unknown","channel":"Unknown"}},"custom_fields":{},"website":null,"personal_phone":null,"mobile_phone":null,"city":null,"state":null,"tags":null,"lead_stage":"Lead","last_marked_opportunity_date":null,"uuid":"78802eca-1f5b-4f3f-bfd1-88934fec9d43","fit_score":"d","interest":15}]}
--------------------
DATA: 2019-03-29 as 00:06:57
IP: 35.245.172.80
URL: www.methodus.com.br/facix2/_php/rdstation/webhook.php
REFERER: 
francaroberto48@rotmail.com
--------------------
DATA: 2019-03-29 as 00:07:01
IP: 35.188.254.170
URL: www.methodus.com.br/facix2/_php/rdstation/webhook.php
REFERER: 
{"leads":[{"id":"508053517","email":"francaroberto48@rotmail.com","name":"Roberto","company":null,"job_title":null,"bio":null,"public_url":"http://rdstation.com.br/leads/public/78802eca-1f5b-4f3f-bfd1-88934fec9d43","created_at":"2019-03-28T15:55:14.502-03:00","opportunity":"false","number_conversions":"2","user":null,"first_conversion":{"content":{"identificador":"simulados-o-segredo-matador-enem-vestibular-e-concurso","_rd_experiment_content_id":"","traffic_source":"encoded_eyJmaXJzdF9zZXNzaW9uIjp7InZhbHVlIjoiaHR0cHM6Ly93d3cuZ29vZ2xlLmNvbS8iLCJleHRyYV9wYXJhbXMiOnt9fSwiY3VycmVudF9zZXNzaW9uIjp7InZhbHVlIjoiaHR0cHM6Ly9tLmZhY2Vib29rLmNvbS8iLCJleHRyYV9wYXJhbXMiOnt9fSwiY3JlYXRlZF9hdCI6MTU1Mzc5OTk1NTA2OH0=","created_at":"2019-03-28T18:55:14.502720Z","ip":"208.185.118.180","email_lead":"francaroberto48@rotmail.com","Nome":"Roberto"},"created_at":"2019-03-28T15:55:14.502-03:00","cumulative_sum":"1","source":"simulados-o-segredo-matador-enem-vestibular-e-concurso","conversion_origin":{"source":"Facebook","medium":"social","value":null,"campaign":null,"channel":"Social"}},"last_conversion":{"content":{"identificador":"estudar-so-e-dificil-para-quem-nao-tem-tecnica","_rd_experiment_content_id":"","traffic_source":"","created_at":"2019-03-28T21:06:34.701583Z","ip":"208.37.9.140","email_lead":"francaroberto48@rotmail.com","Nome":"Roberto"},"created_at":"2019-03-28T18:06:34.701-03:00","cumulative_sum":"2","source":"estudar-so-e-dificil-para-quem-nao-tem-tecnica","conversion_origin":{"source":"unknown","medium":"unknown","value":null,"campaign":"unknown","channel":"Unknown"}},"custom_fields":{},"website":null,"personal_phone":null,"mobile_phone":null,"city":null,"state":null,"tags":null,"lead_stage":"Lead","last_marked_opportunity_date":null,"uuid":"78802eca-1f5b-4f3f-bfd1-88934fec9d43","fit_score":"d","interest":15}]}
--------------------
DATA: 2019-03-29 as 00:07:01
IP: 35.188.254.170
URL: www.methodus.com.br/facix2/_php/rdstation/webhook.php
REFERER: 
francaroberto48@rotmail.com
--------------------
DATA: 2019-03-29 as 00:07:03
IP: 35.245.172.80
URL: www.methodus.com.br/facix2/_php/rdstation/webhook.php
REFERER: 
Observações: 
--------------------
DATA: 2019-03-29 as 00:07:05
IP: 35.188.254.170
URL: www.methodus.com.br/facix2/_php/rdstation/webhook.php
REFERER: 
Observações: 
--------------------
DATA: 2019-03-29 as 00:07:22
IP: 35.221.26.100
URL: www.methodus.com.br/facix2/_php/rdstation/webhook.php
REFERER: 
{"leads":[{"id":"508053517","email":"francaroberto48@rotmail.com","name":"Roberto","company":null,"job_title":null,"bio":null,"public_url":"http://rdstation.com.br/leads/public/78802eca-1f5b-4f3f-bfd1-88934fec9d43","created_at":"2019-03-28T15:55:14.502-03:00","opportunity":"false","number_conversions":"3","user":null,"first_conversion":{"content":{"identificador":"simulados-o-segredo-matador-enem-vestibular-e-concurso","_rd_experiment_content_id":"","traffic_source":"encoded_eyJmaXJzdF9zZXNzaW9uIjp7InZhbHVlIjoiaHR0cHM6Ly93d3cuZ29vZ2xlLmNvbS8iLCJleHRyYV9wYXJhbXMiOnt9fSwiY3VycmVudF9zZXNzaW9uIjp7InZhbHVlIjoiaHR0cHM6Ly9tLmZhY2Vib29rLmNvbS8iLCJleHRyYV9wYXJhbXMiOnt9fSwiY3JlYXRlZF9hdCI6MTU1Mzc5OTk1NTA2OH0=","created_at":"2019-03-28T18:55:14.502720Z","ip":"208.185.118.180","email_lead":"francaroberto48@rotmail.com","Nome":"Roberto"},"created_at":"2019-03-28T15:55:14.502-03:00","cumulative_sum":"1","source":"simulados-o-segredo-matador-enem-vestibular-e-concurso","conversion_origin":{"source":"Facebook","medium":"social","value":null,"campaign":null,"channel":"Social"}},"last_conversion":{"content":{"identificador":"estudar-so-e-dificil-para-quem-nao-tem-tecnica","_rd_experiment_content_id":"","traffic_source":"","created_at":"2019-03-28T21:07:05.983687Z","ip":"208.37.9.143","email_lead":"francaroberto48@rotmail.com","Nome":"Roberto"},"created_at":"2019-03-28T18:07:05.983-03:00","cumulative_sum":"3","source":"estudar-so-e-dificil-para-quem-nao-tem-tecnica","conversion_origin":{"source":"unknown","medium":"unknown","value":null,"campaign":"unknown","channel":"Unknown"}},"custom_fields":{},"website":null,"personal_phone":null,"mobile_phone":null,"city":null,"state":null,"tags":null,"lead_stage":"Lead","last_marked_opportunity_date":null,"uuid":"78802eca-1f5b-4f3f-bfd1-88934fec9d43","fit_score":"d","interest":30}]}
--------------------
DATA: 2019-03-29 as 00:07:22
IP: 35.221.26.100
URL: www.methodus.com.br/facix2/_php/rdstation/webhook.php
REFERER: 
francaroberto48@rotmail.com
--------------------
DATA: 2019-03-29 as 00:07:25
IP: 35.221.26.100
URL: www.methodus.com.br/facix2/_php/rdstation/webhook.php
REFERER: 
Observações: 
--------------------
DATA: 2019-03-29 as 00:08:54
IP: 35.236.220.236
URL: www.methodus.com.br/facix2/_php/rdstation/webhook.php
REFERER: 
{"leads":[{"id":"508053517","email":"francaroberto48@rotmail.com","name":"Roberto","company":null,"job_title":null,"bio":null,"public_url":"http://rdstation.com.br/leads/public/78802eca-1f5b-4f3f-bfd1-88934fec9d43","created_at":"2019-03-28T15:55:14.502-03:00","opportunity":"false","number_conversions":"4","user":null,"first_conversion":{"content":{"identificador":"simulados-o-segredo-matador-enem-vestibular-e-concurso","_rd_experiment_content_id":"","traffic_source":"encoded_eyJmaXJzdF9zZXNzaW9uIjp7InZhbHVlIjoiaHR0cHM6Ly93d3cuZ29vZ2xlLmNvbS8iLCJleHRyYV9wYXJhbXMiOnt9fSwiY3VycmVudF9zZXNzaW9uIjp7InZhbHVlIjoiaHR0cHM6Ly9tLmZhY2Vib29rLmNvbS8iLCJleHRyYV9wYXJhbXMiOnt9fSwiY3JlYXRlZF9hdCI6MTU1Mzc5OTk1NTA2OH0=","created_at":"2019-03-28T18:55:14.502720Z","ip":"208.185.118.180","email_lead":"francaroberto48@rotmail.com","Nome":"Roberto"},"created_at":"2019-03-28T15:55:14.502-03:00","cumulative_sum":"1","source":"simulados-o-segredo-matador-enem-vestibular-e-concurso","conversion_origin":{"source":"Facebook","medium":"social","value":null,"campaign":null,"channel":"Social"}},"last_conversion":{"content":{"identificador":"estudar-so-e-dificil-para-quem-nao-tem-tecnica","_rd_experiment_content_id":"","traffic_source":"","created_at":"2019-03-28T21:08:19.151277Z","ip":"208.37.9.143","email_lead":"francaroberto48@rotmail.com","Nome":"Roberto"},"created_at":"2019-03-28T18:08:19.151-03:00","cumulative_sum":"4","source":"estudar-so-e-dificil-para-quem-nao-tem-tecnica","conversion_origin":{"source":"unknown","medium":"unknown","value":null,"campaign":"unknown","channel":"Unknown"}},"custom_fields":{},"website":null,"personal_phone":null,"mobile_phone":null,"city":null,"state":null,"tags":null,"lead_stage":"Lead","last_marked_opportunity_date":null,"uuid":"78802eca-1f5b-4f3f-bfd1-88934fec9d43","fit_score":"d","interest":30}]}
--------------------
DATA: 2019-03-29 as 00:08:54
IP: 35.236.220.236
URL: www.methodus.com.br/facix2/_php/rdstation/webhook.php
REFERER: 
francaroberto48@rotmail.com
--------------------
DATA: 2019-03-29 as 00:08:58
IP: 35.236.220.236
URL: www.methodus.com.br/facix2/_php/rdstation/webhook.php
REFERER: 
Observações: 
--------------------
DATA: 2019-03-29 as 00:48:06
IP: 35.245.172.80
URL: www.methodus.com.br/facix2/_php/rdstation/webhook.php
REFERER: 
{"leads":[{"id":"508309496","email":"suzane.novaes@itau-unibanco.com.br","name":"suzane","company":null,"job_title":null,"bio":null,"public_url":"http://rdstation.com.br/leads/public/3d9f3831-65e8-42de-a8e8-25fe4b0b9ddd","created_at":"2019-03-28T18:47:48.848-03:00","opportunity":"false","number_conversions":"1","user":null,"first_conversion":{"content":{"identificador":"guia-medo-de-falar-em-publico","_rd_experiment_content_id":"","traffic_source":"encoded_eyJmaXJzdF9zZXNzaW9uIjp7InZhbHVlIjoiaHR0cHM6Ly93d3cuZ29vZ2xlLmNvbS8iLCJleHRyYV9wYXJhbXMiOnt9fSwiY3VycmVudF9zZXNzaW9uIjp7InZhbHVlIjoiaHR0cHM6Ly93d3cuZ29vZ2xlLmNvbS8iLCJleHRyYV9wYXJhbXMiOnt9fSwiY3JlYXRlZF9hdCI6MTU1MzgwOTY1MjA0MH0=","created_at":"2019-03-28T21:47:48.848559Z","ip":"204.93.39.77","email_lead":"suzane.novaes@itau-unibanco.com.br","Nome":"suzane"},"created_at":"2019-03-28T18:47:48.848-03:00","cumulative_sum":"1","source":"guia-medo-de-falar-em-publico","conversion_origin":{"source":"Google","medium":"organic","value":null,"campaign":null,"channel":"Organic Search"}},"last_conversion":{"content":{"identificador":"guia-medo-de-falar-em-publico","_rd_experiment_content_id":"","traffic_source":"encoded_eyJmaXJzdF9zZXNzaW9uIjp7InZhbHVlIjoiaHR0cHM6Ly93d3cuZ29vZ2xlLmNvbS8iLCJleHRyYV9wYXJhbXMiOnt9fSwiY3VycmVudF9zZXNzaW9uIjp7InZhbHVlIjoiaHR0cHM6Ly93d3cuZ29vZ2xlLmNvbS8iLCJleHRyYV9wYXJhbXMiOnt9fSwiY3JlYXRlZF9hdCI6MTU1MzgwOTY1MjA0MH0=","created_at":"2019-03-28T21:47:48.848559Z","ip":"204.93.39.77","email_lead":"suzane.novaes@itau-unibanco.com.br","Nome":"suzane"},"created_at":"2019-03-28T18:47:48.848-03:00","cumulative_sum":"1","source":"guia-medo-de-falar-em-publico","conversion_origin":{"source":"Google","medium":"organic","value":null,"campaign":null,"channel":"Organic Search"}},"custom_fields":{},"website":null,"personal_phone":null,"mobile_phone":null,"city":null,"state":null,"tags":null,"lead_stage":"Lead","last_marked_opportunity_date":null,"uuid":"3d9f3831-65e8-42de-a8e8-25fe4b0b9ddd","fit_score":"d","interest":0}]}
--------------------
DATA: 2019-03-29 as 00:48:06
IP: 35.245.172.80
URL: www.methodus.com.br/facix2/_php/rdstation/webhook.php
REFERER: 
suzane.novaes@itau-unibanco.com.br
--------------------
DATA: 2019-03-29 as 00:48:10
IP: 35.245.172.80
URL: www.methodus.com.br/facix2/_php/rdstation/webhook.php
REFERER: 
Observações: 
--------------------
DATA: 2019-03-29 as 15:42:42
IP: 35.236.238.214
URL: www.methodus.com.br/facix2/_php/rdstation/webhook.php
REFERER: 
{"leads":[{"id":"508716219","email":"michele.elaines@gmail.com","name":"michele","company":null,"job_title":null,"bio":null,"public_url":"http://rdstation.com.br/leads/public/4c95155d-751d-4bc4-9d2f-a36ee3e55bdc","created_at":"2019-03-29T09:41:18.754-03:00","opportunity":"false","number_conversions":"1","user":null,"first_conversion":{"content":{"identificador":"guia-medo-de-falar-em-publico","_rd_experiment_content_id":"","traffic_source":"encoded_eyJmaXJzdF9zZXNzaW9uIjp7InZhbHVlIjoiaHR0cHM6Ly93d3cuZ29vZ2xlLmNvbS8iLCJleHRyYV9wYXJhbXMiOnt9fSwiY3VycmVudF9zZXNzaW9uIjp7InZhbHVlIjoiaHR0cHM6Ly93d3cuZ29vZ2xlLmNvbS8iLCJleHRyYV9wYXJhbXMiOnt9fSwiY3JlYXRlZF9hdCI6MTU1Mzg2MzI2NjY2MX0=","created_at":"2019-03-29T12:41:18.754664Z","ip":"165.254.211.28","email_lead":"michele.elaines@gmail.com","Nome":"michele"},"created_at":"2019-03-29T09:41:18.754-03:00","cumulative_sum":"1","source":"guia-medo-de-falar-em-publico","conversion_origin":{"source":"Google","medium":"organic","value":null,"campaign":null,"channel":"Organic Search"}},"last_conversion":{"content":{"identificador":"guia-medo-de-falar-em-publico","_rd_experiment_content_id":"","traffic_source":"encoded_eyJmaXJzdF9zZXNzaW9uIjp7InZhbHVlIjoiaHR0cHM6Ly93d3cuZ29vZ2xlLmNvbS8iLCJleHRyYV9wYXJhbXMiOnt9fSwiY3VycmVudF9zZXNzaW9uIjp7InZhbHVlIjoiaHR0cHM6Ly93d3cuZ29vZ2xlLmNvbS8iLCJleHRyYV9wYXJhbXMiOnt9fSwiY3JlYXRlZF9hdCI6MTU1Mzg2MzI2NjY2MX0=","created_at":"2019-03-29T12:41:18.754664Z","ip":"165.254.211.28","email_lead":"michele.elaines@gmail.com","Nome":"michele"},"created_at":"2019-03-29T09:41:18.754-03:00","cumulative_sum":"1","source":"guia-medo-de-falar-em-publico","conversion_origin":{"source":"Google","medium":"organic","value":null,"campaign":null,"channel":"Organic Search"}},"custom_fields":{},"website":null,"personal_phone":null,"mobile_phone":null,"city":null,"state":null,"tags":null,"lead_stage":"Lead","last_marked_opportunity_date":null,"uuid":"4c95155d-751d-4bc4-9d2f-a36ee3e55bdc","fit_score":"d","interest":15}]}
--------------------
DATA: 2019-03-29 as 15:42:42
IP: 35.236.238.214
URL: www.methodus.com.br/facix2/_php/rdstation/webhook.php
REFERER: 
michele.elaines@gmail.com
--------------------
DATA: 2019-03-29 as 15:42:45
IP: 35.236.238.214
URL: www.methodus.com.br/facix2/_php/rdstation/webhook.php
REFERER: 
Observações: 
--------------------
DATA: 2019-03-29 as 20:08:41
IP: 35.236.252.126
URL: www.methodus.com.br/facix2/_php/rdstation/webhook.php
REFERER: 
{"leads":[{"id":"508956878","email":"analucianunes634@gmail.com","name":"Ana Lúcia","company":null,"job_title":null,"bio":null,"public_url":"http://rdstation.com.br/leads/public/61d8aa16-189e-482f-9adb-f909b8247b9e","created_at":"2019-03-29T14:08:23.415-03:00","opportunity":"false","number_conversions":"1","user":null,"first_conversion":{"content":{"identificador":"guia-medo-de-falar-em-publico","_rd_experiment_content_id":"","traffic_source":"encoded_eyJmaXJzdF9zZXNzaW9uIjp7InZhbHVlIjoiaHR0cHM6Ly93d3cuZ29vZ2xlLmNvbS8iLCJleHRyYV9wYXJhbXMiOnt9fSwiY3VycmVudF9zZXNzaW9uIjp7InZhbHVlIjoiaHR0cHM6Ly93d3cuZ29vZ2xlLmNvbS8iLCJleHRyYV9wYXJhbXMiOnt9fSwiY3JlYXRlZF9hdCI6MTU1Mzg3OTA1NjA2M30=","created_at":"2019-03-29T17:08:23.415123Z","ip":"23.220.148.100","email_lead":"analucianunes634@gmail.com","Nome":"Ana Lúcia"},"created_at":"2019-03-29T14:08:23.415-03:00","cumulative_sum":"1","source":"guia-medo-de-falar-em-publico","conversion_origin":{"source":"Google","medium":"organic","value":null,"campaign":null,"channel":"Organic Search"}},"last_conversion":{"content":{"identificador":"guia-medo-de-falar-em-publico","_rd_experiment_content_id":"","traffic_source":"encoded_eyJmaXJzdF9zZXNzaW9uIjp7InZhbHVlIjoiaHR0cHM6Ly93d3cuZ29vZ2xlLmNvbS8iLCJleHRyYV9wYXJhbXMiOnt9fSwiY3VycmVudF9zZXNzaW9uIjp7InZhbHVlIjoiaHR0cHM6Ly93d3cuZ29vZ2xlLmNvbS8iLCJleHRyYV9wYXJhbXMiOnt9fSwiY3JlYXRlZF9hdCI6MTU1Mzg3OTA1NjA2M30=","created_at":"2019-03-29T17:08:23.415123Z","ip":"23.220.148.100","email_lead":"analucianunes634@gmail.com","Nome":"Ana Lúcia"},"created_at":"2019-03-29T14:08:23.415-03:00","cumulative_sum":"1","source":"guia-medo-de-falar-em-publico","conversion_origin":{"source":"Google","medium":"organic","value":null,"campaign":null,"channel":"Organic Search"}},"custom_fields":{},"website":null,"personal_phone":null,"mobile_phone":null,"city":null,"state":null,"tags":null,"lead_stage":"Lead","last_marked_opportunity_date":null,"uuid":"61d8aa16-189e-482f-9adb-f909b8247b9e","fit_score":"d","interest":0}]}
--------------------
DATA: 2019-03-29 as 20:08:41
IP: 35.236.252.126
URL: www.methodus.com.br/facix2/_php/rdstation/webhook.php
REFERER: 
analucianunes634@gmail.com
--------------------
DATA: 2019-03-29 as 20:08:44
IP: 35.236.252.126
URL: www.methodus.com.br/facix2/_php/rdstation/webhook.php
REFERER: 
Observações: 
--------------------
DATA: 2019-03-29 as 20:46:38
IP: 35.245.36.142
URL: www.methodus.com.br/facix2/_php/rdstation/webhook.php
REFERER: 
{"leads":[{"id":"447410595","email":"cohencapacitacao@gmail.com","name":"isabel cohen","company":null,"job_title":null,"bio":null,"public_url":"http://rdstation.com.br/leads/public/060f4183-54ad-4444-83f9-ba4d72459fd5","created_at":"2018-12-21T15:50:47.238-02:00","opportunity":"false","number_conversions":"7","user":null,"first_conversion":{"content":{"identificador":"form_ebook","traffic_source":"encoded_eyJmaXJzdF9zZXNzaW9uIjp7InZhbHVlIjoiaHR0cHM6Ly93d3cuZ29vZ2xlLmNvbS8iLCJleHRyYV9wYXJhbXMiOnt9fSwiY3VycmVudF9zZXNzaW9uIjp7InZhbHVlIjoiaHR0cHM6Ly93d3cuZ29vZ2xlLmNvbS8iLCJleHRyYV9wYXJhbXMiOnt9fSwiY3JlYXRlZF9hdCI6MTU0NTQxMDg2NjEyNn0=","destino":"https://d335luupugsy2.cloudfront.net/cms%2Ffiles%2F16878%2F14661812711+Guia+Medo+falar+em+p%C3%BAblico+%28ebook%29.pdf","a":"aluno","metodo":"cadastro","origem":"Ebook_Medo_Falar","curso":"5","nome":"isabel Cristina ","form_url":"https://www.methodus.com.br/oratoria/5-curso.html","page_title":"CURSO DE ORATÓRIA - Como falar em público bem e fazer apresentação","email_lead":"cohencapacitacao@gmail.com"},"created_at":"2018-12-21T15:50:47.303-02:00","cumulative_sum":"1","source":"form_ebook","conversion_origin":{"source":"Google","medium":"organic","value":null,"campaign":null,"channel":"Organic Search"}},"last_conversion":{"content":{"identificador":"guia-medo-de-falar-em-publico","_rd_experiment_content_id":"","traffic_source":"encoded_eyJmaXJzdF9zZXNzaW9uIjp7InZhbHVlIjoiaHR0cDovL2Jsb2cubWV0aG9kdXMuY29tLmJyLzQtYXRpdHVkZXMtaW5mYWxpdmVpcy1kb3MtZW1wcmVlbmRlZG9yZXMiLCJleHRyYV9wYXJhbXMiOnt9fSwiY3VycmVudF9zZXNzaW9uIjp7InZhbHVlIjoidXRtX2NhbXBhaWduPWN1cnNvX2RlX29yYXRvcmlhXzYxX2Vib29rXy1fZ3VpYV9tZWRvX2RlX2ZhbGFyX2VtX3B1YmxpY28mdXRtX21lZGl1bT1lbWFpbCZ1dG1fc291cmNlPVJEK1N0YXRpb24iLCJleHRyYV9wYXJhbXMiOnt9fSwiY3JlYXRlZF9hdCI6MTU1Mzg4MTUyNTc5Nn0=","utm_medium":"email","utm_source":"RD Station","created_at":"2019-03-29T17:46:13.279618Z","ip":"200.136.36.97","email_lead":"cohencapacitacao@gmail.com","Nome":"isabel cohen"},"created_at":"2019-03-29T14:46:13.279-03:00","cumulative_sum":"7","source":"guia-medo-de-falar-em-publico","conversion_origin":{"source":"RD+Station","medium":"email","value":null,"campaign":"curso_de_oratoria_61_ebook_-_guia_medo_de_falar_em_publico","channel":"Email"}},"custom_fields":{"Interesse":"Curso de Oratória"},"website":null,"personal_phone":null,"mobile_phone":null,"city":null,"state":null,"tags":null,"lead_stage":"Lead","last_marked_opportunity_date":null,"uuid":"060f4183-54ad-4444-83f9-ba4d72459fd5","fit_score":"d","interest":15}]}
--------------------
DATA: 2019-03-29 as 20:46:38
IP: 35.245.36.142
URL: www.methodus.com.br/facix2/_php/rdstation/webhook.php
REFERER: 
cohencapacitacao@gmail.com
--------------------
DATA: 2019-03-29 as 20:46:42
IP: 35.245.36.142
URL: www.methodus.com.br/facix2/_php/rdstation/webhook.php
REFERER: 
Observações:  / Interesse: Curso de Oratória
--------------------