
DATA: 2019-05-11 as 22:28:38
IP: 35.184.8.115
URL: www.methodus.com.br/facix2/_php/rdstation/webhook.php
REFERER: 
{"leads":[{"id":"541206677","email":"vianna.leandro1990@gmail.com","name":"Leandro Cleiton Viana","company":null,"job_title":null,"bio":null,"public_url":"http://rdstation.com.br/leads/public/6aaa2b88-d995-4869-90ee-347e652ed406","created_at":"2019-05-11T16:25:27.561-03:00","opportunity":"false","number_conversions":"3","user":null,"first_conversion":{"content":{"identificador":"form_ebook","traffic_source":"encoded_eyJmaXJzdF9zZXNzaW9uIjp7InZhbHVlIjoiKG5vbmUpIiwiZXh0cmFfcGFyYW1zIjp7fX0sImN1cnJlbnRfc2Vzc2lvbiI6eyJ2YWx1ZSI6Iihub25lKSIsImV4dHJhX3BhcmFtcyI6e319LCJjcmVhdGVkX2F0IjoxNTU3NjAyNzA0NjEwfQ==","destino":"https://d335luupugsy2.cloudfront.net/cms%2Ffiles%2F16878%2F14661812711+Guia+Medo+falar+em+p%C3%BAblico+%28ebook%29.pdf","a":"aluno","metodo":"cadastro","origem":"Ebook_Medo_Falar","curso":"5","nome":"LEANDRO CLEITON VIANA","form_url":"https://www.methodus.com.br/oratoria/5-curso.html","page_title":"CURSO DE ORATÓRIA - Como falar em público bem e fazer apresentação","email_lead":"vianna.leandro1990@gmail.com"},"created_at":"2019-05-11T16:25:27.792-03:00","cumulative_sum":"1","source":"form_ebook","conversion_origin":{"source":"(direct)","medium":"(none)","value":null,"campaign":"(direct)","channel":"Direct"}},"last_conversion":{"content":{"identificador":"guia-medo-de-falar-em-publico","_rd_experiment_content_id":"","traffic_source":"encoded_eyJmaXJzdF9zZXNzaW9uIjp7InZhbHVlIjoiKG5vbmUpIiwiZXh0cmFfcGFyYW1zIjp7fX0sImN1cnJlbnRfc2Vzc2lvbiI6eyJ2YWx1ZSI6Iihub25lKSIsImV4dHJhX3BhcmFtcyI6e319LCJjcmVhdGVkX2F0IjoxNTU3NjAyODc5MDU0fQ==","created_at":"2019-05-11T19:28:29.469366Z","ip":"184.26.95.71","email_lead":"vianna.leandro1990@gmail.com","Nome":"Leandro Cleiton Viana "},"created_at":"2019-05-11T16:28:29.469-03:00","cumulative_sum":"3","source":"guia-medo-de-falar-em-publico","conversion_origin":{"source":"(direct)","medium":"(none)","value":null,"campaign":"(direct)","channel":"Direct"}},"custom_fields":{"Interesse":"Curso de Oratória"},"website":null,"personal_phone":null,"mobile_phone":null,"city":null,"state":null,"tags":null,"lead_stage":"Lead","last_marked_opportunity_date":null,"uuid":"6aaa2b88-d995-4869-90ee-347e652ed406","fit_score":"d","interest":0}]}
--------------------
DATA: 2019-05-11 as 22:28:38
IP: 35.184.8.115
URL: www.methodus.com.br/facix2/_php/rdstation/webhook.php
REFERER: 
vianna.leandro1990@gmail.com
--------------------
DATA: 2019-05-11 as 22:28:42
IP: 35.184.8.115
URL: www.methodus.com.br/facix2/_php/rdstation/webhook.php
REFERER: 
Observações:  / Interesse: Curso de Oratória
--------------------