
DATA: 2019-09-27 as 00:39:01
IP: 35.226.19.26
URL: www.methodus.com.br/facix2/_php/rdstation/webhook.php
REFERER: 
{"leads":[{"id":"81397463","email":"info@methodus.com.br","name":"Alcides Schotten","company":null,"job_title":null,"bio":null,"public_url":"http://rdstation.com.br/leads/public/773a736a-dfd1-438a-af2c-93c49ba9da3f","created_at":"2016-06-16T12:51:33.286-03:00","opportunity":"false","number_conversions":"442","user":null,"first_conversion":{"content":{"ID_curso":"5","nome":"Alcides Schotten","perfil":"6","robo":"1","identificador":"Newsletter","traffic_source":"http://www.methodus.com.br/site/home/\u003e\u003e121690135.1466019616.1.1.utmcsr=(direct)|utmccn=(direct)|utmcmd=(none)","email_lead":"info@methodus.com.br"},"created_at":"2016-06-16T12:51:33.586-03:00","cumulative_sum":"1","source":"Newsletter","conversion_origin":{"source":"(direct)","medium":"(none)","value":null,"campaign":"(direct)","channel":"Direct"}},"last_conversion":{"content":{"identificador":"as-7-teses-da-leitura-dinamica-imagem-1","_rd_experiment_content_id":"","traffic_source":"encoded_eyJmaXJzdF9zZXNzaW9uIjp7InZhbHVlIjoiKG5vbmUpIiwiZXh0cmFfcGFyYW1zIjp7fX0sImN1cnJlbnRfc2Vzc2lvbiI6eyJ2YWx1ZSI6Iihub25lKSIsImV4dHJhX3BhcmFtcyI6e319LCJjcmVhdGVkX2F0IjoxNTY5NTI4MTAzNDM5fQ==","created_at":"2019-09-26T20:01:50.130674Z","ip":"201.42.191.173","email_lead":"info@methodus.com.br","Nome":"Alcides Schotten"},"created_at":"2019-09-26T17:01:50.130-03:00","cumulative_sum":"442","source":"as-7-teses-da-leitura-dinamica-imagem-1","conversion_origin":{"source":"(direct)","medium":"(none)","value":null,"campaign":"(direct)","channel":"Direct"}},"custom_fields":{"Quem é Você - Oratória":"Sou um profissional da área de comunicações","Interesse":"Curso de Administração do Tempo","Quem é Você - Leitura e Memória":"Sou vestibulando / concursando","perfil":"Sou vestibulando / concursando","Quem é você - administração do tempo":"Sou empreendedor","Quem é você - leitura dinâmica à distância":"Sou vestibulando / concursando"},"website":null,"personal_phone":null,"mobile_phone":null,"city":"São Paulo","state":"SP","tags":[],"lead_stage":"Cliente","last_marked_opportunity_date":null,"uuid":"773a736a-dfd1-438a-af2c-93c49ba9da3f","fit_score":"d","interest":420}]}
--------------------
DATA: 2019-09-27 as 00:39:01
IP: 35.226.19.26
URL: www.methodus.com.br/facix2/_php/rdstation/webhook.php
REFERER: 
info@methodus.com.br
--------------------
DATA: 2019-09-27 as 00:39:04
IP: 35.226.19.26
URL: www.methodus.com.br/facix2/_php/rdstation/webhook.php
REFERER: 
ID_curso: 5
--------------------
DATA: 2019-09-27 as 00:39:04
IP: 35.226.19.26
URL: www.methodus.com.br/facix2/_php/rdstation/webhook.php
REFERER: 
ID_curso: 4
--------------------
DATA: 2019-09-27 as 00:39:04
IP: 35.226.19.26
URL: www.methodus.com.br/facix2/_php/rdstation/webhook.php
REFERER: 
ID_curso: 6
--------------------
DATA: 2019-09-27 as 00:39:04
IP: 35.226.19.26
URL: www.methodus.com.br/facix2/_php/rdstation/webhook.php
REFERER: 
ID_curso: 4
--------------------
DATA: 2019-09-27 as 00:39:10
IP: 35.226.19.26
URL: www.methodus.com.br/facix2/_php/rdstation/webhook.php
REFERER: 
Observações:  / Perfil: Sou um profissional da área de comunicações / Interesse: Curso de Administração do Tempo / Perfil: Sou vestibulando / concursando / perfil: Sou vestibulando / concursando / Perfil: Sou empreendedor / Perfil: Sou vestibulando / concursando
--------------------
DATA: 2019-09-27 as 01:24:20
IP: 34.67.25.145
URL: www.methodus.com.br/facix2/_php/rdstation/webhook.php
REFERER: 
{"leads":[{"id":"81397463","email":"info@methodus.com.br","name":"Alcides Schotten","company":null,"job_title":null,"bio":null,"public_url":"http://rdstation.com.br/leads/public/773a736a-dfd1-438a-af2c-93c49ba9da3f","created_at":"2016-06-16T12:51:33.286-03:00","opportunity":"false","number_conversions":"442","user":null,"first_conversion":{"content":{"ID_curso":"5","nome":"Alcides Schotten","perfil":"6","robo":"1","identificador":"Newsletter","traffic_source":"http://www.methodus.com.br/site/home/\u003e\u003e121690135.1466019616.1.1.utmcsr=(direct)|utmccn=(direct)|utmcmd=(none)","email_lead":"info@methodus.com.br"},"created_at":"2016-06-16T12:51:33.586-03:00","cumulative_sum":"1","source":"Newsletter","conversion_origin":{"source":"(direct)","medium":"(none)","value":null,"campaign":"(direct)","channel":"Direct"}},"last_conversion":{"content":{"identificador":"as-7-teses-da-leitura-dinamica-imagem-1","_rd_experiment_content_id":"","traffic_source":"encoded_eyJmaXJzdF9zZXNzaW9uIjp7InZhbHVlIjoiKG5vbmUpIiwiZXh0cmFfcGFyYW1zIjp7fX0sImN1cnJlbnRfc2Vzc2lvbiI6eyJ2YWx1ZSI6Iihub25lKSIsImV4dHJhX3BhcmFtcyI6e319LCJjcmVhdGVkX2F0IjoxNTY5NTI4MTAzNDM5fQ==","created_at":"2019-09-26T20:01:50.130674Z","ip":"201.42.191.173","email_lead":"info@methodus.com.br","Nome":"Alcides Schotten"},"created_at":"2019-09-26T17:01:50.130-03:00","cumulative_sum":"442","source":"as-7-teses-da-leitura-dinamica-imagem-1","conversion_origin":{"source":"(direct)","medium":"(none)","value":null,"campaign":"(direct)","channel":"Direct"}},"custom_fields":{"Quem é Você - Oratória":"Sou um profissional da área de comunicações","Interesse":"Curso de Administração do Tempo","Quem é Você - Leitura e Memória":"Sou vestibulando / concursando","perfil":"Sou vestibulando / concursando","Quem é você - administração do tempo":"Sou empreendedor","Quem é você - leitura dinâmica à distância":"Sou vestibulando / concursando"},"website":null,"personal_phone":null,"mobile_phone":null,"city":"São Paulo","state":"SP","tags":[],"lead_stage":"Cliente","last_marked_opportunity_date":null,"uuid":"773a736a-dfd1-438a-af2c-93c49ba9da3f","fit_score":"d","interest":420}]}
--------------------
DATA: 2019-09-27 as 01:24:20
IP: 34.67.25.145
URL: www.methodus.com.br/facix2/_php/rdstation/webhook.php
REFERER: 
info@methodus.com.br
--------------------
DATA: 2019-09-27 as 01:24:20
IP: 34.67.25.145
URL: www.methodus.com.br/facix2/_php/rdstation/webhook.php
REFERER: 
ID_curso: 5
--------------------
DATA: 2019-09-27 as 01:24:20
IP: 34.67.25.145
URL: www.methodus.com.br/facix2/_php/rdstation/webhook.php
REFERER: 
ID_curso: 4
--------------------
DATA: 2019-09-27 as 01:24:20
IP: 34.67.25.145
URL: www.methodus.com.br/facix2/_php/rdstation/webhook.php
REFERER: 
ID_curso: 6
--------------------
DATA: 2019-09-27 as 01:24:20
IP: 34.67.25.145
URL: www.methodus.com.br/facix2/_php/rdstation/webhook.php
REFERER: 
ID_curso: 4
--------------------
DATA: 2019-09-27 as 01:24:26
IP: 34.67.25.145
URL: www.methodus.com.br/facix2/_php/rdstation/webhook.php
REFERER: 
Observações:  / Perfil: Sou um profissional da área de comunicações / Interesse: Curso de Administração do Tempo / Perfil: Sou vestibulando / concursando / perfil: Sou vestibulando / concursando / Perfil: Sou empreendedor / Perfil: Sou vestibulando / concursando
--------------------
DATA: 2019-09-27 as 02:09:32
IP: 35.202.254.128
URL: www.methodus.com.br/facix2/_php/rdstation/webhook.php
REFERER: 
{"leads":[{"id":"81397463","email":"info@methodus.com.br","name":"Alcides Schotten","company":null,"job_title":null,"bio":null,"public_url":"http://rdstation.com.br/leads/public/773a736a-dfd1-438a-af2c-93c49ba9da3f","created_at":"2016-06-16T12:51:33.286-03:00","opportunity":"false","number_conversions":"442","user":null,"first_conversion":{"content":{"ID_curso":"5","nome":"Alcides Schotten","perfil":"6","robo":"1","identificador":"Newsletter","traffic_source":"http://www.methodus.com.br/site/home/\u003e\u003e121690135.1466019616.1.1.utmcsr=(direct)|utmccn=(direct)|utmcmd=(none)","email_lead":"info@methodus.com.br"},"created_at":"2016-06-16T12:51:33.586-03:00","cumulative_sum":"1","source":"Newsletter","conversion_origin":{"source":"(direct)","medium":"(none)","value":null,"campaign":"(direct)","channel":"Direct"}},"last_conversion":{"content":{"identificador":"as-7-teses-da-leitura-dinamica-imagem-1","_rd_experiment_content_id":"","traffic_source":"encoded_eyJmaXJzdF9zZXNzaW9uIjp7InZhbHVlIjoiKG5vbmUpIiwiZXh0cmFfcGFyYW1zIjp7fX0sImN1cnJlbnRfc2Vzc2lvbiI6eyJ2YWx1ZSI6Iihub25lKSIsImV4dHJhX3BhcmFtcyI6e319LCJjcmVhdGVkX2F0IjoxNTY5NTI4MTAzNDM5fQ==","created_at":"2019-09-26T20:01:50.130674Z","ip":"201.42.191.173","email_lead":"info@methodus.com.br","Nome":"Alcides Schotten"},"created_at":"2019-09-26T17:01:50.130-03:00","cumulative_sum":"442","source":"as-7-teses-da-leitura-dinamica-imagem-1","conversion_origin":{"source":"(direct)","medium":"(none)","value":null,"campaign":"(direct)","channel":"Direct"}},"custom_fields":{"Quem é Você - Oratória":"Sou um profissional da área de comunicações","Interesse":"Curso de Administração do Tempo","Quem é Você - Leitura e Memória":"Sou vestibulando / concursando","perfil":"Sou vestibulando / concursando","Quem é você - administração do tempo":"Sou empreendedor","Quem é você - leitura dinâmica à distância":"Sou vestibulando / concursando"},"website":null,"personal_phone":null,"mobile_phone":null,"city":"São Paulo","state":"SP","tags":[],"lead_stage":"Cliente","last_marked_opportunity_date":null,"uuid":"773a736a-dfd1-438a-af2c-93c49ba9da3f","fit_score":"d","interest":420}]}
--------------------
DATA: 2019-09-27 as 02:09:32
IP: 35.202.254.128
URL: www.methodus.com.br/facix2/_php/rdstation/webhook.php
REFERER: 
info@methodus.com.br
--------------------
DATA: 2019-09-27 as 02:09:32
IP: 35.202.254.128
URL: www.methodus.com.br/facix2/_php/rdstation/webhook.php
REFERER: 
ID_curso: 5
--------------------
DATA: 2019-09-27 as 02:09:32
IP: 35.202.254.128
URL: www.methodus.com.br/facix2/_php/rdstation/webhook.php
REFERER: 
ID_curso: 4
--------------------
DATA: 2019-09-27 as 02:09:32
IP: 35.202.254.128
URL: www.methodus.com.br/facix2/_php/rdstation/webhook.php
REFERER: 
ID_curso: 6
--------------------
DATA: 2019-09-27 as 02:09:32
IP: 35.202.254.128
URL: www.methodus.com.br/facix2/_php/rdstation/webhook.php
REFERER: 
ID_curso: 4
--------------------
DATA: 2019-09-27 as 02:09:38
IP: 35.202.254.128
URL: www.methodus.com.br/facix2/_php/rdstation/webhook.php
REFERER: 
Observações:  / Perfil: Sou um profissional da área de comunicações / Interesse: Curso de Administração do Tempo / Perfil: Sou vestibulando / concursando / perfil: Sou vestibulando / concursando / Perfil: Sou empreendedor / Perfil: Sou vestibulando / concursando
--------------------
DATA: 2019-09-27 as 17:31:26
IP: 104.154.186.67
URL: www.methodus.com.br/facix2/_php/rdstation/webhook.php
REFERER: 
{"leads":[{"id":"665365954","email":"liliabritoassistentesocial@hotmail.com","name":"LILIA BRITO","company":null,"job_title":null,"bio":null,"public_url":"http://rdstation.com.br/leads/public/e4d522ca-c023-4b54-909d-d69cef17d4e0","created_at":"2019-09-27T11:30:52.320-03:00","opportunity":"false","number_conversions":"1","user":null,"first_conversion":{"content":{"identificador":"guia-medo-de-falar-em-publico","_rd_experiment_content_id":"","traffic_source":"","created_at":"2019-09-27T14:30:52.320155Z","ip":"189.52.86.28","email_lead":"liliabritoassistentesocial@hotmail.com","Nome":"LILIA BRITO"},"created_at":"2019-09-27T11:30:52.320-03:00","cumulative_sum":"1","source":"guia-medo-de-falar-em-publico","conversion_origin":{"source":"unknown","medium":"unknown","value":null,"campaign":"unknown","channel":"Unknown"}},"last_conversion":{"content":{"identificador":"guia-medo-de-falar-em-publico","_rd_experiment_content_id":"","traffic_source":"","created_at":"2019-09-27T14:30:52.320155Z","ip":"189.52.86.28","email_lead":"liliabritoassistentesocial@hotmail.com","Nome":"LILIA BRITO"},"created_at":"2019-09-27T11:30:52.320-03:00","cumulative_sum":"1","source":"guia-medo-de-falar-em-publico","conversion_origin":{"source":"unknown","medium":"unknown","value":null,"campaign":"unknown","channel":"Unknown"}},"custom_fields":{},"website":null,"personal_phone":null,"mobile_phone":null,"city":null,"state":null,"tags":null,"lead_stage":"Lead","last_marked_opportunity_date":null,"uuid":"e4d522ca-c023-4b54-909d-d69cef17d4e0","fit_score":"d","interest":0}]}
--------------------
DATA: 2019-09-27 as 17:31:26
IP: 104.154.186.67
URL: www.methodus.com.br/facix2/_php/rdstation/webhook.php
REFERER: 
liliabritoassistentesocial@hotmail.com
--------------------
DATA: 2019-09-27 as 17:31:32
IP: 104.154.186.67
URL: www.methodus.com.br/facix2/_php/rdstation/webhook.php
REFERER: 
Observações: 
--------------------
DATA: 2019-09-27 as 17:51:13
IP: 34.67.25.145
URL: www.methodus.com.br/facix2/_php/rdstation/webhook.php
REFERER: 
{"leads":[{"id":"665365954","email":"liliabritoassistentesocial@hotmail.com","name":"LILIA BRITO","company":null,"job_title":null,"bio":null,"public_url":"http://rdstation.com.br/leads/public/e4d522ca-c023-4b54-909d-d69cef17d4e0","created_at":"2019-09-27T11:30:52.320-03:00","opportunity":"false","number_conversions":"1","user":null,"first_conversion":{"content":{"identificador":"guia-medo-de-falar-em-publico","_rd_experiment_content_id":"","traffic_source":"","created_at":"2019-09-27T14:30:52.320155Z","ip":"189.52.86.28","email_lead":"liliabritoassistentesocial@hotmail.com","Nome":"LILIA BRITO"},"created_at":"2019-09-27T11:30:52.320-03:00","cumulative_sum":"1","source":"guia-medo-de-falar-em-publico","conversion_origin":{"source":"unknown","medium":"unknown","value":null,"campaign":"unknown","channel":"Unknown"}},"last_conversion":{"content":{"identificador":"guia-medo-de-falar-em-publico","_rd_experiment_content_id":"","traffic_source":"","created_at":"2019-09-27T14:30:52.320155Z","ip":"189.52.86.28","email_lead":"liliabritoassistentesocial@hotmail.com","Nome":"LILIA BRITO"},"created_at":"2019-09-27T11:30:52.320-03:00","cumulative_sum":"1","source":"guia-medo-de-falar-em-publico","conversion_origin":{"source":"unknown","medium":"unknown","value":null,"campaign":"unknown","channel":"Unknown"}},"custom_fields":{},"website":null,"personal_phone":null,"mobile_phone":null,"city":null,"state":null,"tags":null,"lead_stage":"Lead","last_marked_opportunity_date":null,"uuid":"e4d522ca-c023-4b54-909d-d69cef17d4e0","fit_score":"d","interest":15}]}
--------------------
DATA: 2019-09-27 as 17:51:13
IP: 34.67.25.145
URL: www.methodus.com.br/facix2/_php/rdstation/webhook.php
REFERER: 
liliabritoassistentesocial@hotmail.com
--------------------
DATA: 2019-09-27 as 17:51:19
IP: 34.67.25.145
URL: www.methodus.com.br/facix2/_php/rdstation/webhook.php
REFERER: 
Observações: 
--------------------
DATA: 2019-09-27 as 18:14:24
IP: 34.66.202.78
URL: www.methodus.com.br/facix2/_php/rdstation/webhook.php
REFERER: 
{"leads":[{"id":"665365954","email":"liliabritoassistentesocial@hotmail.com","name":"LILIA BRITO","company":null,"job_title":null,"bio":null,"public_url":"http://rdstation.com.br/leads/public/e4d522ca-c023-4b54-909d-d69cef17d4e0","created_at":"2019-09-27T11:30:52.320-03:00","opportunity":"false","number_conversions":"1","user":null,"first_conversion":{"content":{"identificador":"guia-medo-de-falar-em-publico","_rd_experiment_content_id":"","traffic_source":"","created_at":"2019-09-27T14:30:52.320155Z","ip":"189.52.86.28","email_lead":"liliabritoassistentesocial@hotmail.com","Nome":"LILIA BRITO"},"created_at":"2019-09-27T11:30:52.320-03:00","cumulative_sum":"1","source":"guia-medo-de-falar-em-publico","conversion_origin":{"source":"unknown","medium":"unknown","value":null,"campaign":"unknown","channel":"Unknown"}},"last_conversion":{"content":{"identificador":"guia-medo-de-falar-em-publico","_rd_experiment_content_id":"","traffic_source":"","created_at":"2019-09-27T14:30:52.320155Z","ip":"189.52.86.28","email_lead":"liliabritoassistentesocial@hotmail.com","Nome":"LILIA BRITO"},"created_at":"2019-09-27T11:30:52.320-03:00","cumulative_sum":"1","source":"guia-medo-de-falar-em-publico","conversion_origin":{"source":"unknown","medium":"unknown","value":null,"campaign":"unknown","channel":"Unknown"}},"custom_fields":{},"website":null,"personal_phone":null,"mobile_phone":null,"city":null,"state":null,"tags":null,"lead_stage":"Lead","last_marked_opportunity_date":null,"uuid":"e4d522ca-c023-4b54-909d-d69cef17d4e0","fit_score":"d","interest":15}]}
--------------------
DATA: 2019-09-27 as 18:14:24
IP: 34.66.202.78
URL: www.methodus.com.br/facix2/_php/rdstation/webhook.php
REFERER: 
liliabritoassistentesocial@hotmail.com
--------------------
DATA: 2019-09-27 as 18:14:27
IP: 34.66.202.78
URL: www.methodus.com.br/facix2/_php/rdstation/webhook.php
REFERER: 
Observações: 
--------------------
DATA: 2019-09-27 as 21:45:04
IP: 34.66.250.175
URL: www.methodus.com.br/facix2/_php/rdstation/webhook.php
REFERER: 
{"leads":[{"id":"665734186","email":"paula_ponte6@hotmail.com","name":"Paula Ponte Moreira","company":null,"job_title":null,"bio":null,"public_url":"http://rdstation.com.br/leads/public/1dede6c1-98a1-43e2-818a-fb14210f82e4","created_at":"2019-09-27T15:44:51.180-03:00","opportunity":"false","number_conversions":"1","user":null,"first_conversion":{"content":{"identificador":"guia-medo-de-falar-em-publico","_rd_experiment_content_id":"","traffic_source":"encoded_eyJmaXJzdF9zZXNzaW9uIjp7InZhbHVlIjoiaHR0cHM6Ly93d3cuZ29vZ2xlLmNvbS8iLCJleHRyYV9wYXJhbXMiOnt9fSwiY3VycmVudF9zZXNzaW9uIjp7InZhbHVlIjoiaHR0cHM6Ly93d3cuZ29vZ2xlLmNvbS8iLCJleHRyYV9wYXJhbXMiOnt9fSwiY3JlYXRlZF9hdCI6MTU2OTYwOTg2MjUwOX0=","created_at":"2019-09-27T18:44:51.180229Z","ip":"179.191.121.66","email_lead":"paula_ponte6@hotmail.com","Nome":"Paula Ponte Moreira"},"created_at":"2019-09-27T15:44:51.180-03:00","cumulative_sum":"1","source":"guia-medo-de-falar-em-publico","conversion_origin":{"source":"Google","medium":"organic","value":null,"campaign":null,"channel":"Organic Search"}},"last_conversion":{"content":{"identificador":"guia-medo-de-falar-em-publico","_rd_experiment_content_id":"","traffic_source":"encoded_eyJmaXJzdF9zZXNzaW9uIjp7InZhbHVlIjoiaHR0cHM6Ly93d3cuZ29vZ2xlLmNvbS8iLCJleHRyYV9wYXJhbXMiOnt9fSwiY3VycmVudF9zZXNzaW9uIjp7InZhbHVlIjoiaHR0cHM6Ly93d3cuZ29vZ2xlLmNvbS8iLCJleHRyYV9wYXJhbXMiOnt9fSwiY3JlYXRlZF9hdCI6MTU2OTYwOTg2MjUwOX0=","created_at":"2019-09-27T18:44:51.180229Z","ip":"179.191.121.66","email_lead":"paula_ponte6@hotmail.com","Nome":"Paula Ponte Moreira"},"created_at":"2019-09-27T15:44:51.180-03:00","cumulative_sum":"1","source":"guia-medo-de-falar-em-publico","conversion_origin":{"source":"Google","medium":"organic","value":null,"campaign":null,"channel":"Organic Search"}},"custom_fields":{},"website":null,"personal_phone":null,"mobile_phone":null,"city":null,"state":null,"tags":null,"lead_stage":"Lead","last_marked_opportunity_date":null,"uuid":"1dede6c1-98a1-43e2-818a-fb14210f82e4","fit_score":"d","interest":0}]}
--------------------
DATA: 2019-09-27 as 21:45:04
IP: 34.66.250.175
URL: www.methodus.com.br/facix2/_php/rdstation/webhook.php
REFERER: 
paula_ponte6@hotmail.com
--------------------
DATA: 2019-09-27 as 21:45:08
IP: 34.66.250.175
URL: www.methodus.com.br/facix2/_php/rdstation/webhook.php
REFERER: 
Observações: 
--------------------