
DATA: 2019-03-06 as 00:02:37
IP: 35.236.255.213
URL: www.methodus.com.br/facix2/_php/rdstation/webhook.php
REFERER: 
{"leads":[{"id":"490870062","email":"wagnerpaivasjc@hotmail.com","name":"WAGNER DE PAIVA MENDONCA","company":null,"job_title":null,"bio":null,"public_url":"http://rdstation.com.br/leads/public/6c3ae5b5-6e1c-4941-9e31-116adb3f3532","created_at":"2019-03-05T18:02:18.824-03:00","opportunity":"false","number_conversions":"1","user":null,"first_conversion":{"content":{"identificador":"guia-medo-de-falar-em-publico","_rd_experiment_content_id":"","traffic_source":"encoded_eyJmaXJzdF9zZXNzaW9uIjp7InZhbHVlIjoiaHR0cHM6Ly93d3cuZ29vZ2xlLmNvbS8iLCJleHRyYV9wYXJhbXMiOnt9fSwiY3VycmVudF9zZXNzaW9uIjp7InZhbHVlIjoiaHR0cHM6Ly93d3cuZ29vZ2xlLmNvbS8iLCJleHRyYV9wYXJhbXMiOnt9fSwiY3JlYXRlZF9hdCI6MTU1MTgxOTcyNDYxOH0=","created_at":"2019-03-05T21:02:18.824063Z","ip":"184.51.101.141","email_lead":"wagnerpaivasjc@hotmail.com","Nome":"WAGNER DE PAIVA MENDONCA"},"created_at":"2019-03-05T18:02:18.824-03:00","cumulative_sum":"1","source":"guia-medo-de-falar-em-publico","conversion_origin":{"source":"Google","medium":"organic","value":null,"campaign":null,"channel":"Organic Search"}},"last_conversion":{"content":{"identificador":"guia-medo-de-falar-em-publico","_rd_experiment_content_id":"","traffic_source":"encoded_eyJmaXJzdF9zZXNzaW9uIjp7InZhbHVlIjoiaHR0cHM6Ly93d3cuZ29vZ2xlLmNvbS8iLCJleHRyYV9wYXJhbXMiOnt9fSwiY3VycmVudF9zZXNzaW9uIjp7InZhbHVlIjoiaHR0cHM6Ly93d3cuZ29vZ2xlLmNvbS8iLCJleHRyYV9wYXJhbXMiOnt9fSwiY3JlYXRlZF9hdCI6MTU1MTgxOTcyNDYxOH0=","created_at":"2019-03-05T21:02:18.824063Z","ip":"184.51.101.141","email_lead":"wagnerpaivasjc@hotmail.com","Nome":"WAGNER DE PAIVA MENDONCA"},"created_at":"2019-03-05T18:02:18.824-03:00","cumulative_sum":"1","source":"guia-medo-de-falar-em-publico","conversion_origin":{"source":"Google","medium":"organic","value":null,"campaign":null,"channel":"Organic Search"}},"custom_fields":{},"website":null,"personal_phone":null,"mobile_phone":null,"city":null,"state":null,"tags":null,"lead_stage":"Lead","last_marked_opportunity_date":null,"uuid":"6c3ae5b5-6e1c-4941-9e31-116adb3f3532","fit_score":"d","interest":0}]}
--------------------
DATA: 2019-03-06 as 00:02:37
IP: 35.236.255.213
URL: www.methodus.com.br/facix2/_php/rdstation/webhook.php
REFERER: 
wagnerpaivasjc@hotmail.com
--------------------
DATA: 2019-03-06 as 00:02:41
IP: 35.236.255.213
URL: www.methodus.com.br/facix2/_php/rdstation/webhook.php
REFERER: 
Observações: 
--------------------
DATA: 2019-03-06 as 02:51:19
IP: 35.236.255.213
URL: www.methodus.com.br/facix2/_php/rdstation/webhook.php
REFERER: 
{"leads":[{"id":"490904190","email":"wilsonhapa21@gmail.com","name":"Wilson","company":null,"job_title":null,"bio":null,"public_url":"http://rdstation.com.br/leads/public/da9d293b-9e9e-4d82-82c0-b00fa74ba19f","created_at":"2019-03-05T20:51:05.728-03:00","opportunity":"false","number_conversions":"1","user":null,"first_conversion":{"content":{"identificador":"guia-medo-de-falar-em-publico","_rd_experiment_content_id":"","traffic_source":"encoded_eyJmaXJzdF9zZXNzaW9uIjp7InZhbHVlIjoiaHR0cHM6Ly93d3cuZ29vZ2xlLmNvbS5ici8iLCJleHRyYV9wYXJhbXMiOnt9fSwiY3VycmVudF9zZXNzaW9uIjp7InZhbHVlIjoiaHR0cHM6Ly93d3cuZ29vZ2xlLmNvbS5ici8iLCJleHRyYV9wYXJhbXMiOnt9fSwiY3JlYXRlZF9hdCI6MTU1MTgyOTgzODUwNn0=","created_at":"2019-03-05T23:51:05.728919Z","ip":"69.31.29.106","email_lead":"wilsonhapa21@gmail.com","Nome":"Wilson"},"created_at":"2019-03-05T20:51:05.728-03:00","cumulative_sum":"1","source":"guia-medo-de-falar-em-publico","conversion_origin":{"source":"Google","medium":"organic","value":null,"campaign":null,"channel":"Organic Search"}},"last_conversion":{"content":{"identificador":"guia-medo-de-falar-em-publico","_rd_experiment_content_id":"","traffic_source":"encoded_eyJmaXJzdF9zZXNzaW9uIjp7InZhbHVlIjoiaHR0cHM6Ly93d3cuZ29vZ2xlLmNvbS5ici8iLCJleHRyYV9wYXJhbXMiOnt9fSwiY3VycmVudF9zZXNzaW9uIjp7InZhbHVlIjoiaHR0cHM6Ly93d3cuZ29vZ2xlLmNvbS5ici8iLCJleHRyYV9wYXJhbXMiOnt9fSwiY3JlYXRlZF9hdCI6MTU1MTgyOTgzODUwNn0=","created_at":"2019-03-05T23:51:05.728919Z","ip":"69.31.29.106","email_lead":"wilsonhapa21@gmail.com","Nome":"Wilson"},"created_at":"2019-03-05T20:51:05.728-03:00","cumulative_sum":"1","source":"guia-medo-de-falar-em-publico","conversion_origin":{"source":"Google","medium":"organic","value":null,"campaign":null,"channel":"Organic Search"}},"custom_fields":{},"website":null,"personal_phone":null,"mobile_phone":null,"city":null,"state":null,"tags":null,"lead_stage":"Lead","last_marked_opportunity_date":null,"uuid":"da9d293b-9e9e-4d82-82c0-b00fa74ba19f","fit_score":"d","interest":0}]}
--------------------
DATA: 2019-03-06 as 02:51:19
IP: 35.236.255.213
URL: www.methodus.com.br/facix2/_php/rdstation/webhook.php
REFERER: 
wilsonhapa21@gmail.com
--------------------
DATA: 2019-03-06 as 02:51:23
IP: 35.236.255.213
URL: www.methodus.com.br/facix2/_php/rdstation/webhook.php
REFERER: 
Observações: 
--------------------
DATA: 2019-03-06 as 02:51:24
IP: 35.188.227.242
URL: www.methodus.com.br/facix2/_php/rdstation/webhook.php
REFERER: 
{"leads":[{"id":"490904190","email":"wilsonhapa21@gmail.com","name":"Wilson","company":null,"job_title":null,"bio":null,"public_url":"http://rdstation.com.br/leads/public/da9d293b-9e9e-4d82-82c0-b00fa74ba19f","created_at":"2019-03-05T20:51:05.728-03:00","opportunity":"false","number_conversions":"1","user":null,"first_conversion":{"content":{"identificador":"guia-medo-de-falar-em-publico","_rd_experiment_content_id":"","traffic_source":"encoded_eyJmaXJzdF9zZXNzaW9uIjp7InZhbHVlIjoiaHR0cHM6Ly93d3cuZ29vZ2xlLmNvbS5ici8iLCJleHRyYV9wYXJhbXMiOnt9fSwiY3VycmVudF9zZXNzaW9uIjp7InZhbHVlIjoiaHR0cHM6Ly93d3cuZ29vZ2xlLmNvbS5ici8iLCJleHRyYV9wYXJhbXMiOnt9fSwiY3JlYXRlZF9hdCI6MTU1MTgyOTgzODUwNn0=","created_at":"2019-03-05T23:51:05.728919Z","ip":"69.31.29.106","email_lead":"wilsonhapa21@gmail.com","Nome":"Wilson"},"created_at":"2019-03-05T20:51:05.728-03:00","cumulative_sum":"1","source":"guia-medo-de-falar-em-publico","conversion_origin":{"source":"Google","medium":"organic","value":null,"campaign":null,"channel":"Organic Search"}},"last_conversion":{"content":{"identificador":"guia-medo-de-falar-em-publico","_rd_experiment_content_id":"","traffic_source":"encoded_eyJmaXJzdF9zZXNzaW9uIjp7InZhbHVlIjoiaHR0cHM6Ly93d3cuZ29vZ2xlLmNvbS5ici8iLCJleHRyYV9wYXJhbXMiOnt9fSwiY3VycmVudF9zZXNzaW9uIjp7InZhbHVlIjoiaHR0cHM6Ly93d3cuZ29vZ2xlLmNvbS5ici8iLCJleHRyYV9wYXJhbXMiOnt9fSwiY3JlYXRlZF9hdCI6MTU1MTgyOTgzODUwNn0=","created_at":"2019-03-05T23:51:05.728919Z","ip":"69.31.29.106","email_lead":"wilsonhapa21@gmail.com","Nome":"Wilson"},"created_at":"2019-03-05T20:51:05.728-03:00","cumulative_sum":"1","source":"guia-medo-de-falar-em-publico","conversion_origin":{"source":"Google","medium":"organic","value":null,"campaign":null,"channel":"Organic Search"}},"custom_fields":{},"website":null,"personal_phone":null,"mobile_phone":null,"city":null,"state":null,"tags":null,"lead_stage":"Lead","last_marked_opportunity_date":null,"uuid":"da9d293b-9e9e-4d82-82c0-b00fa74ba19f","fit_score":"d","interest":0}]}
--------------------
DATA: 2019-03-06 as 02:51:24
IP: 35.188.227.242
URL: www.methodus.com.br/facix2/_php/rdstation/webhook.php
REFERER: 
wilsonhapa21@gmail.com
--------------------
DATA: 2019-03-06 as 02:51:27
IP: 35.188.227.242
URL: www.methodus.com.br/facix2/_php/rdstation/webhook.php
REFERER: 
Observações: 
--------------------