
DATA: 2020-01-18 as 04:41:46
IP: 34.66.56.111
URL: www.methodus.com.br/facix2/_php/rdstation/webhook.php
REFERER: 
{"leads":[{"id":"778025124","email":"elivaniacele1999silva@gmail.com","name":"Elivania Celestino da Silva ","company":null,"job_title":null,"bio":null,"public_url":"http://rdstation.com.br/leads/public/a0b67011-ee91-4227-bf25-f10a18934419","created_at":"2020-01-17T22:41:32.681-03:00","opportunity":"false","number_conversions":"1","user":null,"first_conversion":{"content":{"identificador":"guia-medo-de-falar-em-publico","_rd_experiment_content_id":"","traffic_source":"encoded_eyJmaXJzdF9zZXNzaW9uIjp7InZhbHVlIjoiaHR0cHM6Ly93d3cubWV0aG9kdXMuY29tLmJyL2hvbWUuaHRtbCIsImV4dHJhX3BhcmFtcyI6e319LCJjdXJyZW50X3Nlc3Npb24iOnsidmFsdWUiOiJodHRwczovL3d3dy5tZXRob2R1cy5jb20uYnIvaG9tZS5odG1sIiwiZXh0cmFfcGFyYW1zIjp7fX0sImNyZWF0ZWRfYXQiOjE1NzkzMTE2NjA5ODR9","created_at":"2020-01-18T01:41:32.681433Z","ip":"45.225.86.211","email_lead":"elivaniacele1999silva@gmail.com","Nome":"Elivania Celestino da Silva "},"created_at":"2020-01-17T22:41:32.681-03:00","cumulative_sum":"1","source":"guia-medo-de-falar-em-publico","conversion_origin":{"source":"methodus.com.br","medium":"referral","value":null,"campaign":"(referral)","channel":"Referral"}},"last_conversion":{"content":{"identificador":"guia-medo-de-falar-em-publico","_rd_experiment_content_id":"","traffic_source":"encoded_eyJmaXJzdF9zZXNzaW9uIjp7InZhbHVlIjoiaHR0cHM6Ly93d3cubWV0aG9kdXMuY29tLmJyL2hvbWUuaHRtbCIsImV4dHJhX3BhcmFtcyI6e319LCJjdXJyZW50X3Nlc3Npb24iOnsidmFsdWUiOiJodHRwczovL3d3dy5tZXRob2R1cy5jb20uYnIvaG9tZS5odG1sIiwiZXh0cmFfcGFyYW1zIjp7fX0sImNyZWF0ZWRfYXQiOjE1NzkzMTE2NjA5ODR9","created_at":"2020-01-18T01:41:32.681433Z","ip":"45.225.86.211","email_lead":"elivaniacele1999silva@gmail.com","Nome":"Elivania Celestino da Silva "},"created_at":"2020-01-17T22:41:32.681-03:00","cumulative_sum":"1","source":"guia-medo-de-falar-em-publico","conversion_origin":{"source":"methodus.com.br","medium":"referral","value":null,"campaign":"(referral)","channel":"Referral"}},"custom_fields":{},"website":null,"personal_phone":null,"mobile_phone":null,"city":null,"state":null,"tags":null,"lead_stage":"Lead","last_marked_opportunity_date":null,"uuid":"a0b67011-ee91-4227-bf25-f10a18934419","fit_score":"d","interest":0}]}
--------------------
DATA: 2020-01-18 as 04:41:46
IP: 34.66.56.111
URL: www.methodus.com.br/facix2/_php/rdstation/webhook.php
REFERER: 
elivaniacele1999silva@gmail.com
--------------------
DATA: 2020-01-18 as 04:41:53
IP: 34.66.56.111
URL: www.methodus.com.br/facix2/_php/rdstation/webhook.php
REFERER: 
Observações: 
--------------------
DATA: 2020-01-18 as 04:42:31
IP: 35.225.36.28
URL: www.methodus.com.br/facix2/_php/rdstation/webhook.php
REFERER: 
{"leads":[{"id":"778025124","email":"elivaniacele1999silva@gmail.com","name":"Elivania Celestino da Silva ","company":null,"job_title":null,"bio":null,"public_url":"http://rdstation.com.br/leads/public/a0b67011-ee91-4227-bf25-f10a18934419","created_at":"2020-01-17T22:41:32.681-03:00","opportunity":"false","number_conversions":"2","user":null,"first_conversion":{"content":{"identificador":"guia-medo-de-falar-em-publico","_rd_experiment_content_id":"","traffic_source":"encoded_eyJmaXJzdF9zZXNzaW9uIjp7InZhbHVlIjoiaHR0cHM6Ly93d3cubWV0aG9kdXMuY29tLmJyL2hvbWUuaHRtbCIsImV4dHJhX3BhcmFtcyI6e319LCJjdXJyZW50X3Nlc3Npb24iOnsidmFsdWUiOiJodHRwczovL3d3dy5tZXRob2R1cy5jb20uYnIvaG9tZS5odG1sIiwiZXh0cmFfcGFyYW1zIjp7fX0sImNyZWF0ZWRfYXQiOjE1NzkzMTE2NjA5ODR9","created_at":"2020-01-18T01:41:32.681433Z","ip":"45.225.86.211","email_lead":"elivaniacele1999silva@gmail.com","Nome":"Elivania Celestino da Silva "},"created_at":"2020-01-17T22:41:32.681-03:00","cumulative_sum":"1","source":"guia-medo-de-falar-em-publico","conversion_origin":{"source":"methodus.com.br","medium":"referral","value":null,"campaign":"(referral)","channel":"Referral"}},"last_conversion":{"content":{"identificador":"guia-medo-de-falar-em-publico","_rd_experiment_content_id":"","traffic_source":"encoded_eyJmaXJzdF9zZXNzaW9uIjp7InZhbHVlIjoiaHR0cHM6Ly93d3cubWV0aG9kdXMuY29tLmJyL2hvbWUuaHRtbCIsImV4dHJhX3BhcmFtcyI6e319LCJjdXJyZW50X3Nlc3Npb24iOnsidmFsdWUiOiJodHRwczovL3d3dy5tZXRob2R1cy5jb20uYnIvaG9tZS5odG1sIiwiZXh0cmFfcGFyYW1zIjp7fX0sImNyZWF0ZWRfYXQiOjE1NzkzMTE2NjA5ODR9","created_at":"2020-01-18T01:42:16.191939Z","ip":"45.225.86.211","email_lead":"elivaniacele1999silva@gmail.com","Nome":"Elivania Celestino da Silva "},"created_at":"2020-01-17T22:42:16.191-03:00","cumulative_sum":"2","source":"guia-medo-de-falar-em-publico","conversion_origin":{"source":"methodus.com.br","medium":"referral","value":null,"campaign":"(referral)","channel":"Referral"}},"custom_fields":{},"website":null,"personal_phone":null,"mobile_phone":null,"city":null,"state":null,"tags":null,"lead_stage":"Lead","last_marked_opportunity_date":null,"uuid":"a0b67011-ee91-4227-bf25-f10a18934419","fit_score":"d","interest":15}]}
--------------------
DATA: 2020-01-18 as 04:42:31
IP: 35.225.36.28
URL: www.methodus.com.br/facix2/_php/rdstation/webhook.php
REFERER: 
elivaniacele1999silva@gmail.com
--------------------
DATA: 2020-01-18 as 04:42:34
IP: 35.225.36.28
URL: www.methodus.com.br/facix2/_php/rdstation/webhook.php
REFERER: 
Observações: 
--------------------
DATA: 2020-01-18 as 07:55:39
IP: 35.202.129.238
URL: www.methodus.com.br/facix2/_php/rdstation/webhook.php
REFERER: 
{"leads":[{"id":"778025124","email":"elivaniacele1999silva@gmail.com","name":"Elivania Celestino da Silva ","company":null,"job_title":null,"bio":null,"public_url":"http://rdstation.com.br/leads/public/a0b67011-ee91-4227-bf25-f10a18934419","created_at":"2020-01-17T22:41:32.681-03:00","opportunity":"false","number_conversions":"3","user":null,"first_conversion":{"content":{"identificador":"guia-medo-de-falar-em-publico","_rd_experiment_content_id":"","traffic_source":"encoded_eyJmaXJzdF9zZXNzaW9uIjp7InZhbHVlIjoiaHR0cHM6Ly93d3cubWV0aG9kdXMuY29tLmJyL2hvbWUuaHRtbCIsImV4dHJhX3BhcmFtcyI6e319LCJjdXJyZW50X3Nlc3Npb24iOnsidmFsdWUiOiJodHRwczovL3d3dy5tZXRob2R1cy5jb20uYnIvaG9tZS5odG1sIiwiZXh0cmFfcGFyYW1zIjp7fX0sImNyZWF0ZWRfYXQiOjE1NzkzMTE2NjA5ODR9","created_at":"2020-01-18T01:41:32.681433Z","ip":"45.225.86.211","email_lead":"elivaniacele1999silva@gmail.com","Nome":"Elivania Celestino da Silva "},"created_at":"2020-01-17T22:41:32.681-03:00","cumulative_sum":"1","source":"guia-medo-de-falar-em-publico","conversion_origin":{"source":"methodus.com.br","medium":"referral","value":null,"campaign":"(referral)","channel":"Referral"}},"last_conversion":{"content":{"identificador":"5-fatores-estrategicos-de-persuasao-landingpage","_rd_experiment_content_id":"","traffic_source":"encoded_eyJmaXJzdF9zZXNzaW9uIjp7InZhbHVlIjoiaHR0cHM6Ly93d3cubWV0aG9kdXMuY29tLmJyL2hvbWUuaHRtbCIsImV4dHJhX3BhcmFtcyI6e319LCJjdXJyZW50X3Nlc3Npb24iOnsidmFsdWUiOiJodHRwczovL3d3dy5tZXRob2R1cy5jb20uYnIvaG9tZS5odG1sIiwiZXh0cmFfcGFyYW1zIjp7fX0sImNyZWF0ZWRfYXQiOjE1NzkzMTE3NzUzOTl9","created_at":"2020-01-18T01:42:59.495313Z","ip":"45.225.86.211","email_lead":"elivaniacele1999silva@gmail.com","Nome":"Elivania Celestino da Silva "},"created_at":"2020-01-17T22:42:59.495-03:00","cumulative_sum":"3","source":"5-fatores-estrategicos-de-persuasao-landingpage","conversion_origin":{"source":"methodus.com.br","medium":"referral","value":null,"campaign":"(referral)","channel":"Referral"}},"custom_fields":{},"website":null,"personal_phone":null,"mobile_phone":null,"city":null,"state":null,"tags":null,"lead_stage":"Lead","last_marked_opportunity_date":null,"uuid":"a0b67011-ee91-4227-bf25-f10a18934419","fit_score":"d","interest":30}]}
--------------------
DATA: 2020-01-18 as 07:55:39
IP: 35.202.129.238
URL: www.methodus.com.br/facix2/_php/rdstation/webhook.php
REFERER: 
elivaniacele1999silva@gmail.com
--------------------
DATA: 2020-01-18 as 07:55:42
IP: 35.202.129.238
URL: www.methodus.com.br/facix2/_php/rdstation/webhook.php
REFERER: 
Observações: 
--------------------
DATA: 2020-01-18 as 15:43:14
IP: 104.197.142.146
URL: www.methodus.com.br/facix2/_php/rdstation/webhook.php
REFERER: 
{"leads":[{"id":"778128697","email":"silv.marcelo74@gmail.com","name":"Marcelo da Silva","company":null,"job_title":null,"bio":null,"public_url":"http://rdstation.com.br/leads/public/2e625679-77f0-4883-b138-312275dd2291","created_at":"2020-01-18T09:43:00.459-03:00","opportunity":"false","number_conversions":"1","user":null,"first_conversion":{"content":{"identificador":"guia-medo-de-falar-em-publico","_rd_experiment_content_id":"","traffic_source":"encoded_eyJmaXJzdF9zZXNzaW9uIjp7InZhbHVlIjoiKG5vbmUpIiwiZXh0cmFfcGFyYW1zIjp7fX0sImN1cnJlbnRfc2Vzc2lvbiI6eyJ2YWx1ZSI6Iihub25lKSIsImV4dHJhX3BhcmFtcyI6e319LCJjcmVhdGVkX2F0IjoxNTc5MzUxMzU5NjM2fQ==","created_at":"2020-01-18T12:43:00.459379Z","ip":"189.19.134.209","email_lead":"silv.marcelo74@gmail.com","Nome":"Marcelo da Silva"},"created_at":"2020-01-18T09:43:00.459-03:00","cumulative_sum":"1","source":"guia-medo-de-falar-em-publico","conversion_origin":{"source":"(direct)","medium":"(none)","value":null,"campaign":"(direct)","channel":"Direct"}},"last_conversion":{"content":{"identificador":"guia-medo-de-falar-em-publico","_rd_experiment_content_id":"","traffic_source":"encoded_eyJmaXJzdF9zZXNzaW9uIjp7InZhbHVlIjoiKG5vbmUpIiwiZXh0cmFfcGFyYW1zIjp7fX0sImN1cnJlbnRfc2Vzc2lvbiI6eyJ2YWx1ZSI6Iihub25lKSIsImV4dHJhX3BhcmFtcyI6e319LCJjcmVhdGVkX2F0IjoxNTc5MzUxMzU5NjM2fQ==","created_at":"2020-01-18T12:43:00.459379Z","ip":"189.19.134.209","email_lead":"silv.marcelo74@gmail.com","Nome":"Marcelo da Silva"},"created_at":"2020-01-18T09:43:00.459-03:00","cumulative_sum":"1","source":"guia-medo-de-falar-em-publico","conversion_origin":{"source":"(direct)","medium":"(none)","value":null,"campaign":"(direct)","channel":"Direct"}},"custom_fields":{},"website":null,"personal_phone":null,"mobile_phone":null,"city":null,"state":null,"tags":null,"lead_stage":"Lead","last_marked_opportunity_date":null,"uuid":"2e625679-77f0-4883-b138-312275dd2291","fit_score":"d","interest":0}]}
--------------------
DATA: 2020-01-18 as 15:43:14
IP: 104.197.142.146
URL: www.methodus.com.br/facix2/_php/rdstation/webhook.php
REFERER: 
silv.marcelo74@gmail.com
--------------------
DATA: 2020-01-18 as 15:43:18
IP: 104.197.142.146
URL: www.methodus.com.br/facix2/_php/rdstation/webhook.php
REFERER: 
Observações: 
--------------------
DATA: 2020-01-18 as 15:43:29
IP: 35.239.128.187
URL: www.methodus.com.br/facix2/_php/rdstation/webhook.php
REFERER: 
{"leads":[{"id":"778128697","email":"silv.marcelo74@gmail.com","name":"Marcelo da Silva","company":null,"job_title":null,"bio":null,"public_url":"http://rdstation.com.br/leads/public/2e625679-77f0-4883-b138-312275dd2291","created_at":"2020-01-18T09:43:00.459-03:00","opportunity":"false","number_conversions":"2","user":null,"first_conversion":{"content":{"identificador":"guia-medo-de-falar-em-publico","_rd_experiment_content_id":"","traffic_source":"encoded_eyJmaXJzdF9zZXNzaW9uIjp7InZhbHVlIjoiKG5vbmUpIiwiZXh0cmFfcGFyYW1zIjp7fX0sImN1cnJlbnRfc2Vzc2lvbiI6eyJ2YWx1ZSI6Iihub25lKSIsImV4dHJhX3BhcmFtcyI6e319LCJjcmVhdGVkX2F0IjoxNTc5MzUxMzU5NjM2fQ==","created_at":"2020-01-18T12:43:00.459379Z","ip":"189.19.134.209","email_lead":"silv.marcelo74@gmail.com","Nome":"Marcelo da Silva"},"created_at":"2020-01-18T09:43:00.459-03:00","cumulative_sum":"1","source":"guia-medo-de-falar-em-publico","conversion_origin":{"source":"(direct)","medium":"(none)","value":null,"campaign":"(direct)","channel":"Direct"}},"last_conversion":{"content":{"identificador":"guia-medo-de-falar-em-publico","_rd_experiment_content_id":"","traffic_source":"encoded_eyJmaXJzdF9zZXNzaW9uIjp7InZhbHVlIjoiKG5vbmUpIiwiZXh0cmFfcGFyYW1zIjp7fX0sImN1cnJlbnRfc2Vzc2lvbiI6eyJ2YWx1ZSI6Iihub25lKSIsImV4dHJhX3BhcmFtcyI6e319LCJjcmVhdGVkX2F0IjoxNTc5MzUxMzU5NjM2fQ==","created_at":"2020-01-18T12:43:12.797173Z","ip":"189.19.134.209","email_lead":"silv.marcelo74@gmail.com","Nome":"Marcelo da Silva"},"created_at":"2020-01-18T09:43:12.797-03:00","cumulative_sum":"2","source":"guia-medo-de-falar-em-publico","conversion_origin":{"source":"(direct)","medium":"(none)","value":null,"campaign":"(direct)","channel":"Direct"}},"custom_fields":{},"website":null,"personal_phone":null,"mobile_phone":null,"city":null,"state":null,"tags":null,"lead_stage":"Lead","last_marked_opportunity_date":null,"uuid":"2e625679-77f0-4883-b138-312275dd2291","fit_score":"d","interest":15}]}
--------------------
DATA: 2020-01-18 as 15:43:29
IP: 35.239.128.187
URL: www.methodus.com.br/facix2/_php/rdstation/webhook.php
REFERER: 
silv.marcelo74@gmail.com
--------------------
DATA: 2020-01-18 as 15:43:32
IP: 35.239.128.187
URL: www.methodus.com.br/facix2/_php/rdstation/webhook.php
REFERER: 
Observações: 
--------------------