
DATA: 2019-01-21 as 22:38:09
IP: 35.221.9.50
URL: www.methodus.com.br/facix2/_php/rdstation/webhook.php
REFERER: 
{"leads":[{"id":"462830134","email":"agomes@uolinc.com","name":"Ana","company":null,"job_title":null,"bio":null,"public_url":"http://rdstation.com.br/leads/public/4c7e147e-115f-4884-a5d3-1d9b01b600dd","created_at":"2019-01-21T17:31:25.000-02:00","opportunity":"false","number_conversions":"1","user":null,"first_conversion":{"content":{"identificador":"guia-medo-de-falar-em-publico","_rd_experiment_content_id":"","traffic_source":"encoded_eyJmaXJzdF9zZXNzaW9uIjp7InZhbHVlIjoiaHR0cHM6Ly93d3cuZ29vZ2xlLmNvbS8iLCJleHRyYV9wYXJhbXMiOnt9fSwiY3VycmVudF9zZXNzaW9uIjp7InZhbHVlIjoiaHR0cHM6Ly93d3cuZ29vZ2xlLmNvbS8iLCJleHRyYV9wYXJhbXMiOnt9fSwiY3JlYXRlZF9hdCI6MTU0ODA5OTA3MDE0Mn0=","created_at":"2019-01-21 19:31:25 UTC","ip":"200.221.153.143","email_lead":"agomes@uolinc.com","Nome":"Ana"},"created_at":"2019-01-21T17:31:25.000-02:00","cumulative_sum":"1","source":"guia-medo-de-falar-em-publico","conversion_origin":{"source":"Google","medium":"organic","value":null,"campaign":null,"channel":"Organic Search"}},"last_conversion":{"content":{"identificador":"guia-medo-de-falar-em-publico","_rd_experiment_content_id":"","traffic_source":"encoded_eyJmaXJzdF9zZXNzaW9uIjp7InZhbHVlIjoiaHR0cHM6Ly93d3cuZ29vZ2xlLmNvbS8iLCJleHRyYV9wYXJhbXMiOnt9fSwiY3VycmVudF9zZXNzaW9uIjp7InZhbHVlIjoiaHR0cHM6Ly93d3cuZ29vZ2xlLmNvbS8iLCJleHRyYV9wYXJhbXMiOnt9fSwiY3JlYXRlZF9hdCI6MTU0ODA5OTA3MDE0Mn0=","created_at":"2019-01-21 19:31:25 UTC","ip":"200.221.153.143","email_lead":"agomes@uolinc.com","Nome":"Ana"},"created_at":"2019-01-21T17:31:25.000-02:00","cumulative_sum":"1","source":"guia-medo-de-falar-em-publico","conversion_origin":{"source":"Google","medium":"organic","value":null,"campaign":null,"channel":"Organic Search"}},"custom_fields":{},"website":null,"personal_phone":null,"mobile_phone":null,"city":null,"state":null,"tags":null,"lead_stage":"Lead","last_marked_opportunity_date":null,"uuid":"4c7e147e-115f-4884-a5d3-1d9b01b600dd","fit_score":"d","interest":15}]}
--------------------
DATA: 2019-01-21 as 22:38:09
IP: 35.221.9.50
URL: www.methodus.com.br/facix2/_php/rdstation/webhook.php
REFERER: 
agomes@uolinc.com
--------------------
DATA: 2019-01-21 as 22:38:13
IP: 35.221.9.50
URL: www.methodus.com.br/facix2/_php/rdstation/webhook.php
REFERER: 
Observações: 
--------------------
DATA: 2019-01-21 as 22:41:12
IP: 35.221.9.50
URL: www.methodus.com.br/facix2/_php/rdstation/webhook.php
REFERER: 
{"leads":[{"id":"462830134","email":"agomes@uolinc.com","name":"Ana","company":null,"job_title":null,"bio":null,"public_url":"http://rdstation.com.br/leads/public/4c7e147e-115f-4884-a5d3-1d9b01b600dd","created_at":"2019-01-21T17:31:25.000-02:00","opportunity":"false","number_conversions":"1","user":null,"first_conversion":{"content":{"identificador":"guia-medo-de-falar-em-publico","_rd_experiment_content_id":"","traffic_source":"encoded_eyJmaXJzdF9zZXNzaW9uIjp7InZhbHVlIjoiaHR0cHM6Ly93d3cuZ29vZ2xlLmNvbS8iLCJleHRyYV9wYXJhbXMiOnt9fSwiY3VycmVudF9zZXNzaW9uIjp7InZhbHVlIjoiaHR0cHM6Ly93d3cuZ29vZ2xlLmNvbS8iLCJleHRyYV9wYXJhbXMiOnt9fSwiY3JlYXRlZF9hdCI6MTU0ODA5OTA3MDE0Mn0=","created_at":"2019-01-21 19:31:25 UTC","ip":"200.221.153.143","email_lead":"agomes@uolinc.com","Nome":"Ana"},"created_at":"2019-01-21T17:31:25.000-02:00","cumulative_sum":"1","source":"guia-medo-de-falar-em-publico","conversion_origin":{"source":"Google","medium":"organic","value":null,"campaign":null,"channel":"Organic Search"}},"last_conversion":{"content":{"identificador":"guia-medo-de-falar-em-publico","_rd_experiment_content_id":"","traffic_source":"encoded_eyJmaXJzdF9zZXNzaW9uIjp7InZhbHVlIjoiaHR0cHM6Ly93d3cuZ29vZ2xlLmNvbS8iLCJleHRyYV9wYXJhbXMiOnt9fSwiY3VycmVudF9zZXNzaW9uIjp7InZhbHVlIjoiaHR0cHM6Ly93d3cuZ29vZ2xlLmNvbS8iLCJleHRyYV9wYXJhbXMiOnt9fSwiY3JlYXRlZF9hdCI6MTU0ODA5OTA3MDE0Mn0=","created_at":"2019-01-21 19:31:25 UTC","ip":"200.221.153.143","email_lead":"agomes@uolinc.com","Nome":"Ana"},"created_at":"2019-01-21T17:31:25.000-02:00","cumulative_sum":"1","source":"guia-medo-de-falar-em-publico","conversion_origin":{"source":"Google","medium":"organic","value":null,"campaign":null,"channel":"Organic Search"}},"custom_fields":{},"website":null,"personal_phone":null,"mobile_phone":null,"city":null,"state":null,"tags":null,"lead_stage":"Lead","last_marked_opportunity_date":null,"uuid":"4c7e147e-115f-4884-a5d3-1d9b01b600dd","fit_score":"d","interest":15}]}
--------------------
DATA: 2019-01-21 as 22:41:12
IP: 35.221.9.50
URL: www.methodus.com.br/facix2/_php/rdstation/webhook.php
REFERER: 
agomes@uolinc.com
--------------------
DATA: 2019-01-21 as 22:41:15
IP: 35.221.9.50
URL: www.methodus.com.br/facix2/_php/rdstation/webhook.php
REFERER: 
Observações: 
--------------------